<?xml version="1.0"?>
<svg xmlns="http://www.w3.org/2000/svg" xmlns:html="http://www.w3.org/1999/xhtml" xmlns:xlink="http://www.w3.org/1999/xlink" version="1.1" class="blocklySvg" tabindex="0" width="1759px" data-cached-width="1759" height="1180px" data-cached-height="1180">
  <style type="text/css">.blocklyText, .blocklyTreeLabel { fill: #000; font-family: serif; }</style>
  <g class="blocklyWorkspace">
    <rect height="100%" width="100%" class="blocklyMainBackground" style="fill: #fddde6;"/>
    <g class="blocklyBlockCanvas" transform="translate(504.9848098754883, 273.5) scale(1)" fill="#f0f0f0">
      <g class="blocklyCursor">
        <g width="100" height="5">
          <rect width="100" height="5" style="display: none;">
            <animate attributeType="XML" attributeName="fill" dur="1s" values="#cc0a0a;transparent;transparent;" repeatCount="indefinite"/>
          </rect>
          <rect class="blocklyVerticalMarker" rx="10" ry="10" style="display: none;"/>
          <path transform="" style="display: none;">
            <animate attributeType="XML" attributeName="fill" dur="1s" values="#cc0a0a;transparent;transparent;" repeatCount="indefinite"/>
          </path>
          <path transform="" fill="none" stroke-width="4" style="display: none;">
            <animate attributeType="XML" attributeName="stroke" dur="1s" values="#cc0a0a;transparent;transparent;" repeatCount="indefinite"/>
          </path>
        </g>
      </g>
      <g data-id="uQdz=G~_eCX|Cf;pj:i(" transform="translate(-150, 0)" class="blocklyDraggable">
        <path class="blocklyPath" stroke="#f6d4f6" fill="#f2c1f2" d=" m 0,0  m 0,8 a 8 8 0 0,1 8,-8  h 7  l 6,4  3,0  6,-4  h 183.23890686035156  v 5  V 5  V 21  V 21  V 26  h -183.23890686035156  l -6,4  -3,0  -6,-4  h -15  H 0 z"/>
        <g data-id=")EdG;@d@tel+|?q!%(oq" transform="translate(0, 26)" class="blocklyDraggable">
          <path class="blocklyPath" stroke="#f6d4e5" fill="#f2c1da" d=" m 0,0  h 15  l 6,4  3,0  6,-4  h 41.41310119628906  v 5  V 5  H 71.41310119628906  c 0,10  -8,-8  -8,7.5  s 8,-2.5  8,7.5  v 99  V 119  V 124  h -41.41310119628906  l -6,4  -3,0  -6,-4  h -15  H 0 z"/>
          <g data-id="%2}JL7Nn)2,l:|uFb5=4" transform="translate(63.41310119628906, 0)" style="display: block;" class="blocklyDraggable">
            <path class="blocklyPath" stroke="#dfd4f6" fill="#d1c1f2" d=" m 8,0  h 48.48869323730469  v 5  V 5  H 56.48869323730469  c 0,10  -8,-8  -8,7.5  s 8,-2.5  8,7.5  v 99  V 119  V 124  h -48.48869323730469  H 8  V 20  c 0,-10  -8,8  -8,-7.5  s 8,2.5  8,-7.5 z"/>
            <g data-id="E(FA3a!:P/?hnHHB1xUA" transform="translate(48.48869323730469, 0)" style="display: block;" class="blocklyDraggable">
              <path class="blocklyPath" stroke="#dfd4f6" fill="#d1c1f2" d=" m 8,0  h 36.15110778808594  v 5  V 5  V 21  V 31  H 44.15110778808594  c 0,10  -8,-8  -8,7.5  s 8,-2.5  8,7.5  v 47  V 103  H 44.15110778808594  c 0,10  -8,-8  -8,7.5  s 8,-2.5  8,7.5  v 1  V 119  V 124  h -36.15110778808594  H 8  V 20  c 0,-10  -8,8  -8,-7.5  s 8,2.5  8,-7.5 z"/>
              <g data-id="@S0^-$e(I}kh#%:ok|Ln" transform="translate(36.15110778808594, 26)" style="display: block;" class="blocklyDraggable">
                <path class="blocklyPath" stroke="#d4f6f6" fill="#c1f2f2" d=" m 8,0  h 42.65625  v 5  V 5  V 21  V 31  H 50.65625  c 0,10  -8,-8  -8,7.5  s 8,-2.5  8,7.5  v 21  V 67  V 72  h -42.65625  H 8  V 20  c 0,-10  -8,8  -8,-7.5  s 8,2.5  8,-7.5 z"/>
                <g data-id=":8CcN76]_rP|nwv1EdV-" transform="translate(42.65625, 26)" style="display: block;" class="blocklyDraggable">
                  <path class="blocklyPath" stroke="#d4f6e5" fill="#c1f2da" d=" m 8,0  h 883.3212280273438  v 5  V 5  V 41  V 41  V 46  h -883.3212280273438  H 8  V 20  c 0,-10  -8,8  -8,-7.5  s 8,2.5  8,-7.5 z M 58.80653381347656,5  v 5  c 0,10  -8,-8  -8,7.5  s 8,-2.5  8,7.5  v 16  h 244.52769470214844  v -36 z M 336.662353515625,5  v 5  c 0,10  -8,-8  -8,7.5  s 8,-2.5  8,7.5  v 16  h 318.65223693847656  v -36 z M 699.2245635986328,10  v 5  c 0,10  -8,-8  -8,7.5  s 8,-2.5  8,7.5  v 6  h 56.67640686035156  v -26 z M 790.4599914550781,10  v 5  c 0,10  -8,-8  -8,7.5  s 8,-2.5  8,7.5  v 6  h 28.151107788085938  v -26 z M 853.1701202392578,10  v 5  c 0,10  -8,-8  -8,7.5  s 8,-2.5  8,7.5  v 6  h 28.151107788085938  v -26 z"/>
                  <g data-id="%jNq%/W]FEgN0l#v}mqs" transform="translate(50.80653381347656, 5)" class="blocklyDraggable" style="display: block;">
                    <path class="blocklyPath" stroke="#d4e5f6" fill="#c1daf2" d=" m 8,0  h 244.52769470214844  v 5  V 5  V 31  V 31  V 36  h -244.52769470214844  H 8  V 20  c 0,-10  -8,8  -8,-7.5  s 8,2.5  8,-7.5 z M 68.58213806152344,5  v 5  c 0,10  -8,-8  -8,7.5  s 8,-2.5  8,7.5  v 6  h 40.37419128417969  v -26 z M 143.51535034179688,5  v 5  c 0,10  -8,-8  -8,7.5  s 8,-2.5  8,7.5  v 6  h 36.302215576171875  v -26 z M 214.3765869140625,5  v 5  c 0,10  -8,-8  -8,7.5  s 8,-2.5  8,7.5  v 6  h 28.151107788085938  v -26 z"/>
                    <g data-id="{7E*GIfb8WP4[Z,1~U*`" transform="translate(60.58213806152344, 5)" class="blocklyDraggable" style="display: block;">
                      <path class="blocklyPath" stroke="none" fill="#e6e9fa" d=" m 8,0  h 40.37419128417969  v 5  V 5  V 21  V 21  V 26  h -40.37419128417969  H 8  V 20  c 0,-10  -8,8  -8,-7.5  s 8,2.5  8,-7.5 z"/>
                      <g class="blocklyEditableText" transform="translate(13,5)" style="cursor: text;">
                        <rect rx="4" ry="4" x="0" y="0" height="16" width="30.374191284179688" class="blocklyFieldRect"/>
                        <text class="blocklyText" dominant-baseline="central" x="5" y="8">0.2</text>
                      </g>
                    </g>
                    <g data-id="rU(:_#1tCB2HZY1f$sX{" transform="translate(135.51535034179688, 5)" class="blocklyDraggable" style="display: block;">
                      <path class="blocklyPath" stroke="none" fill="#e6e9fa" d=" m 8,0  h 36.302215576171875  v 5  V 5  V 21  V 21  V 26  h -36.302215576171875  H 8  V 20  c 0,-10  -8,8  -8,-7.5  s 8,2.5  8,-7.5 z"/>
                      <g class="blocklyEditableText" transform="translate(13,5)" style="cursor: text;">
                        <rect rx="4" ry="4" x="0" y="0" height="16" width="26.302215576171875" class="blocklyFieldRect"/>
                        <text class="blocklyText" dominant-baseline="central" x="5" y="8">50</text>
                      </g>
                    </g>
                    <g data-id="BvH*!@_[OOA$Wa4W{yEm" transform="translate(206.3765869140625, 5)" class="blocklyDraggable" style="display: block;">
                      <path class="blocklyPath" stroke="none" fill="#e6e9fa" d=" m 8,0  h 28.151107788085938  v 5  V 5  V 21  V 21  V 26  h -28.151107788085938  H 8  V 20  c 0,-10  -8,8  -8,-7.5  s 8,2.5  8,-7.5 z"/>
                      <g class="blocklyEditableText" transform="translate(13,5)" style="cursor: text;">
                        <rect rx="4" ry="4" x="0" y="0" height="16" width="18.151107788085938" class="blocklyFieldRect"/>
                        <text class="blocklyText" dominant-baseline="central" x="5" y="8">0</text>
                      </g>
                    </g>
                    <g transform="translate(18,10)">
                      <text class="blocklyText" dominant-baseline="central" x="0" y="8">&#x2885;</text>
                    </g>
                    <g transform="translate(38.73455810546875,10)">
                      <text class="blocklyText" dominant-baseline="central" x="0" y="8">&#x25A9;</text>
                    </g>
                    <g transform="translate(118.95632934570312,10)">
                      <text class="blocklyText" dominant-baseline="central" x="0" y="8">&#xD7;</text>
                    </g>
                    <g transform="translate(189.81756591796875,10)">
                      <text class="blocklyText" dominant-baseline="central" x="0" y="8">+</text>
                    </g>
                  </g>
                  <g data-id="BJfir=NbhI~Xb:3zOxm*" transform="translate(328.662353515625, 5)" class="blocklyDraggable" style="display: block;">
                    <path class="blocklyPath" stroke="#f6f6d4" fill="#f2f2c1" d=" m 8,0  h 318.65223693847656  v 5  V 5  V 31  V 31  V 36  h -318.65223693847656  H 8  V 20  c 0,-10  -8,8  -8,-7.5  s 8,2.5  8,-7.5 z M 62.45628356933594,5  v 5  c 0,10  -8,-8  -8,7.5  s 8,-2.5  8,7.5  v 6  h 44.45332336425781  v -26 z M 138.62754821777344,5  v 5  c 0,10  -8,-8  -8,7.5  s 8,-2.5  8,7.5  v 6  h 52.60443115234375  v -26 z M 225.79100036621094,5  v 5  c 0,10  -8,-8  -8,7.5  s 8,-2.5  8,7.5  v 6  h 28.151107788085938  v -26 z M 288.5011291503906,5  v 5  c 0,10  -8,-8  -8,7.5  s 8,-2.5  8,7.5  v 6  h 28.151107788085938  v -26 z"/>
                    <g data-id="3Kz#b,RLPaLvLgaAe0Gg" transform="translate(54.45628356933594, 5)" class="blocklyDraggable" style="display: block;">
                      <path class="blocklyPath" stroke="none" fill="#e6e9fa" d=" m 8,0  h 44.45332336425781  v 5  V 5  V 21  V 21  V 26  h -44.45332336425781  H 8  V 20  c 0,-10  -8,8  -8,-7.5  s 8,2.5  8,-7.5 z"/>
                      <g class="blocklyEditableText" transform="translate(13,5)" style="cursor: text;">
                        <rect rx="4" ry="4" x="0" y="0" height="16" width="34.45332336425781" class="blocklyFieldRect"/>
                        <text class="blocklyText" dominant-baseline="central" x="5" y="8">200</text>
                      </g>
                    </g>
                    <g data-id="ZTDQYK;^?$AzfOuKEg{+" transform="translate(130.62754821777344, 5)" class="blocklyDraggable" style="display: block;">
                      <path class="blocklyPath" stroke="none" fill="#e6e9fa" d=" m 8,0  h 52.60443115234375  v 5  V 5  V 21  V 21  V 26  h -52.60443115234375  H 8  V 20  c 0,-10  -8,8  -8,-7.5  s 8,2.5  8,-7.5 z"/>
                      <g class="blocklyEditableText" transform="translate(13,5)" style="cursor: text;">
                        <rect rx="4" ry="4" x="0" y="0" height="16" width="42.60443115234375" class="blocklyFieldRect"/>
                        <text class="blocklyText" dominant-baseline="central" x="5" y="8">3200</text>
                      </g>
                    </g>
                    <g data-id="`ms!0-]Z9NX^97:+SaXa" transform="translate(217.79100036621094, 5)" class="blocklyDraggable" style="display: block;">
                      <path class="blocklyPath" stroke="none" fill="#e6e9fa" d=" m 8,0  h 28.151107788085938  v 5  V 5  V 21  V 21  V 26  h -28.151107788085938  H 8  V 20  c 0,-10  -8,8  -8,-7.5  s 8,2.5  8,-7.5 z"/>
                      <g class="blocklyEditableText" transform="translate(13,5)" style="cursor: text;">
                        <rect rx="4" ry="4" x="0" y="0" height="16" width="18.151107788085938" class="blocklyFieldRect"/>
                        <text class="blocklyText" dominant-baseline="central" x="5" y="8">1</text>
                      </g>
                    </g>
                    <g data-id="CRKiH+F{Itq:s1D%)ap{" transform="translate(280.5011291503906, 5)" class="blocklyDraggable" style="display: block;">
                      <path class="blocklyPath" stroke="none" fill="#e6e9fa" d=" m 8,0  h 28.151107788085938  v 5  V 5  V 21  V 21  V 26  h -28.151107788085938  H 8  V 20  c 0,-10  -8,8  -8,-7.5  s 8,2.5  8,-7.5 z"/>
                      <g class="blocklyEditableText" transform="translate(13,5)" style="cursor: text;">
                        <rect rx="4" ry="4" x="0" y="0" height="16" width="18.151107788085938" class="blocklyFieldRect"/>
                        <text class="blocklyText" dominant-baseline="central" x="5" y="8">0</text>
                      </g>
                    </g>
                    <g transform="translate(18,10)">
                      <text class="blocklyText" dominant-baseline="central" x="0" y="8">&#x2681;</text>
                    </g>
                    <g transform="translate(40.73834228515625,10)">
                      <text class="blocklyText" dominant-baseline="central" x="0" y="8">&#x230A;</text>
                    </g>
                    <g transform="translate(116.90960693359375,10)">
                      <text class="blocklyText" dominant-baseline="central" x="0" y="8">&#x2309;</text>
                    </g>
                    <g transform="translate(201.2319793701172,10)">
                      <text class="blocklyText" dominant-baseline="central" x="0" y="8">&#xD7;</text>
                    </g>
                    <g transform="translate(263.9421081542969,10)">
                      <text class="blocklyText" dominant-baseline="central" x="0" y="8">+</text>
                    </g>
                  </g>
                  <g data-id="n.`nH#Qi@*c5{:_EUQk=" transform="translate(691.2245635986328, 10)" class="blocklyDraggable" style="display: block;">
                    <path class="blocklyPath" stroke="none" fill="#e6e9fa" d=" m 8,0  h 56.67640686035156  v 5  V 5  V 21  V 21  V 26  h -56.67640686035156  H 8  V 20  c 0,-10  -8,8  -8,-7.5  s 8,2.5  8,-7.5 z"/>
                    <g class="blocklyEditableText" transform="translate(13,5)" style="cursor: text;">
                      <rect rx="4" ry="4" x="0" y="0" height="16" width="46.67640686035156" class="blocklyFieldRect"/>
                      <text class="blocklyText" dominant-baseline="central" x="5" y="8">0.003</text>
                    </g>
                  </g>
                  <g data-id="wi(`98vWnystkpxO#z2M" transform="translate(782.4599914550781, 10)" class="blocklyDraggable" style="display: block;">
                    <path class="blocklyPath" stroke="none" fill="#e6e9fa" d=" m 8,0  h 28.151107788085938  v 5  V 5  V 21  V 21  V 26  h -28.151107788085938  H 8  V 20  c 0,-10  -8,8  -8,-7.5  s 8,2.5  8,-7.5 z"/>
                    <g class="blocklyEditableText" transform="translate(13,5)" style="cursor: text;">
                      <rect rx="4" ry="4" x="0" y="0" height="16" width="18.151107788085938" class="blocklyFieldRect"/>
                      <text class="blocklyText" dominant-baseline="central" x="5" y="8">1</text>
                    </g>
                  </g>
                  <g data-id="_S~H*(Swi?]xa-J(gg`p" transform="translate(845.1701202392578, 10)" class="blocklyDraggable" style="display: block;">
                    <path class="blocklyPath" stroke="none" fill="#e6e9fa" d=" m 8,0  h 28.151107788085938  v 5  V 5  V 21  V 21  V 26  h -28.151107788085938  H 8  V 20  c 0,-10  -8,8  -8,-7.5  s 8,2.5  8,-7.5 z"/>
                    <g class="blocklyEditableText" transform="translate(13,5)" style="cursor: text;">
                      <rect rx="4" ry="4" x="0" y="0" height="16" width="18.151107788085938" class="blocklyFieldRect"/>
                      <text class="blocklyText" dominant-baseline="central" x="5" y="8">0</text>
                    </g>
                  </g>
                  <g transform="translate(18,15)">
                    <text class="blocklyText" dominant-baseline="central" x="0" y="8">&#x22CF;</text>
                  </g>
                  <g transform="translate(38.73455810546875,15)">
                    <text class="blocklyText" dominant-baseline="central" x="0" y="8">&#x2219;</text>
                  </g>
                  <g transform="translate(313.334228515625,15)">
                    <text class="blocklyText" dominant-baseline="central" x="0" y="8">&#x3BD;</text>
                  </g>
                  <g transform="translate(665.3145904541016,15)">
                    <text class="blocklyText" dominant-baseline="central" x="0" y="8">&#xB9;&#x2044;&#x1D444;</text>
                  </g>
                  <g transform="translate(765.9009704589844,15)">
                    <text class="blocklyText" dominant-baseline="central" x="0" y="8">&#xD7;</text>
                  </g>
                  <g transform="translate(828.6110992431641,15)">
                    <text class="blocklyText" dominant-baseline="central" x="0" y="8">+</text>
                  </g>
                </g>
                <g transform="translate(18,5)">
                  <text class="blocklyText" dominant-baseline="central" x="0" y="8">&#x3BB;</text>
                </g>
                <g transform="translate(18,41)">
                  <text class="blocklyText" dominant-baseline="central" x="0" y="8">&#x2190;</text>
                </g>
              </g>
              <g data-id="(lk*LcZY0iW*]rLMHQ}O" transform="translate(36.15110778808594, 98)" class="blocklyDraggable" style="display: block;">
                <path class="blocklyPath" stroke="#d4d9f6" fill="#c1c9f2" d=" m 8,0  h 36.302215576171875  v 5  V 5  V 21  V 21  V 26  h -36.302215576171875  H 8  V 20  c 0,-10  -8,8  -8,-7.5  s 8,2.5  8,-7.5 z"/>
                <g class="blocklyEditableText" transform="translate(13,5)" style="cursor: text;">
                  <rect rx="4" ry="4" x="0" y="0" height="16" width="26.302215576171875" class="blocklyFieldRect"/>
                  <text class="blocklyText" dominant-baseline="central" x="5" y="8">10</text>
                </g>
              </g>
              <g transform="translate(18,5)">
                <text class="blocklyText" dominant-baseline="central" x="0" y="8">!</text>
              </g>
              <g transform="translate(18,54)">
                <text class="blocklyText" dominant-baseline="central" x="0" y="8">&#x1D453;</text>
              </g>
              <g transform="translate(18,103)">
                <text class="blocklyText" dominant-baseline="central" x="0" y="8">#</text>
              </g>
            </g>
            <g class="blocklyEditableText" transform="translate(13,54)" style="cursor: default;">
              <rect rx="4" ry="4" x="0" y="0" height="16" width="30.488693237304688" class="blocklyFieldRect blocklyDropdownRect" stroke="#dfd4f6" fill="transparent"/>
              <text class="blocklyText blocklyDropdownText" dominant-baseline="central" text-anchor="start" x="5" y="8">&#x3A3;<tspan dominant-baseline="central" style="fill: rgb(209, 193, 242);"> &#x25BE;</tspan></text>
              <image style="display: none;"/>
            </g>
          </g>
          <g data-id="(b0/%BbTk-3@W8i?yf$2" transform="translate(0, 124)" class="blocklyDraggable">
            <path class="blocklyPath" stroke="#f6d4e5" fill="#f2c1da" d=" m 0,0  h 15  l 6,4  3,0  6,-4  h 41.41310119628906  v 5  V 5  H 71.41310119628906  c 0,10  -8,-8  -8,7.5  s 8,-2.5  8,7.5  v 265  V 285  V 290  h -41.41310119628906  l -6,4  -3,0  -6,-4  h -15  H 0 z"/>
            <g data-id="x/dC*Y!F!mWsTX4+:SSw" transform="translate(63.41310119628906, 0)" style="display: block;" class="blocklyDraggable">
              <path class="blocklyPath" stroke="#dfd4f6" fill="#d1c1f2" d=" m 8,0  h 48.48869323730469  v 5  V 5  H 56.48869323730469  c 0,10  -8,-8  -8,7.5  s 8,-2.5  8,7.5  v 265  V 285  V 290  h -48.48869323730469  H 8  V 20  c 0,-10  -8,8  -8,-7.5  s 8,2.5  8,-7.5 z"/>
              <g data-id="-CvMt`n1AZH4)E`}Cd$4" transform="translate(48.48869323730469, 0)" style="display: block;" class="blocklyDraggable">
                <path class="blocklyPath" stroke="#dfd4f6" fill="#d1c1f2" d=" m 8,0  h 36.15110778808594  v 5  V 5  V 21  V 31  H 44.15110778808594  c 0,10  -8,-8  -8,7.5  s 8,-2.5  8,7.5  v 213  V 269  H 44.15110778808594  c 0,10  -8,-8  -8,7.5  s 8,-2.5  8,7.5  v 1  V 285  V 290  h -36.15110778808594  H 8  V 20  c 0,-10  -8,8  -8,-7.5  s 8,2.5  8,-7.5 z"/>
                <g data-id="*O/U[,Ul]Otc4w7-yfpQ" transform="translate(36.15110778808594, 26)" style="display: block;" class="blocklyDraggable">
                  <path class="blocklyPath" stroke="#d4f6f6" fill="#c1f2f2" d=" m 8,0  h 42.65625  v 5  V 5  V 21  V 31  H 50.65625  c 0,10  -8,-8  -8,7.5  s 8,-2.5  8,7.5  v 187  V 233  V 238  h -42.65625  H 8  V 20  c 0,-10  -8,8  -8,-7.5  s 8,2.5  8,-7.5 z"/>
                  <g data-id="FKqW[AbT^d=OB!yE=;)X" transform="translate(42.65625, 26)" style="display: block;" class="blocklyDraggable">
                    <path class="blocklyPath" stroke="#d4f6e5" fill="#c1f2da" d=" m 8,0  h 48.07362365722656  v 5  V 5  V 21  V 31  H 56.07362365722656  c 0,10  -8,-8  -8,7.5  s 8,-2.5  8,7.5  v 11  V 67  H 56.07362365722656  c 0,10  -8,-8  -8,7.5  s 8,-2.5  8,7.5  v 1  V 93  H 56.07362365722656  c 0,10  -8,-8  -8,7.5  s 8,-2.5  8,7.5  v 21  V 139  H 56.07362365722656  c 0,10  -8,-8  -8,7.5  s 8,-2.5  8,7.5  v 1  V 165  H 56.07362365722656  c 0,10  -8,-8  -8,7.5  s 8,-2.5  8,7.5  v 1  V 191  H 56.07362365722656  c 0,10  -8,-8  -8,7.5  s 8,-2.5  8,7.5  v 1  V 207  V 212  h -48.07362365722656  H 8  V 20  c 0,-10  -8,8  -8,-7.5  s 8,2.5  8,-7.5 z"/>
                    <g data-id="]`D3CMHh]5ZOQ.j;dD_x" transform="translate(48.07362365722656, 26)" style="display: block;" class="blocklyDraggable">
                      <path class="blocklyPath" stroke="#d4f6e5" fill="#c1f2da" d=" m 8,0  h 411.701171875  v 5  V 5  V 31  V 31  V 36  h -411.701171875  H 8  V 20  c 0,-10  -8,8  -8,-7.5  s 8,2.5  8,-7.5 z M 56.865753173828125,5  v 5  c 0,10  -8,-8  -8,7.5  s 8,-2.5  8,7.5  v 6  h 38.75685119628906  v -26 z M 136.1343231201172,5  v 5  c 0,10  -8,-8  -8,7.5  s 8,-2.5  8,7.5  v 6  h 56.67640686035156  v -26 z M 227.60450744628906,5  v 5  c 0,10  -8,-8  -8,7.5  s 8,-2.5  8,7.5  v 6  h 56.67640686035156  v -26 z M 318.8399353027344,5  v 5  c 0,10  -8,-8  -8,7.5  s 8,-2.5  8,7.5  v 6  h 28.151107788085938  v -26 z M 381.55006408691406,5  v 5  c 0,10  -8,-8  -8,7.5  s 8,-2.5  8,7.5  v 6  h 28.151107788085938  v -26 z"/>
                      <g data-id="l]mozh*WZM8achwZ0d%6" transform="translate(48.865753173828125, 5)" class="blocklyDraggable" style="display: block;">
                        <path class="blocklyPath" stroke="#f6d4e5" fill="#f2c1da" d=" m 8,0  h 38.75685119628906  v 5  V 5  V 21  V 21  V 26  h -38.75685119628906  H 8  V 20  c 0,-10  -8,8  -8,-7.5  s 8,2.5  8,-7.5 z"/>
                        <g class="blocklyEditableText" transform="translate(13,5)" style="cursor: default;">
                          <rect rx="4" ry="4" x="0" y="0" height="16" width="28.756851196289062" class="blocklyFieldRect blocklyDropdownRect" stroke="#f6d4e5" fill="transparent"/>
                          <text class="blocklyText blocklyDropdownText" dominant-baseline="central" text-anchor="start" x="5" y="8">s<tspan dominant-baseline="central" style="fill: rgb(242, 193, 218);"> &#x25BE;</tspan></text>
                          <image style="display: none;"/>
                        </g>
                      </g>
                      <g data-id="5_+%z4c|~$_O;I+fkzG-" transform="translate(128.1343231201172, 5)" class="blocklyDraggable" style="display: block;">
                        <path class="blocklyPath" stroke="none" fill="#e6e9fa" d=" m 8,0  h 56.67640686035156  v 5  V 5  V 21  V 21  V 26  h -56.67640686035156  H 8  V 20  c 0,-10  -8,8  -8,-7.5  s 8,2.5  8,-7.5 z"/>
                        <g class="blocklyEditableText" transform="translate(13,5)" style="cursor: text;">
                          <rect rx="4" ry="4" x="0" y="0" height="16" width="46.67640686035156" class="blocklyFieldRect"/>
                          <text class="blocklyText" dominant-baseline="central" x="5" y="8">0.048</text>
                        </g>
                      </g>
                      <g data-id="H2[sOPhy]d}6^Jm8b8]v" transform="translate(219.60450744628906, 5)" class="blocklyDraggable" style="display: block;">
                        <path class="blocklyPath" stroke="none" fill="#e6e9fa" d=" m 8,0  h 56.67640686035156  v 5  V 5  V 21  V 21  V 26  h -56.67640686035156  H 8  V 20  c 0,-10  -8,8  -8,-7.5  s 8,2.5  8,-7.5 z"/>
                        <g class="blocklyEditableText" transform="translate(13,5)" style="cursor: text;">
                          <rect rx="4" ry="4" x="0" y="0" height="16" width="46.67640686035156" class="blocklyFieldRect"/>
                          <text class="blocklyText" dominant-baseline="central" x="5" y="8">0.048</text>
                        </g>
                      </g>
                      <g data-id="P/EhEPc7s@`75OB!O:TP" transform="translate(310.8399353027344, 5)" class="blocklyDraggable" style="display: block;">
                        <path class="blocklyPath" stroke="none" fill="#e6e9fa" d=" m 8,0  h 28.151107788085938  v 5  V 5  V 21  V 21  V 26  h -28.151107788085938  H 8  V 20  c 0,-10  -8,8  -8,-7.5  s 8,2.5  8,-7.5 z"/>
                        <g class="blocklyEditableText" transform="translate(13,5)" style="cursor: text;">
                          <rect rx="4" ry="4" x="0" y="0" height="16" width="18.151107788085938" class="blocklyFieldRect"/>
                          <text class="blocklyText" dominant-baseline="central" x="5" y="8">1</text>
                        </g>
                      </g>
                      <g data-id="oxO.e$g}osj(#yqTq%~4" transform="translate(373.55006408691406, 5)" class="blocklyDraggable" style="display: block;">
                        <path class="blocklyPath" stroke="none" fill="#e6e9fa" d=" m 8,0  h 28.151107788085938  v 5  V 5  V 21  V 21  V 26  h -28.151107788085938  H 8  V 20  c 0,-10  -8,8  -8,-7.5  s 8,2.5  8,-7.5 z"/>
                        <g class="blocklyEditableText" transform="translate(13,5)" style="cursor: text;">
                          <rect rx="4" ry="4" x="0" y="0" height="16" width="18.151107788085938" class="blocklyFieldRect"/>
                          <text class="blocklyText" dominant-baseline="central" x="5" y="8">0</text>
                        </g>
                      </g>
                      <g transform="translate(18,10)">
                        <text class="blocklyText" dominant-baseline="central" x="0" y="8">&#x23B5;</text>
                      </g>
                      <g transform="translate(36.79377746582031,10)">
                        <text class="blocklyText" dominant-baseline="central" x="0" y="8">&#x2219;</text>
                      </g>
                      <g transform="translate(105.62260437011719,10)">
                        <text class="blocklyText" dominant-baseline="central" x="0" y="8">&#x2308;&#x23B5;</text>
                      </g>
                      <g transform="translate(202.81072998046875,10)">
                        <text class="blocklyText" dominant-baseline="central" x="0" y="8">&#x23B5;</text>
                      </g>
                      <g transform="translate(294.2809143066406,10)">
                        <text class="blocklyText" dominant-baseline="central" x="0" y="8">&#xD7;</text>
                      </g>
                      <g transform="translate(356.9910430908203,10)">
                        <text class="blocklyText" dominant-baseline="central" x="0" y="8">+</text>
                      </g>
                    </g>
                    <g data-id="wr2dXAnrfn!$5Bxu~Y!;" transform="translate(48.07362365722656, 62)" class="blocklyDraggable" style="display: block;">
                      <path class="blocklyPath" stroke="none" fill="#e6e9fa" d=" m 8,0  h 40.37419128417969  v 5  V 5  V 21  V 21  V 26  h -40.37419128417969  H 8  V 20  c 0,-10  -8,8  -8,-7.5  s 8,2.5  8,-7.5 z"/>
                      <g class="blocklyEditableText" transform="translate(13,5)" style="cursor: text;">
                        <rect rx="4" ry="4" x="0" y="0" height="16" width="30.374191284179688" class="blocklyFieldRect"/>
                        <text class="blocklyText" dominant-baseline="central" x="5" y="8">0.1</text>
                      </g>
                    </g>
                    <g data-id="WB,?Z3/J8br3e!4,cvPs" transform="translate(48.07362365722656, 88)" style="display: block;" class="blocklyDraggable">
                      <path class="blocklyPath" stroke="#d4e5f6" fill="#c1daf2" d=" m 8,0  h 530.6835327148438  v 5  V 5  V 41  V 41  V 46  h -530.6835327148438  H 8  V 20  c 0,-10  -8,8  -8,-7.5  s 8,2.5  8,-7.5 z M 72.39511108398438,5  v 5  c 0,10  -8,-8  -8,7.5  s 8,-2.5  8,7.5  v 16  h 290.1197814941406  v -36 z M 397.07391357421875,10  v 5  c 0,10  -8,-8  -8,7.5  s 8,-2.5  8,7.5  v 6  h 48.525299072265625  v -26 z M 480.1582336425781,10  v 5  c 0,10  -8,-8  -8,7.5  s 8,-2.5  8,7.5  v 6  h 48.525299072265625  v -26 z"/>
                      <g data-id="g?5CAdbAw_8,Okr0;_l6" transform="translate(64.39511108398438, 5)" class="blocklyDraggable" style="display: block;">
                        <path class="blocklyPath" stroke="#f6f6d4" fill="#f2f2c1" d=" m 8,0  h 290.1197814941406  v 5  V 5  V 31  V 31  V 36  h -290.1197814941406  H 8  V 20  c 0,-10  -8,8  -8,-7.5  s 8,2.5  8,-7.5 z M 62.45628356933594,5  v 5  c 0,10  -8,-8  -8,7.5  s 8,-2.5  8,7.5  v 6  h 28.151107788085938  v -26 z M 122.32533264160156,5  v 5  c 0,10  -8,-8  -8,7.5  s 8,-2.5  8,7.5  v 6  h 40.37419128417969  v -26 z M 197.258544921875,5  v 5  c 0,10  -8,-8  -8,7.5  s 8,-2.5  8,7.5  v 6  h 28.151107788085938  v -26 z M 259.9686737060547,5  v 5  c 0,10  -8,-8  -8,7.5  s 8,-2.5  8,7.5  v 6  h 28.151107788085938  v -26 z"/>
                        <g data-id="9]2){ZzDHj!sm)q=($n8" transform="translate(54.45628356933594, 5)" class="blocklyDraggable" style="display: block;">
                          <path class="blocklyPath" stroke="none" fill="#e6e9fa" d=" m 8,0  h 28.151107788085938  v 5  V 5  V 21  V 21  V 26  h -28.151107788085938  H 8  V 20  c 0,-10  -8,8  -8,-7.5  s 8,2.5  8,-7.5 z"/>
                          <g class="blocklyEditableText" transform="translate(13,5)" style="cursor: text;">
                            <rect rx="4" ry="4" x="0" y="0" height="16" width="18.151107788085938" class="blocklyFieldRect"/>
                            <text class="blocklyText" dominant-baseline="central" x="5" y="8">0</text>
                          </g>
                        </g>
                        <g data-id="D=`RM2_4nmD%$!92T_vm" transform="translate(114.32533264160156, 5)" class="blocklyDraggable" style="display: block;">
                          <path class="blocklyPath" stroke="none" fill="#e6e9fa" d=" m 8,0  h 40.37419128417969  v 5  V 5  V 21  V 21  V 26  h -40.37419128417969  H 8  V 20  c 0,-10  -8,8  -8,-7.5  s 8,2.5  8,-7.5 z"/>
                          <g class="blocklyEditableText" transform="translate(13,5)" style="cursor: text;">
                            <rect rx="4" ry="4" x="0" y="0" height="16" width="30.374191284179688" class="blocklyFieldRect"/>
                            <text class="blocklyText" dominant-baseline="central" x="5" y="8">0.1</text>
                          </g>
                        </g>
                        <g data-id="Ol/F#vz2JJ8JhZMCN/QG" transform="translate(189.258544921875, 5)" class="blocklyDraggable" style="display: block;">
                          <path class="blocklyPath" stroke="none" fill="#e6e9fa" d=" m 8,0  h 28.151107788085938  v 5  V 5  V 21  V 21  V 26  h -28.151107788085938  H 8  V 20  c 0,-10  -8,8  -8,-7.5  s 8,2.5  8,-7.5 z"/>
                          <g class="blocklyEditableText" transform="translate(13,5)" style="cursor: text;">
                            <rect rx="4" ry="4" x="0" y="0" height="16" width="18.151107788085938" class="blocklyFieldRect"/>
                            <text class="blocklyText" dominant-baseline="central" x="5" y="8">1</text>
                          </g>
                        </g>
                        <g data-id="ml)2qA;0A64p92DX=o|:" transform="translate(251.9686737060547, 5)" class="blocklyDraggable" style="display: block;">
                          <path class="blocklyPath" stroke="none" fill="#e6e9fa" d=" m 8,0  h 28.151107788085938  v 5  V 5  V 21  V 21  V 26  h -28.151107788085938  H 8  V 20  c 0,-10  -8,8  -8,-7.5  s 8,2.5  8,-7.5 z"/>
                          <g class="blocklyEditableText" transform="translate(13,5)" style="cursor: text;">
                            <rect rx="4" ry="4" x="0" y="0" height="16" width="18.151107788085938" class="blocklyFieldRect"/>
                            <text class="blocklyText" dominant-baseline="central" x="5" y="8">0</text>
                          </g>
                        </g>
                        <g transform="translate(18,10)">
                          <text class="blocklyText" dominant-baseline="central" x="0" y="8">&#x2681;</text>
                        </g>
                        <g transform="translate(40.73834228515625,10)">
                          <text class="blocklyText" dominant-baseline="central" x="0" y="8">&#x230A;</text>
                        </g>
                        <g transform="translate(100.60739135742188,10)">
                          <text class="blocklyText" dominant-baseline="central" x="0" y="8">&#x2309;</text>
                        </g>
                        <g transform="translate(172.69952392578125,10)">
                          <text class="blocklyText" dominant-baseline="central" x="0" y="8">&#xD7;</text>
                        </g>
                        <g transform="translate(235.40965270996094,10)">
                          <text class="blocklyText" dominant-baseline="central" x="0" y="8">+</text>
                        </g>
                      </g>
                      <g data-id="cMLf/%4!z^+eyXG1W%|t" transform="translate(389.07391357421875, 10)" class="blocklyDraggable" style="display: block;">
                        <path class="blocklyPath" stroke="none" fill="#e6e9fa" d=" m 8,0  h 48.525299072265625  v 5  V 5  V 21  V 21  V 26  h -48.525299072265625  H 8  V 20  c 0,-10  -8,8  -8,-7.5  s 8,2.5  8,-7.5 z"/>
                        <g class="blocklyEditableText" transform="translate(13,5)" style="cursor: text;">
                          <rect rx="4" ry="4" x="0" y="0" height="16" width="38.525299072265625" class="blocklyFieldRect"/>
                          <text class="blocklyText" dominant-baseline="central" x="5" y="8">0.04</text>
                        </g>
                      </g>
                      <g data-id="V[Fe4rYrgdoPAK`-md+S" transform="translate(472.1582336425781, 10)" class="blocklyDraggable" style="display: block;">
                        <path class="blocklyPath" stroke="none" fill="#e6e9fa" d=" m 8,0  h 48.525299072265625  v 5  V 5  V 21  V 21  V 26  h -48.525299072265625  H 8  V 20  c 0,-10  -8,8  -8,-7.5  s 8,2.5  8,-7.5 z"/>
                        <g class="blocklyEditableText" transform="translate(13,5)" style="cursor: text;">
                          <rect rx="4" ry="4" x="0" y="0" height="16" width="38.525299072265625" class="blocklyFieldRect"/>
                          <text class="blocklyText" dominant-baseline="central" x="5" y="8">0.05</text>
                        </g>
                      </g>
                      <g transform="translate(18,15)">
                        <text class="blocklyText" dominant-baseline="central" x="0" y="8">&#x240A;&#x2370;&#x2081;</text>
                      </g>
                      <g transform="translate(49.066986083984375,15)">
                        <text class="blocklyText" dominant-baseline="central" x="0" y="8">&#x3BD;</text>
                      </g>
                      <g transform="translate(372.514892578125,15)">
                        <text class="blocklyText" dominant-baseline="central" x="0" y="8">&#xD7;</text>
                      </g>
                      <g transform="translate(455.5992126464844,15)">
                        <text class="blocklyText" dominant-baseline="central" x="0" y="8">+</text>
                      </g>
                    </g>
                    <g data-id="*6AJ$O_LjU#0v{A1XJnf" transform="translate(48.07362365722656, 134)" class="blocklyDraggable" style="display: block;">
                      <path class="blocklyPath" stroke="none" fill="#e6e9fa" d=" m 8,0  h 36.302215576171875  v 5  V 5  V 21  V 21  V 26  h -36.302215576171875  H 8  V 20  c 0,-10  -8,8  -8,-7.5  s 8,2.5  8,-7.5 z"/>
                      <g class="blocklyEditableText" transform="translate(13,5)" style="cursor: text;">
                        <rect rx="4" ry="4" x="0" y="0" height="16" width="26.302215576171875" class="blocklyFieldRect"/>
                        <text class="blocklyText" dominant-baseline="central" x="5" y="8">15</text>
                      </g>
                    </g>
                    <g data-id="YdIfz9;e9Cmi%$H_LuVE" transform="translate(48.07362365722656, 160)" class="blocklyDraggable" style="display: block;">
                      <path class="blocklyPath" stroke="none" fill="#e6e9fa" d=" m 8,0  h 28.151107788085938  v 5  V 5  V 21  V 21  V 26  h -28.151107788085938  H 8  V 20  c 0,-10  -8,8  -8,-7.5  s 8,2.5  8,-7.5 z"/>
                      <g class="blocklyEditableText" transform="translate(13,5)" style="cursor: text;">
                        <rect rx="4" ry="4" x="0" y="0" height="16" width="18.151107788085938" class="blocklyFieldRect"/>
                        <text class="blocklyText" dominant-baseline="central" x="5" y="8">1</text>
                      </g>
                    </g>
                    <g data-id="bsMzR8+Rk3Dm?4jvGm%}" transform="translate(48.07362365722656, 186)" class="blocklyDraggable" style="display: block;">
                      <path class="blocklyPath" stroke="none" fill="#e6e9fa" d=" m 8,0  h 28.151107788085938  v 5  V 5  V 21  V 21  V 26  h -28.151107788085938  H 8  V 20  c 0,-10  -8,8  -8,-7.5  s 8,2.5  8,-7.5 z"/>
                      <g class="blocklyEditableText" transform="translate(13,5)" style="cursor: text;">
                        <rect rx="4" ry="4" x="0" y="0" height="16" width="18.151107788085938" class="blocklyFieldRect"/>
                        <text class="blocklyText" dominant-baseline="central" x="5" y="8">0</text>
                      </g>
                    </g>
                    <g transform="translate(18,5)">
                      <text class="blocklyText" dominant-baseline="central" x="0" y="8">&#x168A;</text>
                    </g>
                    <g transform="translate(18,36)">
                      <text class="blocklyText" dominant-baseline="central" x="0" y="8">&#x2219;</text>
                    </g>
                    <g transform="translate(18,67)">
                      <text class="blocklyText" dominant-baseline="central" x="0" y="8">&#x2308;&#x23B5;</text>
                    </g>
                    <g transform="translate(18,103)">
                      <text class="blocklyText" dominant-baseline="central" x="0" y="8">&#x23B5;</text>
                    </g>
                    <g transform="translate(18,139)">
                      <text class="blocklyText" dominant-baseline="central" x="0" y="8">&#x2198;</text>
                    </g>
                    <g transform="translate(18,165)">
                      <text class="blocklyText" dominant-baseline="central" x="0" y="8">&#xD7;</text>
                    </g>
                    <g transform="translate(18,191)">
                      <text class="blocklyText" dominant-baseline="central" x="0" y="8">+</text>
                    </g>
                  </g>
                  <g transform="translate(18,5)">
                    <text class="blocklyText" dominant-baseline="central" x="0" y="8">&#x3BB;</text>
                  </g>
                  <g transform="translate(18,124)">
                    <text class="blocklyText" dominant-baseline="central" x="0" y="8">&#x2190;</text>
                  </g>
                </g>
                <g data-id="xy*u1|[}bi0-o)d5D)2:" transform="translate(36.15110778808594, 264)" class="blocklyDraggable" style="display: block;">
                  <path class="blocklyPath" stroke="#d4d9f6" fill="#c1c9f2" d=" m 8,0  h 28.151107788085938  v 5  V 5  V 21  V 21  V 26  h -28.151107788085938  H 8  V 20  c 0,-10  -8,8  -8,-7.5  s 8,2.5  8,-7.5 z"/>
                  <g class="blocklyEditableText" transform="translate(13,5)" style="cursor: text;">
                    <rect rx="4" ry="4" x="0" y="0" height="16" width="18.151107788085938" class="blocklyFieldRect"/>
                    <text class="blocklyText" dominant-baseline="central" x="5" y="8">7</text>
                  </g>
                </g>
                <g transform="translate(18,5)">
                  <text class="blocklyText" dominant-baseline="central" x="0" y="8">!</text>
                </g>
                <g transform="translate(18,137)">
                  <text class="blocklyText" dominant-baseline="central" x="0" y="8">&#x1D453;</text>
                </g>
                <g transform="translate(18,269)">
                  <text class="blocklyText" dominant-baseline="central" x="0" y="8">#</text>
                </g>
              </g>
              <g class="blocklyEditableText" transform="translate(13,137)" style="cursor: default;">
                <rect rx="4" ry="4" x="0" y="0" height="16" width="30.488693237304688" class="blocklyFieldRect blocklyDropdownRect" stroke="#dfd4f6" fill="transparent"/>
                <text class="blocklyText blocklyDropdownText" dominant-baseline="central" text-anchor="start" x="5" y="8">&#x3A3;<tspan dominant-baseline="central" style="fill: rgb(209, 193, 242);"> &#x25BE;</tspan></text>
                <image style="display: none;"/>
              </g>
            </g>
            <g data-id="3(%aggq{]$Y!*64S*EMq" transform="translate(0, 290)" class="blocklyDraggable">
              <path class="blocklyPath" stroke="#d4f6f6" fill="#c1f2f2" d=" m 0,0  h 15  l 6,4  3,0  6,-4  h 6.1511077880859375  v 5  V 5  H 36.15110778808594  c 0,10  -8,-8  -8,7.5  s 8,-2.5  8,7.5  v 1  V 31  H 36.15110778808594  c 0,10  -8,-8  -8,7.5  s 8,-2.5  8,7.5  v 96  V 142  V 147  h -6.1511077880859375  l -6,4  -3,0  -6,-4  h -15  H 0 z"/>
              <g data-id="Fz?{xgb^znR`p.yKJ?{k" transform="translate(28.151107788085938, 0)" class="blocklyDraggable" style="display: block;">
                <path class="blocklyPath" stroke="#d4d9f6" fill="#c1c9f2" d=" m 8,0  h 36.302215576171875  v 5  V 5  V 21  V 21  V 26  h -36.302215576171875  H 8  V 20  c 0,-10  -8,8  -8,-7.5  s 8,2.5  8,-7.5 z"/>
                <g class="blocklyEditableText" transform="translate(13,5)" style="cursor: text;">
                  <rect rx="4" ry="4" x="0" y="0" height="16" width="26.302215576171875" class="blocklyFieldRect"/>
                  <text class="blocklyText" dominant-baseline="central" x="5" y="8">10</text>
                </g>
              </g>
              <g data-id="{x^*Lw8RZ1LHIr-T~Pp(" transform="translate(28.151107788085938, 26)" style="display: block;" class="blocklyDraggable">
                <path class="blocklyPath" stroke="#d4f6f6" fill="#c1f2f2" d=" m 8,0  h 52.62347412109375  v 5  V 5  V 21  V 25  H 60.62347412109375  l -6,4  -3,0  -6,-4  h -7 a 8 8 0 0,0 -8,8  v 54 a 8 8 0 0,0 8,8  H 60.62347412109375  V 100  H 60.62347412109375  c 0,10  -8,-8  -8,7.5  s 8,-2.5  8,7.5  v 1  V 116  V 121  h -52.62347412109375  H 8  V 20  c 0,-10  -8,8  -8,-7.5  s 8,2.5  8,-7.5 z"/>
                <g data-id="%;i554Bcj)Ce^OGCnOY0" transform="translate(30.62347412109375, 25)" style="display: block;" class="blocklyDraggable">
                  <path class="blocklyPath" stroke="#f6d4e5" fill="#f2c1da" d=" m 0,0  m 0,8 a 8 8 0 0,1 8,-8  h 7  l 6,4  3,0  6,-4  h 41.41310119628906  v 5  V 5  H 71.41310119628906  c 0,10  -8,-8  -8,7.5  s 8,-2.5  8,7.5  v 41  V 61  V 66  h -41.41310119628906  l -6,4  -3,0  -6,-4  h -7 a 8 8 0 0,1 -8,-8 z"/>
                  <g data-id="Pgt~Lhv!kKq2q42g}6c+" transform="translate(63.41310119628906, 0)" style="display: block;" class="blocklyDraggable">
                    <path class="blocklyPath" stroke="#d4f6e5" fill="#c1f2da" d=" m 8,0  h 901.8715362548828  v 5  V 5  V 61  V 61  V 66  h -901.8715362548828  H 8  V 20  c 0,-10  -8,8  -8,-7.5  s 8,2.5  8,-7.5 z M 62.72828674316406,20  v 5  c 0,10  -8,-8  -8,7.5  s 8,-2.5  8,7.5  v 6  h 38.75685119628906  v -26 z M 141.99685668945312,20  v 5  c 0,10  -8,-8  -8,7.5  s 8,-2.5  8,7.5  v 6  h 48.525299072265625  v -26 z M 225.31593322753906,5  v 5  c 0,10  -8,-8  -8,7.5  s 8,-2.5  8,7.5  v 36  h 482.7039031982422  v -56 z M 746.3001708984375,20  v 5  c 0,10  -8,-8  -8,7.5  s 8,-2.5  8,7.5  v 6  h 28.151107788085938  v -26 z M 809.0102996826172,20  v 5  c 0,10  -8,-8  -8,7.5  s 8,-2.5  8,7.5  v 6  h 28.151107788085938  v -26 z M 871.7204284667969,20  v 5  c 0,10  -8,-8  -8,7.5  s 8,-2.5  8,7.5  v 6  h 28.151107788085938  v -26 z"/>
                    <g data-id="){p[YntJv64i}seoA|wW" transform="translate(54.72828674316406, 20)" class="blocklyDraggable" style="display: block;">
                      <path class="blocklyPath" stroke="#f6d4e5" fill="#f2c1da" d=" m 8,0  h 38.75685119628906  v 5  V 5  V 21  V 21  V 26  h -38.75685119628906  H 8  V 20  c 0,-10  -8,8  -8,-7.5  s 8,2.5  8,-7.5 z"/>
                      <g class="blocklyEditableText" transform="translate(13,5)" style="cursor: default;">
                        <rect rx="4" ry="4" x="0" y="0" height="16" width="28.756851196289062" class="blocklyFieldRect blocklyDropdownRect" stroke="#f6d4e5" fill="transparent"/>
                        <text class="blocklyText blocklyDropdownText" dominant-baseline="central" text-anchor="start" x="5" y="8">x<tspan dominant-baseline="central" style="fill: rgb(242, 193, 218);"> &#x25BE;</tspan></text>
                        <image style="display: none;"/>
                      </g>
                    </g>
                    <g data-id="ZTnjTn!3-bOnT)Fpx@$?" transform="translate(133.99685668945312, 20)" class="blocklyDraggable" style="display: block;">
                      <path class="blocklyPath" stroke="none" fill="#e6e9fa" d=" m 8,0  h 48.525299072265625  v 5  V 5  V 21  V 21  V 26  h -48.525299072265625  H 8  V 20  c 0,-10  -8,8  -8,-7.5  s 8,2.5  8,-7.5 z"/>
                      <g class="blocklyEditableText" transform="translate(13,5)" style="cursor: text;">
                        <rect rx="4" ry="4" x="0" y="0" height="16" width="38.525299072265625" class="blocklyFieldRect"/>
                        <text class="blocklyText" dominant-baseline="central" x="5" y="8">0.05</text>
                      </g>
                    </g>
                    <g data-id="R#a-K}`B8F9]en=Ovn/M" transform="translate(217.31593322753906, 5)" style="display: block;" class="blocklyDraggable">
                      <path class="blocklyPath" stroke="#dfd4f6" fill="#d1c1f2" d=" m 8,0  h 482.7039031982422  v 5  V 5  V 51  V 51  V 56  h -482.7039031982422  H 8  V 20  c 0,-10  -8,8  -8,-7.5  s 8,2.5  8,-7.5 z M 52.14642333984375,5  v 5  c 0,10  -8,-8  -8,7.5  s 8,-2.5  8,7.5  v 26  h 366.25526428222656  v -46 z M 452.55279541015625,15  v 5  c 0,10  -8,-8  -8,7.5  s 8,-2.5  8,7.5  v 6  h 28.151107788085938  v -26 z"/>
                      <g data-id="8rN$%F3|xKLIK(dzD;du" transform="translate(44.14642333984375, 5)" style="display: block;" class="blocklyDraggable">
                        <path class="blocklyPath" stroke="#d4f6f6" fill="#c1f2f2" d=" m 8,0  h 366.25526428222656  v 5  V 5  V 41  V 41  V 46  h -366.25526428222656  H 8  V 20  c 0,-10  -8,8  -8,-7.5  s 8,2.5  8,-7.5 z M 65.984375,5  v 5  c 0,10  -8,-8  -8,7.5  s 8,-2.5  8,7.5  v 16  h 298.27088928222656  v -36 z"/>
                        <g data-id="(Zs(~jNFpjl[XU_1{+J@" transform="translate(57.984375, 5)" class="blocklyDraggable" style="display: block;">
                          <path class="blocklyPath" stroke="#f6f6d4" fill="#f2f2c1" d=" m 8,0  h 298.27088928222656  v 5  V 5  V 31  V 31  V 36  h -298.27088928222656  H 8  V 20  c 0,-10  -8,8  -8,-7.5  s 8,2.5  8,-7.5 z M 62.45628356933594,5  v 5  c 0,10  -8,-8  -8,7.5  s 8,-2.5  8,7.5  v 6  h 28.151107788085938  v -26 z M 122.32533264160156,5  v 5  c 0,10  -8,-8  -8,7.5  s 8,-2.5  8,7.5  v 6  h 48.525299072265625  v -26 z M 205.40965270996094,5  v 5  c 0,10  -8,-8  -8,7.5  s 8,-2.5  8,7.5  v 6  h 28.151107788085938  v -26 z M 268.1197814941406,5  v 5  c 0,10  -8,-8  -8,7.5  s 8,-2.5  8,7.5  v 6  h 28.151107788085938  v -26 z"/>
                          <g data-id="72%ppu+|j9i|6L[NP)DB" transform="translate(54.45628356933594, 5)" class="blocklyDraggable" style="display: block;">
                            <path class="blocklyPath" stroke="none" fill="#e6e9fa" d=" m 8,0  h 28.151107788085938  v 5  V 5  V 21  V 21  V 26  h -28.151107788085938  H 8  V 20  c 0,-10  -8,8  -8,-7.5  s 8,2.5  8,-7.5 z"/>
                            <g class="blocklyEditableText" transform="translate(13,5)" style="cursor: text;">
                              <rect rx="4" ry="4" x="0" y="0" height="16" width="18.151107788085938" class="blocklyFieldRect"/>
                              <text class="blocklyText" dominant-baseline="central" x="5" y="8">0</text>
                            </g>
                          </g>
                          <g data-id="NYwWNOvuz[r@w~`t=aPU" transform="translate(114.32533264160156, 5)" class="blocklyDraggable" style="display: block;">
                            <path class="blocklyPath" stroke="none" fill="#e6e9fa" d=" m 8,0  h 48.525299072265625  v 5  V 5  V 21  V 21  V 26  h -48.525299072265625  H 8  V 20  c 0,-10  -8,8  -8,-7.5  s 8,2.5  8,-7.5 z"/>
                            <g class="blocklyEditableText" transform="translate(13,5)" style="cursor: text;">
                              <rect rx="4" ry="4" x="0" y="0" height="16" width="38.525299072265625" class="blocklyFieldRect"/>
                              <text class="blocklyText" dominant-baseline="central" x="5" y="8">0.05</text>
                            </g>
                          </g>
                          <g data-id="W:AgDq=3%bdw4Y*6Etui" transform="translate(197.40965270996094, 5)" class="blocklyDraggable" style="display: block;">
                            <path class="blocklyPath" stroke="none" fill="#e6e9fa" d=" m 8,0  h 28.151107788085938  v 5  V 5  V 21  V 21  V 26  h -28.151107788085938  H 8  V 20  c 0,-10  -8,8  -8,-7.5  s 8,2.5  8,-7.5 z"/>
                            <g class="blocklyEditableText" transform="translate(13,5)" style="cursor: text;">
                              <rect rx="4" ry="4" x="0" y="0" height="16" width="18.151107788085938" class="blocklyFieldRect"/>
                              <text class="blocklyText" dominant-baseline="central" x="5" y="8">1</text>
                            </g>
                          </g>
                          <g data-id="n7JaJ%Q,c/-zqOPF}HHF" transform="translate(260.1197814941406, 5)" class="blocklyDraggable" style="display: block;">
                            <path class="blocklyPath" stroke="none" fill="#e6e9fa" d=" m 8,0  h 28.151107788085938  v 5  V 5  V 21  V 21  V 26  h -28.151107788085938  H 8  V 20  c 0,-10  -8,8  -8,-7.5  s 8,2.5  8,-7.5 z"/>
                            <g class="blocklyEditableText" transform="translate(13,5)" style="cursor: text;">
                              <rect rx="4" ry="4" x="0" y="0" height="16" width="18.151107788085938" class="blocklyFieldRect"/>
                              <text class="blocklyText" dominant-baseline="central" x="5" y="8">0</text>
                            </g>
                          </g>
                          <g transform="translate(18,10)">
                            <text class="blocklyText" dominant-baseline="central" x="0" y="8">&#x2681;</text>
                          </g>
                          <g transform="translate(40.73834228515625,10)">
                            <text class="blocklyText" dominant-baseline="central" x="0" y="8">&#x230A;</text>
                          </g>
                          <g transform="translate(100.60739135742188,10)">
                            <text class="blocklyText" dominant-baseline="central" x="0" y="8">&#x2309;</text>
                          </g>
                          <g transform="translate(180.8506317138672,10)">
                            <text class="blocklyText" dominant-baseline="central" x="0" y="8">&#xD7;</text>
                          </g>
                          <g transform="translate(243.56076049804688,10)">
                            <text class="blocklyText" dominant-baseline="central" x="0" y="8">+</text>
                          </g>
                        </g>
                        <g transform="translate(18,15)">
                          <text class="blocklyText" dominant-baseline="central" x="0" y="8">&#x3BB;</text>
                        </g>
                        <g transform="translate(35.328125,15)">
                          <text class="blocklyText" dominant-baseline="central" x="0" y="8">&#x2190;</text>
                        </g>
                      </g>
                      <g data-id="p!!Y?3MSQ8Ke4cxwvQC`" transform="translate(444.55279541015625, 15)" class="blocklyDraggable" style="display: block;">
                        <path class="blocklyPath" stroke="#d4d9f6" fill="#c1c9f2" d=" m 8,0  h 28.151107788085938  v 5  V 5  V 21  V 21  V 26  h -28.151107788085938  H 8  V 20  c 0,-10  -8,8  -8,-7.5  s 8,2.5  8,-7.5 z"/>
                        <g class="blocklyEditableText" transform="translate(13,5)" style="cursor: text;">
                          <rect rx="4" ry="4" x="0" y="0" height="16" width="18.151107788085938" class="blocklyFieldRect"/>
                          <text class="blocklyText" dominant-baseline="central" x="5" y="8">2</text>
                        </g>
                      </g>
                      <g transform="translate(18,20)">
                        <text class="blocklyText" dominant-baseline="central" x="0" y="8">!</text>
                      </g>
                      <g transform="translate(32.07197570800781,20)">
                        <text class="blocklyText" dominant-baseline="central" x="0" y="8">&#x1D453;</text>
                      </g>
                      <g transform="translate(428.4016876220703,20)">
                        <text class="blocklyText" dominant-baseline="central" x="0" y="8">#</text>
                      </g>
                    </g>
                    <g data-id="Ah}md?1.5ZSKYV*:|Q,%" transform="translate(738.3001708984375, 20)" class="blocklyDraggable" style="display: block;">
                      <path class="blocklyPath" stroke="none" fill="#e6e9fa" d=" m 8,0  h 28.151107788085938  v 5  V 5  V 21  V 21  V 26  h -28.151107788085938  H 8  V 20  c 0,-10  -8,8  -8,-7.5  s 8,2.5  8,-7.5 z"/>
                      <g class="blocklyEditableText" transform="translate(13,5)" style="cursor: text;">
                        <rect rx="4" ry="4" x="0" y="0" height="16" width="18.151107788085938" class="blocklyFieldRect"/>
                        <text class="blocklyText" dominant-baseline="central" x="5" y="8">1</text>
                      </g>
                    </g>
                    <g data-id="nmcJ)@lD5ODWow=A2CF6" transform="translate(801.0102996826172, 20)" class="blocklyDraggable" style="display: block;">
                      <path class="blocklyPath" stroke="none" fill="#e6e9fa" d=" m 8,0  h 28.151107788085938  v 5  V 5  V 21  V 21  V 26  h -28.151107788085938  H 8  V 20  c 0,-10  -8,8  -8,-7.5  s 8,2.5  8,-7.5 z"/>
                      <g class="blocklyEditableText" transform="translate(13,5)" style="cursor: text;">
                        <rect rx="4" ry="4" x="0" y="0" height="16" width="18.151107788085938" class="blocklyFieldRect"/>
                        <text class="blocklyText" dominant-baseline="central" x="5" y="8">1</text>
                      </g>
                    </g>
                    <g data-id=";8^9S$:fzL_ob^T9i]+4" transform="translate(863.7204284667969, 20)" class="blocklyDraggable" style="display: block;">
                      <path class="blocklyPath" stroke="none" fill="#e6e9fa" d=" m 8,0  h 28.151107788085938  v 5  V 5  V 21  V 21  V 26  h -28.151107788085938  H 8  V 20  c 0,-10  -8,8  -8,-7.5  s 8,2.5  8,-7.5 z"/>
                      <g class="blocklyEditableText" transform="translate(13,5)" style="cursor: text;">
                        <rect rx="4" ry="4" x="0" y="0" height="16" width="18.151107788085938" class="blocklyFieldRect"/>
                        <text class="blocklyText" dominant-baseline="central" x="5" y="8">0</text>
                      </g>
                    </g>
                    <g transform="translate(18,25)">
                      <text class="blocklyText" dominant-baseline="central" x="0" y="8">&#x2B1C;</text>
                    </g>
                    <g transform="translate(42.65631103515625,25)">
                      <text class="blocklyText" dominant-baseline="central" x="0" y="8">&#x2219;</text>
                    </g>
                    <g transform="translate(111.48513793945312,25)">
                      <text class="blocklyText" dominant-baseline="central" x="0" y="8">&#x2308;&#x23B5;</text>
                    </g>
                    <g transform="translate(200.52215576171875,25)">
                      <text class="blocklyText" dominant-baseline="central" x="0" y="8">&#x23B5;</text>
                    </g>
                    <g transform="translate(718.0198364257812,25)">
                      <text class="blocklyText" dominant-baseline="central" x="0" y="8">&#x2198;</text>
                    </g>
                    <g transform="translate(784.4512786865234,25)">
                      <text class="blocklyText" dominant-baseline="central" x="0" y="8">&#xD7;</text>
                    </g>
                    <g transform="translate(847.1614074707031,25)">
                      <text class="blocklyText" dominant-baseline="central" x="0" y="8">+</text>
                    </g>
                  </g>
                  <g class="blocklyEditableText" transform="translate(5,25)" style="cursor: default;">
                    <rect rx="4" ry="4" x="0" y="0" height="16" width="28.756851196289062" class="blocklyFieldRect blocklyDropdownRect" stroke="#f6d4e5" fill="transparent"/>
                    <text class="blocklyText blocklyDropdownText" dominant-baseline="central" text-anchor="start" x="5" y="8">x<tspan dominant-baseline="central" style="fill: rgb(242, 193, 218);"> &#x25BE;</tspan></text>
                    <image style="display: none;"/>
                  </g>
                  <g transform="translate(38.75685119628906,25)">
                    <text class="blocklyText" dominant-baseline="central" x="0" y="8">&#x2254;</text>
                  </g>
                </g>
                <g data-id=")V7yHgHNij%H5%14v!wr" transform="translate(52.62347412109375, 95)" class="blocklyDraggable" style="display: block;">
                  <path class="blocklyPath" stroke="#f6d4e5" fill="#f2c1da" d=" m 8,0  h 38.75685119628906  v 5  V 5  V 21  V 21  V 26  h -38.75685119628906  H 8  V 20  c 0,-10  -8,8  -8,-7.5  s 8,2.5  8,-7.5 z"/>
                  <g class="blocklyEditableText" transform="translate(13,5)" style="cursor: default;">
                    <rect rx="4" ry="4" x="0" y="0" height="16" width="28.756851196289062" class="blocklyFieldRect blocklyDropdownRect" stroke="#f6d4e5" fill="transparent"/>
                    <text class="blocklyText blocklyDropdownText" dominant-baseline="central" text-anchor="start" x="5" y="8">x<tspan dominant-baseline="central" style="fill: rgb(242, 193, 218);"> &#x25BE;</tspan></text>
                    <image style="display: none;"/>
                  </g>
                </g>
                <g transform="translate(18,5)">
                  <text class="blocklyText" dominant-baseline="central" x="0" y="8">&#x3BB;</text>
                </g>
                <g transform="translate(18,30)">
                  <text class="blocklyText" dominant-baseline="central" x="0" y="8">&#x2999;</text>
                </g>
                <g transform="translate(18,100)">
                  <text class="blocklyText" dominant-baseline="central" x="0" y="8">&#x2190;</text>
                </g>
              </g>
              <g data-id="@n4#cEK_v*B7J+#`$`3J" transform="translate(0, 147)" class="blocklyDraggable">
                <path class="blocklyPath" stroke="#f6d4f6" fill="#f2c1f2" d=" m 0,0  h 15  l 6,4  3,0  6,-4  h 10.28033447265625  v 5  V 5  H 40.28033447265625  c 0,10  -8,-8  -8,7.5  s 8,-2.5  8,7.5  v 21  V 41  V 46  h -32.28033447265625 a 8 8 0 0,1 -8,-8 z"/>
                <g data-id="CxvYvm1#_o1V|=lTW3lm" transform="translate(32.28033447265625, 0)" style="display: block;" class="blocklyDraggable">
                  <path class="blocklyPath" stroke="#d4d9f6" fill="#c1c9f2" d=" m 8,0  h 261.86338806152344  v 5  V 5  V 41  V 41  V 46  h -261.86338806152344  H 8  V 20  c 0,-10  -8,8  -8,-7.5  s 8,2.5  8,-7.5 z M 24,10  v 5  c 0,10  -8,-8  -8,7.5  s 8,-2.5  8,7.5  v 6  h 38.75685119628906  v -26 z M 108.74459838867188,5  v 5  c 0,10  -8,-8  -8,7.5  s 8,-2.5  8,7.5  v 16  h 151.11878967285156  v -36 z"/>
                  <g data-id="r.E9QzWf#EBE/3r}J(0A" transform="translate(16, 10)" class="blocklyDraggable" style="display: block;">
                    <path class="blocklyPath" stroke="#f6d4e5" fill="#f2c1da" d=" m 8,0  h 38.75685119628906  v 5  V 5  V 21  V 21  V 26  h -38.75685119628906  H 8  V 20  c 0,-10  -8,8  -8,-7.5  s 8,2.5  8,-7.5 z"/>
                    <g class="blocklyEditableText" transform="translate(13,5)" style="cursor: default;">
                      <rect rx="4" ry="4" x="0" y="0" height="16" width="28.756851196289062" class="blocklyFieldRect blocklyDropdownRect" stroke="#f6d4e5" fill="transparent"/>
                      <text class="blocklyText blocklyDropdownText" dominant-baseline="central" text-anchor="start" x="5" y="8">s<tspan dominant-baseline="central" style="fill: rgb(242, 193, 218);"> &#x25BE;</tspan></text>
                      <image style="display: none;"/>
                    </g>
                  </g>
                  <g data-id="DH[Fl/Q36?!?tKZz;fCG" transform="translate(100.74459838867188, 5)" style="display: block;" class="blocklyDraggable">
                    <path class="blocklyPath" stroke="#d4d9f6" fill="#c1c9f2" d=" m 8,0  h 151.11878967285156  v 5  V 5  V 31  V 31  V 36  h -151.11878967285156  H 8  V 20  c 0,-10  -8,8  -8,-7.5  s 8,2.5  8,-7.5 z M 24,5  v 5  c 0,10  -8,-8  -8,7.5  s 8,-2.5  8,7.5  v 6  h 38.75685119628906  v -26 z M 108.74459838867188,5  v 5  c 0,10  -8,-8  -8,7.5  s 8,-2.5  8,7.5  v 6  h 40.37419128417969  v -26 z"/>
                    <g data-id="4j7p8XYv~MghNlOlD02a" transform="translate(16, 5)" class="blocklyDraggable" style="display: block;">
                      <path class="blocklyPath" stroke="#f6d4e5" fill="#f2c1da" d=" m 8,0  h 38.75685119628906  v 5  V 5  V 21  V 21  V 26  h -38.75685119628906  H 8  V 20  c 0,-10  -8,8  -8,-7.5  s 8,2.5  8,-7.5 z"/>
                      <g class="blocklyEditableText" transform="translate(13,5)" style="cursor: default;">
                        <rect rx="4" ry="4" x="0" y="0" height="16" width="28.756851196289062" class="blocklyFieldRect blocklyDropdownRect" stroke="#f6d4e5" fill="transparent"/>
                        <text class="blocklyText blocklyDropdownText" dominant-baseline="central" text-anchor="start" x="5" y="8">x<tspan dominant-baseline="central" style="fill: rgb(242, 193, 218);"> &#x25BE;</tspan></text>
                        <image style="display: none;"/>
                      </g>
                    </g>
                    <g data-id=";MShT2NKGN`]UrTCi-FF" transform="translate(100.74459838867188, 5)" class="blocklyDraggable" style="display: block;">
                      <path class="blocklyPath" stroke="none" fill="#e6e9fa" d=" m 8,0  h 40.37419128417969  v 5  V 5  V 21  V 21  V 26  h -40.37419128417969  H 8  V 20  c 0,-10  -8,8  -8,-7.5  s 8,2.5  8,-7.5 z"/>
                      <g class="blocklyEditableText" transform="translate(13,5)" style="cursor: text;">
                        <rect rx="4" ry="4" x="0" y="0" height="16" width="30.374191284179688" class="blocklyFieldRect"/>
                        <text class="blocklyText" dominant-baseline="central" x="5" y="8">0.2</text>
                      </g>
                    </g>
                    <g class="blocklyEditableText" transform="translate(67.75685119628906,10)" style="cursor: default;">
                      <rect rx="4" ry="4" x="0" y="0" height="16" width="29.987747192382812" class="blocklyFieldRect blocklyDropdownRect" stroke="#d4d9f6" fill="transparent"/>
                      <text class="blocklyText blocklyDropdownText" dominant-baseline="central" text-anchor="start" x="5" y="8">&#xD7;<tspan dominant-baseline="central" style="fill: rgb(193, 201, 242);"> &#x25BE;</tspan></text>
                      <image style="display: none;"/>
                    </g>
                  </g>
                  <g class="blocklyEditableText" transform="translate(67.75685119628906,15)" style="cursor: default;">
                    <rect rx="4" ry="4" x="0" y="0" height="16" width="29.987747192382812" class="blocklyFieldRect blocklyDropdownRect" stroke="#d4d9f6" fill="transparent"/>
                    <text class="blocklyText blocklyDropdownText" dominant-baseline="central" text-anchor="start" x="5" y="8">+<tspan dominant-baseline="central" style="fill: rgb(193, 201, 242);"> &#x25BE;</tspan></text>
                    <image style="display: none;"/>
                  </g>
                </g>
                <g transform="translate(10,15)">
                  <text class="blocklyText" dominant-baseline="central" x="0" y="8">&#x22B3;</text>
                </g>
              </g>
              <g transform="translate(10,5)">
                <text class="blocklyText" dominant-baseline="central" x="0" y="8">#</text>
              </g>
              <g transform="translate(10,78.5)">
                <text class="blocklyText" dominant-baseline="central" x="0" y="8">&#x1D453;</text>
              </g>
            </g>
            <g class="blocklyEditableText" transform="translate(5,137)" style="cursor: default;">
              <rect rx="4" ry="4" x="0" y="0" height="16" width="28.756851196289062" class="blocklyFieldRect blocklyDropdownRect" stroke="#f6d4e5" fill="transparent"/>
              <text class="blocklyText blocklyDropdownText" dominant-baseline="central" text-anchor="start" x="5" y="8">x<tspan dominant-baseline="central" style="fill: rgb(242, 193, 218);"> &#x25BE;</tspan></text>
              <image style="display: none;"/>
            </g>
            <g transform="translate(38.75685119628906,137)">
              <text class="blocklyText" dominant-baseline="central" x="0" y="8">&#x2254;</text>
            </g>
          </g>
          <g class="blocklyEditableText" transform="translate(5,54)" style="cursor: default;">
            <rect rx="4" ry="4" x="0" y="0" height="16" width="28.756851196289062" class="blocklyFieldRect blocklyDropdownRect" stroke="#f6d4e5" fill="transparent"/>
            <text class="blocklyText blocklyDropdownText" dominant-baseline="central" text-anchor="start" x="5" y="8">s<tspan dominant-baseline="central" style="fill: rgb(242, 193, 218);"> &#x25BE;</tspan></text>
            <image style="display: none;"/>
          </g>
          <g transform="translate(38.75685119628906,54)">
            <text class="blocklyText" dominant-baseline="central" x="0" y="8">&#x2254;</text>
          </g>
        </g>
        <g transform="translate(10,5)">
          <text class="blocklyText" dominant-baseline="central" x="0" y="8">&#x201C;</text>
        </g>
        <g class="blocklyEditableText" transform="translate(19.880645751953125,5)" style="cursor: text;">
          <rect rx="4" ry="4" x="0" y="0" height="16" width="188.35826110839844" class="blocklyFieldRect"/>
          <text class="blocklyText" dominant-baseline="central" x="5" y="8">Why SuperCollider? (Jmcc)</text>
        </g>
      </g>
    </g>
    <g class="blocklyBubbleCanvas" transform="translate(504.9848098754883, 273.5) scale(1)"/>
  </g>
</svg>
