{
 "blocks": {
  "languageVersion": 0,
  "blocks": [
   {
    "type": "Sc_Comment",
    "id": "7`rVzebmR(fRwHSl45%T",
    "x": 0,
    "y": 0,
    "fields": {
     "COMMENT": "Lag.1 ; https://composerprogrammer.com/teaching/supercollider/sctutorial/tutorial.html 3.4"
    },
    "next": {
     "block": {
      "type": "Sc_Play",
      "id": "=ZIBRUbyibN+rth`4.nU",
      "inputs": {
       "CODE": {
        "block": {
         "type": "Sc_Ringz",
         "id": "6qt~QxuWh=3`-id#{EbP",
         "inputs": {
          "IN": {
           "block": {
            "type": "Sc_Saw",
            "id": "RyF~i35aW_fskvAqJv-P",
            "inputs": {
             "FREQ": {
              "block": {
               "type": "Sc_LinExp",
               "id": "NVb)NuMzIb6)s,1HkZw#",
               "inline": false,
               "inputs": {
                "IN": {
                 "block": {
                  "type": "Sc_Lag",
                  "id": "~kKGZU:a~g*q%f/c^%[+",
                  "inline": false,
                  "inputs": {
                   "IN": {
                    "block": {
                     "type": "Sc_LFNoise0",
                     "id": "548vHge^PM-IZ4@vt!n8",
                     "inline": true,
                     "inputs": {
                      "FREQ": {
                       "block": {
                        "type": "lists_create_with",
                        "id": "e|jbLd6j?pqv|;O3SUJS",
                        "inline": true,
                        "extraState": {
                         "itemCount": 2
                        },
                        "inputs": {
                         "ADD0": {
                          "shadow": {
                           "type": "math_number",
                           "id": "sLw*$J?tf.PrJLx/)3?[",
                           "fields": {
                            "NUM": 0
                           }
                          },
                          "block": {
                           "type": "math_number",
                           "id": "w{feT,5PY+$~00]Cy`VK",
                           "fields": {
                            "NUM": 5
                           }
                          }
                         },
                         "ADD1": {
                          "shadow": {
                           "type": "math_number",
                           "id": "ii|Lc0H_VAS=ZU`*+_l}",
                           "fields": {
                            "NUM": 0
                           }
                          },
                          "block": {
                           "type": "math_number",
                           "id": "h[?8%rpb;h(sXX:QBn?8",
                           "fields": {
                            "NUM": 3.333
                           }
                          }
                         }
                        }
                       }
                      },
                      "MUL": {
                       "shadow": {
                        "type": "math_number",
                        "id": "N]P2]WFoe7%%AhB(c/%u",
                        "fields": {
                         "NUM": 1
                        }
                       }
                      },
                      "ADD": {
                       "shadow": {
                        "type": "math_number",
                        "id": ":LwdFLZN0H]wWk4YQ=_=",
                        "fields": {
                         "NUM": 0
                        }
                       }
                      }
                     }
                    }
                   },
                   "LAGTIME": {
                    "block": {
                     "type": "math_number",
                     "id": "Y3:Pnnt[T[Vi0#sB10vQ",
                     "fields": {
                      "NUM": 0.1
                     }
                    }
                   },
                   "MUL": {
                    "shadow": {
                     "type": "math_number",
                     "id": "w)Us3z_ykryOf5^O8gK(",
                     "fields": {
                      "NUM": 1
                     }
                    }
                   },
                   "ADD": {
                    "shadow": {
                     "type": "math_number",
                     "id": "EJ1j*C{?_61@ah`M:_^K",
                     "fields": {
                      "NUM": 0
                     }
                    }
                   }
                  }
                 }
                },
                "SRCLO": {
                 "block": {
                  "type": "math_number",
                  "id": "]PWn:5I~|(=p7e#}.R}}",
                  "fields": {
                   "NUM": -1
                  }
                 }
                },
                "SRCHI": {
                 "block": {
                  "type": "math_number",
                  "id": "`z!KJ4[{GIOqnRZ=%@1:",
                  "fields": {
                   "NUM": 1
                  }
                 }
                },
                "DSTLO": {
                 "block": {
                  "type": "math_number",
                  "id": "gSwF.Y?z)]D]{;e/6ex+",
                  "fields": {
                   "NUM": 100
                  }
                 }
                },
                "DSTHI": {
                 "block": {
                  "type": "math_number",
                  "id": "wvH~P:tp)wL[Z=Dnd#l[",
                  "fields": {
                   "NUM": 2000
                  }
                 }
                },
                "MUL": {
                 "shadow": {
                  "type": "math_number",
                  "id": "-7jOP-|zpkwIiPe8TxdB",
                  "fields": {
                   "NUM": 1
                  }
                 }
                },
                "ADD": {
                 "shadow": {
                  "type": "math_number",
                  "id": "7G3H05e|`[3V$OD=R|A^",
                  "fields": {
                   "NUM": 0
                  }
                 }
                }
               }
              }
             },
             "MUL": {
              "shadow": {
               "type": "math_number",
               "id": "a]V(u!m?cX))#H8#EQ%T",
               "fields": {
                "NUM": 1
               }
              },
              "block": {
               "type": "math_number",
               "id": "z^r_XGKuGj91bdo8DzjX",
               "fields": {
                "NUM": 0.2
               }
              }
             },
             "ADD": {
              "shadow": {
               "type": "math_number",
               "id": "eeO`NO;fL`M)h{`|9mAE",
               "fields": {
                "NUM": 0
               }
              }
             }
            }
           }
          },
          "FREQ": {
           "block": {
            "type": "math_number",
            "id": "}{?/Gn967^d]fBzIXRt`",
            "fields": {
             "NUM": 1000
            }
           }
          },
          "DECAYTIME": {
           "block": {
            "type": "math_number",
            "id": "cJ_vlNB3N~bK;LNdg.gt",
            "fields": {
             "NUM": 0.01
            }
           }
          },
          "MUL": {
           "shadow": {
            "type": "math_number",
            "id": "0{Go3kj#RgzQaZeo@QMv",
            "fields": {
             "NUM": 1
            }
           },
           "block": {
            "type": "math_number",
            "id": "h!1L=}Obyql)t9N0Csh%",
            "fields": {
             "NUM": 0.1
            }
           }
          },
          "ADD": {
           "shadow": {
            "type": "math_number",
            "id": "@QZ|[tmIX|h27zu}F2TR",
            "fields": {
             "NUM": 0
            }
           }
          }
         }
        }
       }
      }
     }
    }
   }
  ]
 }
}
