{
 "blocks": {
  "languageVersion": 0,
  "blocks": [
   {
    "type": "Sc_Comment",
    "id": "jxCN_9{-Pv3l`-!%ocaT",
    "x": -126,
    "y": 180,
    "fields": {
     "COMMENT": "Latch.1 ; https://composerprogrammer.com/teaching/supercollider/sctutorial/tutorial.html 3.4"
    },
    "next": {
     "block": {
      "type": "Sc_Play",
      "id": "?i)0;,.-z_nYX[v8U|?@",
      "inputs": {
       "CODE": {
        "block": {
         "type": "Sc_SinOsc",
         "id": "]x:l,M8{}:eK{8QAC}sN",
         "inputs": {
          "FREQ": {
           "block": {
            "type": "Sc_Latch",
            "id": "8hu/Lngk]M!?A[QpBV)*",
            "inputs": {
             "IN": {
              "block": {
               "type": "Sc_SinOsc",
               "id": "BuQ#iw,c,03hh(R,w#ir",
               "inline": true,
               "inputs": {
                "FREQ": {
                 "block": {
                  "type": "math_number",
                  "id": "{H$Yf21YlQ[HnSWXuE:.",
                  "fields": {
                   "NUM": 13.3
                  }
                 }
                },
                "PHASE": {
                 "block": {
                  "type": "math_number",
                  "id": "y6eT;Q,*:3cB+([.)GzB",
                  "fields": {
                   "NUM": 0
                  }
                 }
                },
                "MUL": {
                 "shadow": {
                  "type": "math_number",
                  "id": "f:`P(UzYX[:{@A44`1J;",
                  "fields": {
                   "NUM": 1
                  }
                 }
                },
                "ADD": {
                 "shadow": {
                  "type": "math_number",
                  "id": "|S?LaX=toeOQ)X4|ZRAy",
                  "fields": {
                   "NUM": 0
                  }
                 }
                }
               }
              }
             },
             "TRIG": {
              "block": {
               "type": "Sc_Impulse",
               "id": ".$wHR3_uY/{l3[H|wxR:",
               "inline": true,
               "inputs": {
                "FREQ": {
                 "block": {
                  "type": "lists_create_with",
                  "id": "3|]SJs1x*]l(J_VHr5yK",
                  "inline": true,
                  "extraState": {
                   "itemCount": 2
                  },
                  "inputs": {
                   "ADD0": {
                    "shadow": {
                     "type": "math_number",
                     "id": "zEWCPlag?u2tBfaQ%R|}",
                     "fields": {
                      "NUM": 0
                     }
                    },
                    "block": {
                     "type": "math_number",
                     "id": "3%7-`0zE#zA`uat9bg(?",
                     "fields": {
                      "NUM": 10
                     }
                    }
                   },
                   "ADD1": {
                    "shadow": {
                     "type": "math_number",
                     "id": ",)#;Dv@mGsnCEXYr{HDT",
                     "fields": {
                      "NUM": 0
                     }
                    },
                    "block": {
                     "type": "math_number",
                     "id": "xyl7W^fk=4F8%VLwCUoK",
                     "fields": {
                      "NUM": 11
                     }
                    }
                   }
                  }
                 }
                },
                "PHASE": {
                 "block": {
                  "type": "math_number",
                  "id": "Tn^i-mPFBY{[.b)1t~U8",
                  "fields": {
                   "NUM": 0
                  }
                 }
                },
                "MUL": {
                 "shadow": {
                  "type": "math_number",
                  "id": "(8?r[EN!1)RbOLklP;?|",
                  "fields": {
                   "NUM": 1
                  }
                 }
                },
                "ADD": {
                 "shadow": {
                  "type": "math_number",
                  "id": "LFW?CxY6%SR_E1PdajXu",
                  "fields": {
                   "NUM": 0
                  }
                 }
                }
               }
              }
             },
             "MUL": {
              "shadow": {
               "type": "math_number",
               "id": "e#Y~#Q*hXX`gs+G`i;K8",
               "fields": {
                "NUM": 1
               }
              },
              "block": {
               "type": "math_number",
               "id": "ZNLbKS]T{1Lfv2_oRx6Q",
               "fields": {
                "NUM": 200
               }
              }
             },
             "ADD": {
              "shadow": {
               "type": "math_number",
               "id": "h8|#@+C47LR7H@;o?-{v",
               "fields": {
                "NUM": 0
               }
              },
              "block": {
               "type": "math_number",
               "id": "OP9SN.me;LB:;[_/ilf5",
               "fields": {
                "NUM": 300
               }
              }
             }
            }
           }
          },
          "PHASE": {
           "block": {
            "type": "math_number",
            "id": "^zb~2+Ui6?;=HE4iuWXL",
            "fields": {
             "NUM": 0
            }
           }
          },
          "MUL": {
           "shadow": {
            "type": "math_number",
            "id": "d,Rf#u2yK[dcI^K8]yFX",
            "fields": {
             "NUM": 1
            }
           },
           "block": {
            "type": "math_number",
            "id": "1(mlmA4WU3|]V~ro[J^k",
            "fields": {
             "NUM": 0.1
            }
           }
          },
          "ADD": {
           "shadow": {
            "type": "math_number",
            "id": "M+xeHL-hTKC_6aiFD_-`",
            "fields": {
             "NUM": 0
            }
           }
          }
         }
        }
       }
      }
     }
    }
   }
  ]
 }
}
