{
 "blocks": {
  "languageVersion": 0,
  "blocks": [
   {
    "type": "Sc_Comment",
    "id": "4[b$b%a5{{MQ.mxGyo|x",
    "x": 0,
    "y": 0,
    "fields": {
     "COMMENT": "LfCub.1"
    },
    "next": {
     "block": {
      "type": "variables_set",
      "id": "eQll:]JTBb$`Cm5$*5}A",
      "fields": {
       "VAR": {
        "id": "*4]UK1:q`|t,-[C%@;%n"
       }
      },
      "inputs": {
       "VALUE": {
        "block": {
         "type": "Sc_MouseX",
         "id": "p4PV.egV%{PdXl`#O/ch",
         "inline": false,
         "inputs": {
          "MINVAL": {
           "shadow": {
            "type": "math_number",
            "id": "~J@hF,HM%*/9{Zm+/cOB",
            "fields": {
             "NUM": 0
            }
           },
           "block": {
            "type": "lists_create_with",
            "id": "7G58=!=CQOFVCx,S8[2;",
            "inline": true,
            "extraState": {
             "itemCount": 2
            },
            "inputs": {
             "ADD0": {
              "shadow": {
               "type": "math_number",
               "id": "n9h{6hG$CtX8CWoR:E-G",
               "fields": {
                "NUM": 0
               }
              },
              "block": {
               "type": "math_number",
               "id": "UuPyl-mt1K7:=6t)al]g",
               "fields": {
                "NUM": 30
               }
              }
             },
             "ADD1": {
              "shadow": {
               "type": "math_number",
               "id": "CN5P+zEh#pEj^O,7-|Xk",
               "fields": {
                "NUM": 0
               }
              },
              "block": {
               "type": "math_number",
               "id": "Zxo|TNcA)n_NG_QCx-p@",
               "fields": {
                "NUM": 70
               }
              }
             }
            }
           }
          },
          "MAXVAL": {
           "shadow": {
            "type": "math_number",
            "id": "Y1|k1}*9h(x{U~t_N/%e",
            "fields": {
             "NUM": 1
            }
           },
           "block": {
            "type": "math_number",
            "id": "k}xBd]E#?yDCJd]K~Hhm",
            "fields": {
             "NUM": 600
            }
           }
          },
          "WARP": {
           "shadow": {
            "type": "math_number",
            "id": "F~mBNV[:5G{l{tt$da|!",
            "fields": {
             "NUM": 0
            }
           }
          },
          "LAG": {
           "shadow": {
            "type": "math_number",
            "id": "f6M|grXU6#2)RQ+$7ksA",
            "fields": {
             "NUM": 0.2
            }
           }
          },
          "MUL": {
           "shadow": {
            "type": "math_number",
            "id": "RSSxEpj~pL^4]x8p?+;u",
            "fields": {
             "NUM": 1
            }
           }
          },
          "ADD": {
           "shadow": {
            "type": "math_number",
            "id": "Q`WoQ;HIne_F0O}EIF!A",
            "fields": {
             "NUM": 0
            }
           }
          }
         }
        }
       }
      },
      "next": {
       "block": {
        "type": "variables_set",
        "id": "w+/`KA!m~Oo1Y-KX#SnO",
        "fields": {
         "VAR": {
          "id": "NS?p~lFowwoR5e.M8{q9"
         }
        },
        "inputs": {
         "VALUE": {
          "block": {
           "type": "Sc_MouseY",
           "id": "UE1)aJ~0MfKQlhnHbHw`",
           "inline": false,
           "inputs": {
            "MINVAL": {
             "shadow": {
              "type": "math_number",
              "id": "-UF_Jvq9cLzf*tZ^Mhe`",
              "fields": {
               "NUM": 0
              }
             },
             "block": {
              "type": "math_number",
              "id": "`*|ZOY8M}vxTkf(=i*oG",
              "fields": {
               "NUM": 0.25
              }
             }
            },
            "MAXVAL": {
             "shadow": {
              "type": "math_number",
              "id": "`/p:E`_@aHH-1GcLBI=c",
              "fields": {
               "NUM": 1
              }
             },
             "block": {
              "type": "lists_create_with",
              "id": "U:O7}D]`|lM!},7%$tgX",
              "inline": true,
              "extraState": {
               "itemCount": 2
              },
              "inputs": {
               "ADD0": {
                "shadow": {
                 "type": "math_number",
                 "id": "n9h{6hG$CtX8CWoR:E-G",
                 "fields": {
                  "NUM": 0
                 }
                },
                "block": {
                 "type": "math_number",
                 "id": "t#f*t3oc(JD6L?{U!x!q",
                 "fields": {
                  "NUM": 3
                 }
                }
               },
               "ADD1": {
                "shadow": {
                 "type": "math_number",
                 "id": "CN5P+zEh#pEj^O,7-|Xk",
                 "fields": {
                  "NUM": 0
                 }
                },
                "block": {
                 "type": "math_number",
                 "id": "V-SCrFGX_?TD`aSo2p$L",
                 "fields": {
                  "NUM": 5
                 }
                }
               }
              }
             }
            },
            "WARP": {
             "shadow": {
              "type": "math_number",
              "id": "X$@Q1KS!$G1pB*|.Z@6L",
              "fields": {
               "NUM": 0
              }
             }
            },
            "LAG": {
             "shadow": {
              "type": "math_number",
              "id": "M@M+QLHsztx{,v,Z5C-~",
              "fields": {
               "NUM": 0.2
              }
             }
            },
            "MUL": {
             "shadow": {
              "type": "math_number",
              "id": "n#V5$=Q7$4?!,D]pui[U",
              "fields": {
               "NUM": 1
              }
             }
            },
            "ADD": {
             "shadow": {
              "type": "math_number",
              "id": "xz#3}yJ(#/]nkULFHUvw",
              "fields": {
               "NUM": 0
              }
             }
            }
           }
          }
         }
        },
        "next": {
         "block": {
          "type": "Sc_Play",
          "id": "pOf+#n._CnH(0%f.0W6L",
          "inputs": {
           "CODE": {
            "block": {
             "type": "Sc_SinOsc",
             "id": "yw(yre|);!=?|Y;FY1uK",
             "inline": false,
             "inputs": {
              "FREQ": {
               "shadow": {
                "type": "math_number",
                "id": "Kz;HTS6|(xtIce7pX,aD",
                "fields": {
                 "NUM": 440
                }
               },
               "block": {
                "type": "Sc_BinaryOp",
                "id": ",z#0lZ;uB`b2gxg+~MM`",
                "inline": true,
                "fields": {
                 "OP": "%"
                },
                "inputs": {
                 "LHS": {
                  "shadow": {
                   "type": "math_number",
                   "id": "]~/x-AS6U9%`uq|1V$0~",
                   "fields": {
                    "NUM": 0
                   }
                  },
                  "block": {
                   "type": "Sc_LFCub",
                   "id": "#Rc[K[`D19W6K+s~`n:Q",
                   "inline": true,
                   "inputs": {
                    "FREQ": {
                     "shadow": {
                      "type": "math_number",
                      "id": "BS[9Ji1e3?sS#{)QitAn",
                      "fields": {
                       "NUM": 440
                      }
                     },
                     "block": {
                      "type": "variables_get",
                      "id": "m^BukxW;N{$@SA0pB1fV",
                      "fields": {
                       "VAR": {
                        "id": "NS?p~lFowwoR5e.M8{q9"
                       }
                      }
                     }
                    },
                    "IPHASE": {
                     "shadow": {
                      "type": "math_number",
                      "id": "$*Wb,}J`6-2vI|Fc0W:E",
                      "fields": {
                       "NUM": 0
                      }
                     }
                    },
                    "MUL": {
                     "shadow": {
                      "type": "math_number",
                      "id": "WhqFvYs^a42J_5N@|JKe",
                      "fields": {
                       "NUM": 1
                      }
                     },
                     "block": {
                      "type": "math_number",
                      "id": "++D;}Fib]f^ai7:UT}@K",
                      "fields": {
                       "NUM": 200
                      }
                     }
                    },
                    "ADD": {
                     "shadow": {
                      "type": "math_number",
                      "id": "Bf^mk7B!+4*yAb`/pW)t",
                      "fields": {
                       "NUM": 0
                      }
                     },
                     "block": {
                      "type": "math_number",
                      "id": "-ghoE`?84MII]Q$;%)2I",
                      "fields": {
                       "NUM": 400
                      }
                     }
                    }
                   }
                  }
                 },
                 "RHS": {
                  "shadow": {
                   "type": "math_number",
                   "id": "ClHH8lG_dXQ{#%w%pyB#",
                   "fields": {
                    "NUM": 0
                   }
                  },
                  "block": {
                   "type": "variables_get",
                   "id": "!.41joIS1:=3sf|9Vbln",
                   "fields": {
                    "VAR": {
                     "id": "*4]UK1:q`|t,-[C%@;%n"
                    }
                   }
                  }
                 }
                }
               }
              },
              "PHASE": {
               "shadow": {
                "type": "math_number",
                "id": "!Pl7rX^!)p7zo|Q@Q(|?",
                "fields": {
                 "NUM": 0
                }
               }
              },
              "MUL": {
               "shadow": {
                "type": "math_number",
                "id": "pDv73(.y%OdlZHLe1ps9",
                "fields": {
                 "NUM": 1
                }
               },
               "block": {
                "type": "math_number",
                "id": ":3gpp4/`B@o[fT,Q,p`k",
                "fields": {
                 "NUM": 0.1
                }
               }
              },
              "ADD": {
               "shadow": {
                "type": "math_number",
                "id": "[zCQ7N?NrCyH1B_b#X~1",
                "fields": {
                 "NUM": 0
                }
               }
              }
             }
            }
           }
          }
         }
        }
       }
      }
     }
    }
   }
  ]
 },
 "variables": [
  {
   "name": "x",
   "id": "*4]UK1:q`|t,-[C%@;%n"
  },
  {
   "name": "y",
   "id": "NS?p~lFowwoR5e.M8{q9"
  }
 ]
}
