{
 "blocks": {
  "languageVersion": 0,
  "blocks": [
   {
    "type": "Sc_Comment",
    "id": "lrzN@M!z;AO$1-ELQ*g#",
    "x": 0,
    "y": 0,
    "fields": {
     "COMMENT": "LfSaw.1 ; https://github.com/cianoc/supercollider_fragments"
    },
    "next": {
     "block": {
      "type": "variables_set",
      "id": "pzMPxrcOAkWFPfA+sjpu",
      "fields": {
       "VAR": {
        "id": "5X;[Yvv|z(Vh=d(1=oj."
       }
      },
      "inputs": {
       "VALUE": {
        "block": {
         "type": "Sc_Proc1",
         "id": "Qq}uVRJ10Dli?M!K#Xs8",
         "inputs": {
          "VAR": {
           "block": {
            "type": "variables_get",
            "id": "uAWcq16uhI|9@ZzTUAmX",
            "fields": {
             "VAR": {
              "id": "yNK9Wmy7ed6N@DB95Jw!"
             }
            }
           }
          },
          "RETURN": {
           "block": {
            "type": "Sc_Pan2",
            "id": "qgZ]R?)^3Fy5e|juetXW",
            "inputs": {
             "IN": {
              "block": {
               "type": "Sc_SinOsc",
               "id": "UQI9rY8d_Kw%~0Dcdhm!",
               "inputs": {
                "FREQ": {
                 "block": {
                  "type": "Sc_LFSaw",
                  "id": "3[6N`KVvsv#VVeQz1%rp",
                  "inline": true,
                  "inputs": {
                   "FREQ": {
                    "block": {
                     "type": "Sc_BinaryOp",
                     "id": "w/X/O:-tbr[IFG/yVv;b",
                     "inline": true,
                     "fields": {
                      "OP": "/"
                     },
                     "inputs": {
                      "LHS": {
                       "block": {
                        "type": "Sc_BinaryOp",
                        "id": "]a3J7FQdz1/Vv]ZEo`*[",
                        "inline": true,
                        "fields": {
                         "OP": "+"
                        },
                        "inputs": {
                         "LHS": {
                          "block": {
                           "type": "Sc_BinaryOp",
                           "id": "up~$11nvf%sv:Ln]T8_!",
                           "inline": true,
                           "fields": {
                            "OP": "*"
                           },
                           "inputs": {
                            "LHS": {
                             "block": {
                              "type": "variables_get",
                              "id": "Q-hD@jq]zlBN~K+d4U1)",
                              "fields": {
                               "VAR": {
                                "id": "yNK9Wmy7ed6N@DB95Jw!"
                               }
                              }
                             }
                            },
                            "RHS": {
                             "block": {
                              "type": "math_number",
                              "id": "B,Z9I[$`geuq}BSC_su`",
                              "fields": {
                               "NUM": 0.2
                              }
                             }
                            }
                           }
                          }
                         },
                         "RHS": {
                          "block": {
                           "type": "math_number",
                           "id": "j8]Y+W_k2-F`Q+QG5,No",
                           "fields": {
                            "NUM": 1
                           }
                          }
                         }
                        }
                       }
                      },
                      "RHS": {
                       "block": {
                        "type": "math_number",
                        "id": "8bhT;KSm-2$K;l.Hu!^L",
                        "fields": {
                         "NUM": 3
                        }
                       }
                      }
                     }
                    }
                   },
                   "IPHASE": {
                    "block": {
                     "type": "math_number",
                     "id": "{ovkk~u{WOb!XjT+X~r{",
                     "fields": {
                      "NUM": 0
                     }
                    }
                   },
                   "MUL": {
                    "shadow": {
                     "type": "math_number",
                     "id": "zFEQ^V[lCQO^[10JFBc{",
                     "fields": {
                      "NUM": 1
                     }
                    },
                    "block": {
                     "type": "math_number",
                     "id": "iA1q[.nr8xBCKK@|N.!n",
                     "fields": {
                      "NUM": 500
                     }
                    }
                   },
                   "ADD": {
                    "shadow": {
                     "type": "math_number",
                     "id": "~i2HM:3!rDYg0t^xXWag",
                     "fields": {
                      "NUM": 0
                     }
                    },
                    "block": {
                     "type": "math_number",
                     "id": "Gf;?VU@hW8HbU#d_pu/5",
                     "fields": {
                      "NUM": 700
                     }
                    }
                   }
                  }
                 }
                },
                "PHASE": {
                 "block": {
                  "type": "math_number",
                  "id": ")ax#]F/jaD01,WXGs{z8",
                  "fields": {
                   "NUM": 0
                  }
                 }
                },
                "MUL": {
                 "shadow": {
                  "type": "math_number",
                  "id": "vxp9R@t+Z0A.AZiOyf%U",
                  "fields": {
                   "NUM": 1
                  }
                 }
                },
                "ADD": {
                 "shadow": {
                  "type": "math_number",
                  "id": "`=|VIfqd~KHsf:2#t9@[",
                  "fields": {
                   "NUM": 0
                  }
                 }
                }
               }
              }
             },
             "POS": {
              "block": {
               "type": "Sc_LFNoise0",
               "id": "ZQ5[yN|[;$zI+9R%y;AM",
               "inputs": {
                "FREQ": {
                 "block": {
                  "type": "math_number",
                  "id": "cIiADc$nH;t:WdlXjt!H",
                  "fields": {
                   "NUM": 1
                  }
                 }
                },
                "MUL": {
                 "shadow": {
                  "type": "math_number",
                  "id": "-l6LwasZf7U_p?Bwvz3P",
                  "fields": {
                   "NUM": 1
                  }
                 }
                },
                "ADD": {
                 "shadow": {
                  "type": "math_number",
                  "id": "U^*kRfgaw9,kpJ5B|RtU",
                  "fields": {
                   "NUM": 0
                  }
                 }
                }
               }
              }
             },
             "LEVEL": {
              "block": {
               "type": "math_number",
               "id": "V[H(9*w5kreK^K2N}Pf+",
               "fields": {
                "NUM": 0.05
               }
              }
             },
             "MUL": {
              "shadow": {
               "type": "math_number",
               "id": "$+Pi!cHHE{15Wnp%yCE4",
               "fields": {
                "NUM": 1
               }
              }
             },
             "ADD": {
              "shadow": {
               "type": "math_number",
               "id": "kN!e9qa6U/tF-GaZRlT5",
               "fields": {
                "NUM": 0
               }
              }
             }
            }
           }
          }
         }
        }
       }
      },
      "next": {
       "block": {
        "type": "Sc_Play",
        "id": "n7:6,vk(-spKIwMc=Mm{",
        "inputs": {
         "CODE": {
          "block": {
           "type": "Sc_ArrayProc1",
           "id": "[O~MoRA+Nl-*PNNb:sVY",
           "fields": {
            "OP": "sum"
           },
           "inputs": {
            "IN": {
             "block": {
              "type": "Sc_ArrayProc2",
              "id": ";!DX#0Hcj?Eo5-t4jA#X",
              "inline": true,
              "fields": {
               "OP": "collect"
              },
              "inputs": {
               "LHS": {
                "block": {
                 "type": "Sc_ArrayFromTo",
                 "id": "-1ptL6(f[lb]t.3i@H12",
                 "inline": true,
                 "inputs": {
                  "FROM": {
                   "block": {
                    "type": "math_number",
                    "id": "lG{!GZu4M]Bj;[-XFvua",
                    "fields": {
                     "NUM": 1
                    }
                   }
                  },
                  "TO": {
                   "block": {
                    "type": "math_number",
                    "id": "=HZ|LYOwtlw6DTV0S^[{",
                    "fields": {
                     "NUM": 5
                    }
                   }
                  }
                 }
                }
               },
               "RHS": {
                "block": {
                 "type": "variables_get",
                 "id": "CszQ$;(=RAH5ya(2hm,F",
                 "fields": {
                  "VAR": {
                   "id": "5X;[Yvv|z(Vh=d(1=oj."
                  }
                 }
                }
               }
              }
             }
            }
           }
          }
         }
        }
       }
      }
     }
    }
   }
  ]
 },
 "variables": [
  {
   "name": "f",
   "id": "5X;[Yvv|z(Vh=d(1=oj."
  },
  {
   "name": "c",
   "id": "yNK9Wmy7ed6N@DB95Jw!"
  }
 ]
}
