{
 "blocks": {
  "languageVersion": 0,
  "blocks": [
   {
    "type": "Sc_Comment",
    "id": "jZ(MU42!QOW([_C_#8G@",
    "x": 0,
    "y": 0,
    "fields": {
     "COMMENT": "LocalIn.1"
    },
    "next": {
     "block": {
      "type": "variables_set",
      "id": "vE{4|PuuuHM/y@{RV;*{",
      "fields": {
       "VAR": {
        "id": "Vl:tU#Y:fxl-^=z$Yy18"
       }
      },
      "inputs": {
       "VALUE": {
        "block": {
         "type": "math_number",
         "id": "Ga0hEj_8.ss)$Hx?w~=7",
         "fields": {
          "NUM": 5
         }
        }
       }
      },
      "next": {
       "block": {
        "type": "variables_set",
        "id": "IkU2tCccB$3w)eCximoV",
        "fields": {
         "VAR": {
          "id": "K4XhhPwhh5hT_-ObHe|_"
         }
        },
        "inputs": {
         "VALUE": {
          "block": {
           "type": "lists_create_with",
           "id": "d^^F{k{q#9BAa_W{c~oZ",
           "inline": true,
           "extraState": {
            "itemCount": 2
           },
           "inputs": {
            "ADD0": {
             "block": {
              "type": "math_number",
              "id": "UNe^F!J|/lXRr.F;D%yY",
              "fields": {
               "NUM": 10
              }
             }
            },
            "ADD1": {
             "block": {
              "type": "math_number",
              "id": "fzl^*9Z#l@BASZ6$9Pt1",
              "fields": {
               "NUM": 5
              }
             }
            }
           }
          }
         }
        },
        "next": {
         "block": {
          "type": "variables_set",
          "id": "`{.yK!,,S^P*|#u%Z377",
          "fields": {
           "VAR": {
            "id": "]^qJ?*M9aO`b:l}4+5E^"
           }
          },
          "inputs": {
           "VALUE": {
            "block": {
             "type": "math_number",
             "id": "A{E^$^Q%Gy[y37k1QPZe",
             "fields": {
              "NUM": 0
             }
            }
           }
          },
          "next": {
           "block": {
            "type": "variables_set",
            "id": "Cze:.Ak,(00y8hv)cO@x",
            "fields": {
             "VAR": {
              "id": "bc{uf?i#)Vr1B3{~]F|^"
             }
            },
            "inputs": {
             "VALUE": {
              "block": {
               "type": "math_number",
               "id": "C(a9:dY2_Xwj|mMIg^we",
               "fields": {
                "NUM": 0.1
               }
              }
             }
            },
            "next": {
             "block": {
              "type": "variables_set",
              "id": "Bzz{[:ql]l%M%Oo:Fbm6",
              "fields": {
               "VAR": {
                "id": "3W{e*xLNO65*u(~i:T~W"
               }
              },
              "inputs": {
               "VALUE": {
                "block": {
                 "type": "Sc_MouseY",
                 "id": "Nb_-Eg_!;_5A6v.:~_$=",
                 "inline": true,
                 "inputs": {
                  "MINVAL": {
                   "block": {
                    "type": "math_number",
                    "id": "`|.CTvGfXah@,SArcIm_",
                    "fields": {
                     "NUM": 20
                    }
                   }
                  },
                  "MAXVAL": {
                   "block": {
                    "type": "math_number",
                    "id": "G{xhhH4y4YD$`c_tr995",
                    "fields": {
                     "NUM": 4000
                    }
                   }
                  },
                  "WARP": {
                   "block": {
                    "type": "math_number",
                    "id": "3rK:`v/EjB2m%S|;d$#:",
                    "fields": {
                     "NUM": 1
                    }
                   }
                  },
                  "LAG": {
                   "block": {
                    "type": "math_number",
                    "id": "(~u7jG3![j;vIb:sLXdM",
                    "fields": {
                     "NUM": 0.2
                    }
                   }
                  },
                  "MUL": {
                   "shadow": {
                    "type": "math_number",
                    "id": "e1YKhU{:)Hh,ZKjx#]Up",
                    "fields": {
                     "NUM": 1
                    }
                   }
                  },
                  "ADD": {
                   "shadow": {
                    "type": "math_number",
                    "id": "avs$_:n[+ZlPx9y!vq]8",
                    "fields": {
                     "NUM": 0
                    }
                   }
                  }
                 }
                }
               }
              },
              "next": {
               "block": {
                "type": "variables_set",
                "id": "R^F/s0iJ4eR]qXYPkmvH",
                "fields": {
                 "VAR": {
                  "id": "N$xob(0KW~c]tGpBfL7:"
                 }
                },
                "inputs": {
                 "VALUE": {
                  "block": {
                   "type": "Sc_MouseX",
                   "id": "/)0Zy98|hD+y!]l)e76_",
                   "inline": true,
                   "inputs": {
                    "MINVAL": {
                     "block": {
                      "type": "Sc_BinaryOp",
                      "id": "5;0bjq!f7sbWsL,jjUA+",
                      "inline": true,
                      "fields": {
                       "OP": "/"
                      },
                      "inputs": {
                       "LHS": {
                        "block": {
                         "type": "math_number",
                         "id": "Y{9-a(j0HAQ|6MPmFKfw",
                         "fields": {
                          "NUM": 1
                         }
                        }
                       },
                       "RHS": {
                        "block": {
                         "type": "math_number",
                         "id": "RlGfLf9B!sRk/H+sr9!x",
                         "fields": {
                          "NUM": 8
                         }
                        }
                       }
                      }
                     }
                    },
                    "MAXVAL": {
                     "block": {
                      "type": "math_number",
                      "id": "2`ElNHVL5!=enoYoRyx[",
                      "fields": {
                       "NUM": 8
                      }
                     }
                    },
                    "WARP": {
                     "block": {
                      "type": "math_number",
                      "id": "KiF-zYcQN-O9*J5,(kJS",
                      "fields": {
                       "NUM": 1
                      }
                     }
                    },
                    "LAG": {
                     "block": {
                      "type": "math_number",
                      "id": ",bmyM]L^|`yVu,f/!s/j",
                      "fields": {
                       "NUM": 0.2
                      }
                     }
                    },
                    "MUL": {
                     "shadow": {
                      "type": "math_number",
                      "id": "QBt$*_xTIZV_L`yD/]dy",
                      "fields": {
                       "NUM": 1
                      }
                     }
                    },
                    "ADD": {
                     "shadow": {
                      "type": "math_number",
                      "id": "b:Kcn@h7l.q-(CXSrLX$",
                      "fields": {
                       "NUM": 0
                      }
                     }
                    }
                   }
                  }
                 }
                },
                "next": {
                 "block": {
                  "type": "variables_set",
                  "id": "4y61v+E{!p,GmMtefIxg",
                  "fields": {
                   "VAR": {
                    "id": "IbM3b=PAYjXz}05pwo{8"
                   }
                  },
                  "inputs": {
                   "VALUE": {
                    "block": {
                     "type": "Sc_LocalIn",
                     "id": "ggz},Ge[EP%tZ5|^T#M$",
                     "inline": true,
                     "inputs": {
                      "NUMCHANNELS": {
                       "block": {
                        "type": "math_number",
                        "id": "0*$uZGFN9kqEBZ-$,V`c",
                        "fields": {
                         "NUM": 2
                        }
                       }
                      },
                      "DEFAULT": {
                       "block": {
                        "type": "math_number",
                        "id": "sD~n};myNs9M6tIS1~p?",
                        "fields": {
                         "NUM": 0
                        }
                       }
                      },
                      "MUL": {
                       "block": {
                        "type": "math_number",
                        "id": "/]@k@[9)-p.`nHY9xTo/",
                        "fields": {
                         "NUM": 1
                        }
                       }
                      },
                      "ADD": {
                       "block": {
                        "type": "math_number",
                        "id": "R^Z]]=kB009J7P!DN{fu",
                        "fields": {
                         "NUM": 0
                        }
                       }
                      }
                     }
                    }
                   }
                  },
                  "next": {
                   "block": {
                    "type": "variables_set",
                    "id": "kaPy!Sc]?:VJ#9fx83tr",
                    "fields": {
                     "VAR": {
                      "id": "/;eA/VBcCDZN3$Z+0Ozs"
                     }
                    },
                    "inputs": {
                     "VALUE": {
                      "block": {
                       "type": "Sc_BinaryOp",
                       "id": "Fl5H:kaSO8s5o=%Rb+ja",
                       "inline": true,
                       "fields": {
                        "OP": "*"
                       },
                       "inputs": {
                        "LHS": {
                         "block": {
                          "type": "Sc_BinaryOp",
                          "id": "54J.b;?P~An#I~ygl({#",
                          "inline": true,
                          "fields": {
                           "OP": "*"
                          },
                          "inputs": {
                           "LHS": {
                            "block": {
                             "type": "Sc_SinOsc",
                             "id": "8[k@p7Q.]~$T^p/neh_6",
                             "inline": true,
                             "inputs": {
                              "FREQ": {
                               "block": {
                                "type": "Sc_BinaryOp",
                                "id": "T6qihh+`g!7qYC6A-%ww",
                                "inline": true,
                                "fields": {
                                 "OP": "*"
                                },
                                "inputs": {
                                 "LHS": {
                                  "block": {
                                   "type": "variables_get",
                                   "id": ",~%:mvha}D2Y,KCl0gob",
                                   "fields": {
                                    "VAR": {
                                     "id": "3W{e*xLNO65*u(~i:T~W"
                                    }
                                   }
                                  }
                                 },
                                 "RHS": {
                                  "block": {
                                   "type": "variables_get",
                                   "id": "6VN8C3]Nkr4%m~-^BSvv",
                                   "fields": {
                                    "VAR": {
                                     "id": "N$xob(0KW~c]tGpBfL7:"
                                    }
                                   }
                                  }
                                 }
                                }
                               }
                              },
                              "PHASE": {
                               "block": {
                                "type": "math_number",
                                "id": ":f?:OjsXystz)Z|Dj+Br",
                                "fields": {
                                 "NUM": 0
                                }
                               }
                              },
                              "MUL": {
                               "shadow": {
                                "type": "math_number",
                                "id": "dI+Tt?^I/M@N{xetR6ga",
                                "fields": {
                                 "NUM": 1
                                }
                               },
                               "block": {
                                "type": "variables_get",
                                "id": "tSg?$gnb^_UqUKOd%JFX",
                                "fields": {
                                 "VAR": {
                                  "id": "3W{e*xLNO65*u(~i:T~W"
                                 }
                                }
                               }
                              },
                              "ADD": {
                               "shadow": {
                                "type": "math_number",
                                "id": "bjx45(v]Gg)HbO+8h)Dd",
                                "fields": {
                                 "NUM": 0
                                }
                               }
                              }
                             }
                            }
                           },
                           "RHS": {
                            "block": {
                             "type": "variables_get",
                             "id": "}2ij!A%(XXi|0mlu.v`H",
                             "fields": {
                              "VAR": {
                               "id": "N$xob(0KW~c]tGpBfL7:"
                              }
                             }
                            }
                           }
                          }
                         }
                        },
                        "RHS": {
                         "block": {
                          "type": "variables_get",
                          "id": "z#YQ*:4mARQz8ZF3!DRc",
                          "fields": {
                           "VAR": {
                            "id": "Vl:tU#Y:fxl-^=z$Yy18"
                           }
                          }
                         }
                        }
                       }
                      }
                     }
                    },
                    "next": {
                     "block": {
                      "type": "variables_set",
                      "id": "BOvWCz}G^68gjdu!8;)0",
                      "fields": {
                       "VAR": {
                        "id": "yB+mDy2?+t;$I,Yl.?Q;"
                       }
                      },
                      "inputs": {
                       "VALUE": {
                        "block": {
                         "type": "Sc_SinOsc",
                         "id": "NK|YV*`|/oO$SQe4Mf6_",
                         "inline": false,
                         "inputs": {
                          "FREQ": {
                           "block": {
                            "type": "lists_create_with",
                            "id": "fpWAeq*p3{@!ol3YDY!q",
                            "inline": false,
                            "extraState": {
                             "itemCount": 2
                            },
                            "inputs": {
                             "ADD0": {
                              "block": {
                               "type": "Sc_BinaryOp",
                               "id": "^BplGry5iJdw/d$T1AF.",
                               "inline": true,
                               "fields": {
                                "OP": "*"
                               },
                               "inputs": {
                                "LHS": {
                                 "block": {
                                  "type": "Sc_BinaryOp",
                                  "id": "on=Op=v^[x+pxY!_Acj3",
                                  "inline": true,
                                  "fields": {
                                   "OP": "*"
                                  },
                                  "inputs": {
                                   "LHS": {
                                    "block": {
                                     "type": "variables_get",
                                     "id": "Jley91(%[8]7LHN#}}}`",
                                     "fields": {
                                      "VAR": {
                                       "id": "3W{e*xLNO65*u(~i:T~W"
                                      }
                                     }
                                    }
                                   },
                                   "RHS": {
                                    "block": {
                                     "type": "variables_get",
                                     "id": "8_p.w}~|^h;dFnUhs+Ss",
                                     "fields": {
                                      "VAR": {
                                       "id": "/;eA/VBcCDZN3$Z+0Ozs"
                                      }
                                     }
                                    }
                                   }
                                  }
                                 }
                                },
                                "RHS": {
                                 "block": {
                                  "type": "Sc_ArrayProc1",
                                  "id": "c1@kjx3n#($hfJT+bC%?",
                                  "fields": {
                                   "OP": "second"
                                  },
                                  "inputs": {
                                   "IN": {
                                    "block": {
                                     "type": "variables_get",
                                     "id": "sT55LzehX170:Z0Jrzoq",
                                     "fields": {
                                      "VAR": {
                                       "id": "IbM3b=PAYjXz}05pwo{8"
                                      }
                                     }
                                    }
                                   }
                                  }
                                 }
                                }
                               }
                              }
                             },
                             "ADD1": {
                              "block": {
                               "type": "Sc_BinaryOp",
                               "id": "WW]zyIl_7qB4fBe6uTAL",
                               "inline": true,
                               "fields": {
                                "OP": "+"
                               },
                               "inputs": {
                                "LHS": {
                                 "block": {
                                  "type": "Sc_BinaryOp",
                                  "id": "S{x%9g.eKHk#d)R0_3@#",
                                  "inline": true,
                                  "fields": {
                                   "OP": "+"
                                  },
                                  "inputs": {
                                   "LHS": {
                                    "block": {
                                     "type": "variables_get",
                                     "id": "}M]*E~rdLZB0~cH{#%?s",
                                     "fields": {
                                      "VAR": {
                                       "id": "3W{e*xLNO65*u(~i:T~W"
                                      }
                                     }
                                    }
                                   },
                                   "RHS": {
                                    "block": {
                                     "type": "variables_get",
                                     "id": "=BCXYRNSI?eaTU`fz:C[",
                                     "fields": {
                                      "VAR": {
                                       "id": "/;eA/VBcCDZN3$Z+0Ozs"
                                      }
                                     }
                                    }
                                   }
                                  }
                                 }
                                },
                                "RHS": {
                                 "block": {
                                  "type": "Sc_ArrayProc1",
                                  "id": "___@Dff]OV,|Ryb1NENb",
                                  "fields": {
                                   "OP": "first"
                                  },
                                  "inputs": {
                                   "IN": {
                                    "block": {
                                     "type": "variables_get",
                                     "id": "8]+i[!d[zmHx:ZyJ2i!V",
                                     "fields": {
                                      "VAR": {
                                       "id": "IbM3b=PAYjXz}05pwo{8"
                                      }
                                     }
                                    }
                                   }
                                  }
                                 }
                                }
                               }
                              }
                             }
                            }
                           }
                          },
                          "PHASE": {
                           "block": {
                            "type": "math_number",
                            "id": "Y}O{tODqPA{o]hWQ/iC+",
                            "fields": {
                             "NUM": 0
                            }
                           }
                          },
                          "MUL": {
                           "shadow": {
                            "type": "math_number",
                            "id": "B]]oD-=gI6!!oL*-[z}.",
                            "fields": {
                             "NUM": 1
                            }
                           }
                          },
                          "ADD": {
                           "shadow": {
                            "type": "math_number",
                            "id": "N1g(f3}N]P+=f;7llUO{",
                            "fields": {
                             "NUM": 0
                            }
                           }
                          }
                         }
                        }
                       }
                      },
                      "next": {
                       "block": {
                        "type": "Sc_Play",
                        "id": "jcxLD.?kMQyhYMJ31o1+",
                        "inputs": {
                         "CODE": {
                          "block": {
                           "type": "Sc_BinaryOp",
                           "id": "JW@3ehZ9MMhCD)t@we.5",
                           "inline": false,
                           "fields": {
                            "OP": "<!"
                           },
                           "inputs": {
                            "LHS": {
                             "block": {
                              "type": "Sc_Pan2",
                              "id": "7+O}+#HpyQt~OOJ$MaMW",
                              "inline": true,
                              "inputs": {
                               "IN": {
                                "block": {
                                 "type": "Sc_LeakDC",
                                 "id": "ysPhMAApN6yZr.9XFont",
                                 "inline": true,
                                 "inputs": {
                                  "IN": {
                                   "block": {
                                    "type": "Sc_ArrayProc1",
                                    "id": "HG#V2Y/9jr)aC0VDr8I~",
                                    "fields": {
                                     "OP": "sum"
                                    },
                                    "inputs": {
                                     "IN": {
                                      "block": {
                                       "type": "variables_get",
                                       "id": "S4Uu$n8Ys-{JU5f{bQm0",
                                       "fields": {
                                        "VAR": {
                                         "id": "yB+mDy2?+t;$I,Yl.?Q;"
                                        }
                                       }
                                      }
                                     }
                                    }
                                   }
                                  },
                                  "COEF": {
                                   "block": {
                                    "type": "math_number",
                                    "id": "Nbxcf#xiH^HL$pT[n_9S",
                                    "fields": {
                                     "NUM": 0.995
                                    }
                                   }
                                  },
                                  "MUL": {
                                   "shadow": {
                                    "type": "math_number",
                                    "id": "J75oF8PYE,@qt.shNVzk",
                                    "fields": {
                                     "NUM": 1
                                    }
                                   }
                                  },
                                  "ADD": {
                                   "shadow": {
                                    "type": "math_number",
                                    "id": "`m?NrmW,Q*N|U,7fU#l!",
                                    "fields": {
                                     "NUM": 0
                                    }
                                   }
                                  }
                                 }
                                }
                               },
                               "POS": {
                                "block": {
                                 "type": "variables_get",
                                 "id": "0?2f1V8NbRG^Y^{vLRq`",
                                 "fields": {
                                  "VAR": {
                                   "id": "]^qJ?*M9aO`b:l}4+5E^"
                                  }
                                 }
                                }
                               },
                               "LEVEL": {
                                "block": {
                                 "type": "variables_get",
                                 "id": ")Alo~:zpcJUx7Fs#5W5U",
                                 "fields": {
                                  "VAR": {
                                   "id": "bc{uf?i#)Vr1B3{~]F|^"
                                  }
                                 }
                                }
                               },
                               "MUL": {
                                "shadow": {
                                 "type": "math_number",
                                 "id": "q45Rm]g{=R[zns}HqaI+",
                                 "fields": {
                                  "NUM": 1
                                 }
                                }
                               },
                               "ADD": {
                                "shadow": {
                                 "type": "math_number",
                                 "id": "08x*A[]:Jham_9xJ3DyC",
                                 "fields": {
                                  "NUM": 0
                                 }
                                }
                               }
                              }
                             }
                            },
                            "RHS": {
                             "block": {
                              "type": "Sc_LocalOut",
                              "id": "_S*c_]S?Fqk-3WsI2^=D",
                              "inline": true,
                              "inputs": {
                               "CHANNELSARRAY": {
                                "block": {
                                 "type": "Sc_BinaryOp",
                                 "id": "J4X`%f2KTyfYUjqkyi^F",
                                 "inline": true,
                                 "fields": {
                                  "OP": "*"
                                 },
                                 "inputs": {
                                  "LHS": {
                                   "block": {
                                    "type": "variables_get",
                                    "id": "(ewr@oYQ~IZW;:tnKtP}",
                                    "fields": {
                                     "VAR": {
                                      "id": "yB+mDy2?+t;$I,Yl.?Q;"
                                     }
                                    }
                                   }
                                  },
                                  "RHS": {
                                   "block": {
                                    "type": "variables_get",
                                    "id": "u7nF*0HOJh/fB._+l]1d",
                                    "fields": {
                                     "VAR": {
                                      "id": "K4XhhPwhh5hT_-ObHe|_"
                                     }
                                    }
                                   }
                                  }
                                 }
                                }
                               }
                              }
                             }
                            }
                           }
                          }
                         }
                        }
                       }
                      }
                     }
                    }
                   }
                  }
                 }
                }
               }
              }
             }
            }
           }
          }
         }
        }
       }
      }
     }
    }
   }
  ]
 },
 "variables": [
  {
   "name": "index",
   "id": "Vl:tU#Y:fxl-^=z$Yy18"
  },
  {
   "name": "fb",
   "id": "K4XhhPwhh5hT_-ObHe|_"
  },
  {
   "name": "pan",
   "id": "]^qJ?*M9aO`b:l}4+5E^"
  },
  {
   "name": "amp",
   "id": "bc{uf?i#)Vr1B3{~]F|^"
  },
  {
   "name": "freq",
   "id": "3W{e*xLNO65*u(~i:T~W"
  },
  {
   "name": "mratio",
   "id": "N$xob(0KW~c]tGpBfL7:"
  },
  {
   "name": "in",
   "id": "IbM3b=PAYjXz}05pwo{8"
  },
  {
   "name": "mod",
   "id": "/;eA/VBcCDZN3$Z+0Ozs"
  },
  {
   "name": "car",
   "id": "yB+mDy2?+t;$I,Yl.?Q;"
  }
 ]
}
