{
 "blocks": {
  "languageVersion": 0,
  "blocks": [
   {
    "type": "Sc_Comment",
    "id": "8M5%{?4,6Tg34ZLJa0V[",
    "x": 0,
    "y": 0,
    "fields": {
     "COMMENT": "OverlapTexture.1"
    },
    "next": {
     "block": {
      "type": "Sc_Play",
      "id": "PDa1EBV:nF35xOA#8d*Q",
      "inputs": {
       "CODE": {
        "block": {
         "type": "Sc_ArrayProc1",
         "id": "{{f,OwhH+/=mJxM[),)x",
         "fields": {
          "OP": "sum"
         },
         "inputs": {
          "IN": {
           "block": {
            "type": "Sc_OverlapTexture",
            "id": "A6lps4ws1iZEt`;|`A%D",
            "inline": false,
            "inputs": {
             "PROC": {
              "block": {
               "type": "Sc_Proc1",
               "id": "8)Z^9ulsZ_wfMZrr;m,U",
               "inline": false,
               "inputs": {
                "VAR": {
                 "block": {
                  "type": "variables_get",
                  "id": "YU+|DgKbXJGPZSx.9h={",
                  "fields": {
                   "VAR": {
                    "id": "UaZdx]Rs}{=#JnO+)V6J"
                   }
                  }
                 }
                },
                "RETURN": {
                 "block": {
                  "type": "Sc_EqPan2",
                  "id": "{LiPeLJ/L7vmd-(R9[{A",
                  "inline": false,
                  "inputs": {
                   "IN": {
                    "block": {
                     "type": "Sc_SinOsc",
                     "id": "of^RUm-v{V={6c}OPwI|",
                     "inline": false,
                     "inputs": {
                      "FREQ": {
                       "block": {
                        "type": "Sc_TRand",
                        "id": "6vx^0lISdv}K=]?S58f3",
                        "inline": true,
                        "inputs": {
                         "LO": {
                          "block": {
                           "type": "math_number",
                           "id": "0O}:_Cw_KNIB_VA6Emx0",
                           "fields": {
                            "NUM": 110
                           }
                          }
                         },
                         "HI": {
                          "block": {
                           "type": "math_number",
                           "id": "$Z|3l^sTL3+(?4yKNJIY",
                           "fields": {
                            "NUM": 440
                           }
                          }
                         },
                         "TRIG": {
                          "block": {
                           "type": "variables_get",
                           "id": "@JonX-O/F3y%*h(,DV/6",
                           "fields": {
                            "VAR": {
                             "id": "UaZdx]Rs}{=#JnO+)V6J"
                            }
                           }
                          }
                         },
                         "MUL": {
                          "shadow": {
                           "type": "math_number",
                           "id": "F460MW}Ujk89AkEREp%w",
                           "fields": {
                            "NUM": 1
                           }
                          }
                         },
                         "ADD": {
                          "shadow": {
                           "type": "math_number",
                           "id": ".pE#|MG0a~)#:}JO`)Wp",
                           "fields": {
                            "NUM": 0
                           }
                          }
                         }
                        }
                       }
                      },
                      "PHASE": {
                       "block": {
                        "type": "math_number",
                        "id": "B4~2+61{^3Za+|Lixqfm",
                        "fields": {
                         "NUM": 0
                        }
                       }
                      },
                      "MUL": {
                       "shadow": {
                        "type": "math_number",
                        "id": "hqfBniyk!`KN[dpL~ko;",
                        "fields": {
                         "NUM": 1
                        }
                       }
                      },
                      "ADD": {
                       "shadow": {
                        "type": "math_number",
                        "id": "c]-Uc;}JP~QVlLg[n1?g",
                        "fields": {
                         "NUM": 0
                        }
                       }
                      }
                     }
                    }
                   },
                   "POS": {
                    "block": {
                     "type": "Sc_TRand",
                     "id": "n[#I!jT)iqn{]Npf+R7w",
                     "inline": true,
                     "inputs": {
                      "LO": {
                       "block": {
                        "type": "math_number",
                        "id": "zc6CHzjk9`z9uz!B`HGX",
                        "fields": {
                         "NUM": -1
                        }
                       }
                      },
                      "HI": {
                       "block": {
                        "type": "math_number",
                        "id": "{x~~IWZL%WR:-S!r}K3C",
                        "fields": {
                         "NUM": 1
                        }
                       }
                      },
                      "TRIG": {
                       "block": {
                        "type": "variables_get",
                        "id": "}lv{6*BN=hV3Va-D{W(b",
                        "fields": {
                         "VAR": {
                          "id": "UaZdx]Rs}{=#JnO+)V6J"
                         }
                        }
                       }
                      },
                      "MUL": {
                       "shadow": {
                        "type": "math_number",
                        "id": "`(j7w6EMj@4#w!7pqHn_",
                        "fields": {
                         "NUM": 1
                        }
                       }
                      },
                      "ADD": {
                       "shadow": {
                        "type": "math_number",
                        "id": "!{,uc/K3N#tI5YBaX(CV",
                        "fields": {
                         "NUM": 0
                        }
                       }
                      }
                     }
                    }
                   },
                   "MUL": {
                    "block": {
                     "type": "Sc_TRand",
                     "id": "~UTsFeAM!HKgW|7@0QWL",
                     "inline": true,
                     "inputs": {
                      "LO": {
                       "block": {
                        "type": "math_number",
                        "id": "@N_dQbPV?xwS!5S!,S;v",
                        "fields": {
                         "NUM": 0.01
                        }
                       }
                      },
                      "HI": {
                       "block": {
                        "type": "math_number",
                        "id": "ZWl}_~h7]abunNwX)BW*",
                        "fields": {
                         "NUM": 0.05
                        }
                       }
                      },
                      "TRIG": {
                       "block": {
                        "type": "variables_get",
                        "id": "%5mTA%EUc/vAP:di7j)`",
                        "fields": {
                         "VAR": {
                          "id": "UaZdx]Rs}{=#JnO+)V6J"
                         }
                        }
                       }
                      },
                      "MUL": {
                       "shadow": {
                        "type": "math_number",
                        "id": "?9xxU3M6kxYCzj`YCLN7",
                        "fields": {
                         "NUM": 1
                        }
                       }
                      },
                      "ADD": {
                       "shadow": {
                        "type": "math_number",
                        "id": "2b~KVcqg$GKpas;/f$Y^",
                        "fields": {
                         "NUM": 0
                        }
                       }
                      }
                     }
                    }
                   },
                   "ADD": {
                    "shadow": {
                     "type": "math_number",
                     "id": "Q-*urIfRB4(f6i!{$Fqk",
                     "fields": {
                      "NUM": 0
                     }
                    }
                   }
                  }
                 }
                }
               }
              }
             },
             "SUSTAINTIME": {
              "block": {
               "type": "math_number",
               "id": "py7SB7pbXd[l1B2Jk9`@",
               "fields": {
                "NUM": 3
               }
              }
             },
             "TRANSITIONTIME": {
              "block": {
               "type": "math_number",
               "id": "75?,}OElj/Xtkj{@EZi|",
               "fields": {
                "NUM": 5
               }
              }
             },
             "OVERLAP": {
              "block": {
               "type": "math_number",
               "id": "]ydz}L[T,IrtfyS~DWFK",
               "fields": {
                "NUM": 7
               }
              }
             }
            }
           }
          }
         }
        }
       }
      }
     }
    }
   }
  ]
 },
 "variables": [
  {
   "name": "tr",
   "id": "UaZdx]Rs}{=#JnO+)V6J"
  }
 ]
}
