{
 "blocks": {
  "languageVersion": 0,
  "blocks": [
   {
    "type": "Sc_Comment",
    "id": "uLM9p8dviz)(_{x,z=A{",
    "x": 0,
    "y": 0,
    "fields": {
     "COMMENT": "VoiceWriter.1"
    },
    "next": {
     "block": {
      "type": "Sc_Play",
      "id": "Rhk]_U-~)KH%pxL4OVQC",
      "inputs": {
       "CODE": {
        "block": {
         "type": "Sc_VoiceWriter",
         "id": "c(|)XF{zGs4@QaiDmcRC",
         "inputs": {
          "PART": {
           "block": {
            "type": "math_number",
            "id": "i{H`[mR+Mn:@rV-/_f1(",
            "fields": {
             "NUM": 1
            }
           }
          },
          "COUNT": {
           "block": {
            "type": "math_number",
            "id": "xO$wxF3R7cR*D;e:}a=,",
            "fields": {
             "NUM": 16
            }
           }
          },
          "PROC": {
           "block": {
            "type": "Sc_Proc0Stm",
            "id": "CMWy*g1v=2BnOtG0T)fy",
            "inputs": {
             "STATEMENTS": {
              "block": {
               "type": "variables_set",
               "id": "{%]G~S{zs@R;K*VUT`Zj",
               "fields": {
                "VAR": {
                 "id": "yqOQgJ?%^{OM}.J-CFm^"
                }
               },
               "inputs": {
                "VALUE": {
                 "block": {
                  "type": "Sc_Impulse",
                  "id": ")M3B?{0OU(@^Gq}Wb,V{",
                  "inline": true,
                  "inputs": {
                   "FREQ": {
                    "block": {
                     "type": "Sc_Rand",
                     "id": "|6m5BY!~5n/$|elgW-K8",
                     "inline": true,
                     "inputs": {
                      "LO": {
                       "block": {
                        "type": "math_number",
                        "id": "1J5Fu@]I;G8@RF|a?3^8",
                        "fields": {
                         "NUM": 0.15
                        }
                       }
                      },
                      "HI": {
                       "block": {
                        "type": "math_number",
                        "id": "-6;zJr(C;u~wKSa2lR*T",
                        "fields": {
                         "NUM": 0.85
                        }
                       }
                      },
                      "MUL": {
                       "shadow": {
                        "type": "math_number",
                        "id": "4k+Ycl)6`8l1|d~ik#|t",
                        "fields": {
                         "NUM": 1
                        }
                       }
                      },
                      "ADD": {
                       "shadow": {
                        "type": "math_number",
                        "id": "-X4K|;Z})2w;D79n@OY|",
                        "fields": {
                         "NUM": 0
                        }
                       }
                      }
                     }
                    }
                   },
                   "PHASE": {
                    "block": {
                     "type": "Sc_Rand",
                     "id": "ZyOO)/9Yt8;K|q}t7GlE",
                     "inline": true,
                     "inputs": {
                      "LO": {
                       "block": {
                        "type": "math_number",
                        "id": "$lFO(:Uyn.6nk|QwA{9W",
                        "fields": {
                         "NUM": 0
                        }
                       }
                      },
                      "HI": {
                       "block": {
                        "type": "math_number",
                        "id": "AP{I3OPEcpQnvC6,lb%`",
                        "fields": {
                         "NUM": 1
                        }
                       }
                      },
                      "MUL": {
                       "shadow": {
                        "type": "math_number",
                        "id": "*bqD^?g?-P:9q1U^9RKo",
                        "fields": {
                         "NUM": 1
                        }
                       }
                      },
                      "ADD": {
                       "shadow": {
                        "type": "math_number",
                        "id": "pBalA)eKs#a$aepIHyS!",
                        "fields": {
                         "NUM": 0
                        }
                       }
                      }
                     }
                    }
                   },
                   "MUL": {
                    "shadow": {
                     "type": "math_number",
                     "id": "N%G)RD!GmB`J%I`S(H7q",
                     "fields": {
                      "NUM": 1
                     }
                    }
                   },
                   "ADD": {
                    "shadow": {
                     "type": "math_number",
                     "id": "VjDnFMS9:{qKI;l)vF.m",
                     "fields": {
                      "NUM": 0
                     }
                    }
                   }
                  }
                 }
                }
               }
              }
             },
             "RETURN": {
              "shadow": {
               "type": "math_number",
               "id": "M)AVcq*ZZe)B4f2c(5-C",
               "fields": {
                "NUM": 0
               }
              },
              "block": {
               "type": "Sc_ArrayProc1",
               "id": "x?Har+c1Bp:l/6r3kH7_",
               "fields": {
                "OP": "asRecord"
               },
               "inputs": {
                "IN": {
                 "block": {
                  "type": "lists_create_with",
                  "id": "nas-)c$eokno%*MH%1J_",
                  "inline": false,
                  "extraState": {
                   "itemCount": 3
                  },
                  "inputs": {
                   "ADD0": {
                    "block": {
                     "type": "Sc_Association",
                     "id": "TlU]k%C^JT-_p=F,{1uY",
                     "inline": false,
                     "inputs": {
                      "KEY": {
                       "block": {
                        "type": "text",
                        "id": "i`gPD=*6pNvscr0oozuE",
                        "fields": {
                         "TEXT": "w"
                        }
                       }
                      },
                      "VALUE": {
                       "block": {
                        "type": "Sc_Trig",
                        "id": "?Kh1j#~0,kw(FTp3tk(H",
                        "inline": false,
                        "inputs": {
                         "IN": {
                          "block": {
                           "type": "variables_get",
                           "id": "6jFQIm`)MpSy_S6Yr83I",
                           "fields": {
                            "VAR": {
                             "id": "yqOQgJ?%^{OM}.J-CFm^"
                            }
                           }
                          }
                         },
                         "DUR": {
                          "block": {
                           "type": "math_number",
                           "id": "E$Bsn93EA0]k67/C0[ht",
                           "fields": {
                            "NUM": 0.25
                           }
                          }
                         },
                         "MUL": {
                          "shadow": {
                           "type": "math_number",
                           "id": "9cq$Xt5Z#3MC+Z;|WPqI",
                           "fields": {
                            "NUM": 1
                           }
                          }
                         },
                         "ADD": {
                          "shadow": {
                           "type": "math_number",
                           "id": "ccxRmud+7gp/cSQ{PEzD",
                           "fields": {
                            "NUM": 0
                           }
                          }
                         }
                        }
                       }
                      }
                     }
                    }
                   },
                   "ADD1": {
                    "block": {
                     "type": "Sc_Association",
                     "id": "4o$vmv_|}p`-?k+8tUIK",
                     "inline": false,
                     "inputs": {
                      "KEY": {
                       "block": {
                        "type": "text",
                        "id": ":4SLBjQ(T!i1Y7}U(Of2",
                        "fields": {
                         "TEXT": "p"
                        }
                       }
                      },
                      "VALUE": {
                       "block": {
                        "type": "Sc_Latch",
                        "id": "!fiua;rj%R`N.Zt1uw8^",
                        "inputs": {
                         "IN": {
                          "block": {
                           "type": "Sc_LinLin",
                           "id": "N~F1ZQHpTVLv$y@c7IXx",
                           "inline": false,
                           "inputs": {
                            "IN": {
                             "block": {
                              "type": "Sc_SinOsc",
                              "id": "U~}BUt9N981^#@-I.e)*",
                              "inline": true,
                              "inputs": {
                               "FREQ": {
                                "block": {
                                 "type": "Sc_Rand",
                                 "id": "y]@Xmx3SOO}8?Fx2_-P$",
                                 "inline": true,
                                 "inputs": {
                                  "LO": {
                                   "block": {
                                    "type": "math_number",
                                    "id": ",~F$0p4IP,zVuuf$,jyo",
                                    "fields": {
                                     "NUM": 0.25
                                    }
                                   }
                                  },
                                  "HI": {
                                   "block": {
                                    "type": "math_number",
                                    "id": "#^D7f:fA`AXYK$Pc4H{c",
                                    "fields": {
                                     "NUM": 1.5
                                    }
                                   }
                                  },
                                  "MUL": {
                                   "shadow": {
                                    "type": "math_number",
                                    "id": "8mOJ}|y)d{Y|Gwalg2@U",
                                    "fields": {
                                     "NUM": 1
                                    }
                                   }
                                  },
                                  "ADD": {
                                   "shadow": {
                                    "type": "math_number",
                                    "id": "b%]u.H0gyAKg/uC]s@^9",
                                    "fields": {
                                     "NUM": 0
                                    }
                                   }
                                  }
                                 }
                                }
                               },
                               "PHASE": {
                                "block": {
                                 "type": "math_number",
                                 "id": "YSoKMUh)R]@cP}=`!0@I",
                                 "fields": {
                                  "NUM": 0
                                 }
                                }
                               },
                               "MUL": {
                                "shadow": {
                                 "type": "math_number",
                                 "id": "UCjzm.eVUa=M#y[Xjk4[",
                                 "fields": {
                                  "NUM": 1
                                 }
                                }
                               },
                               "ADD": {
                                "shadow": {
                                 "type": "math_number",
                                 "id": "A*{t~l0g0l.xE*j*gx/w",
                                 "fields": {
                                  "NUM": 0
                                 }
                                }
                               }
                              }
                             }
                            },
                            "SRCLO": {
                             "block": {
                              "type": "math_number",
                              "id": "3tE+M$}t_T/T;H#A6Cez",
                              "fields": {
                               "NUM": -1
                              }
                             }
                            },
                            "SRCHI": {
                             "block": {
                              "type": "math_number",
                              "id": ",ooz@QwA]O-71SZn=U!d",
                              "fields": {
                               "NUM": 1
                              }
                             }
                            },
                            "DSTLO": {
                             "block": {
                              "type": "math_number",
                              "id": "rq9U/|De}5S7nP0dcJSz",
                              "fields": {
                               "NUM": 0.15
                              }
                             }
                            },
                            "DSTHI": {
                             "block": {
                              "type": "math_number",
                              "id": "Dz8U]b9g*B|1sw}2-iR#",
                              "fields": {
                               "NUM": 0.95
                              }
                             }
                            },
                            "MUL": {
                             "shadow": {
                              "type": "math_number",
                              "id": "6hnU-/xU_kmKyzi.!I/A",
                              "fields": {
                               "NUM": 1
                              }
                             }
                            },
                            "ADD": {
                             "shadow": {
                              "type": "math_number",
                              "id": "b]n_|!J-nsg1c[v-vg#*",
                              "fields": {
                               "NUM": 0
                              }
                             }
                            }
                           }
                          }
                         },
                         "TRIG": {
                          "block": {
                           "type": "variables_get",
                           "id": "K9yQVd-14NJ=8}:_c6eg",
                           "fields": {
                            "VAR": {
                             "id": "yqOQgJ?%^{OM}.J-CFm^"
                            }
                           }
                          }
                         },
                         "MUL": {
                          "shadow": {
                           "type": "math_number",
                           "id": "`:$Okqzl2!(za-EgDc6R",
                           "fields": {
                            "NUM": 1
                           }
                          }
                         },
                         "ADD": {
                          "shadow": {
                           "type": "math_number",
                           "id": "(dLWf)4ra6%3soKyMF{(",
                           "fields": {
                            "NUM": 0
                           }
                          }
                         }
                        }
                       }
                      }
                     }
                    }
                   },
                   "ADD2": {
                    "block": {
                     "type": "Sc_Association",
                     "id": "j%GeLsGWwp/HL2]}h9)a",
                     "inline": false,
                     "inputs": {
                      "KEY": {
                       "block": {
                        "type": "text",
                        "id": "ZTAzO4@qGgc:)tNUwJB{",
                        "fields": {
                         "TEXT": "z"
                        }
                       }
                      },
                      "VALUE": {
                       "block": {
                        "type": "Sc_TRand",
                        "id": "1RI*H]s-$|_c4UzmuY.2",
                        "inline": true,
                        "inputs": {
                         "LO": {
                          "shadow": {
                           "type": "math_number",
                           "id": "|j!ALD-?F@q@1n*Z~2NN",
                           "fields": {
                            "NUM": 0.1
                           }
                          }
                         },
                         "HI": {
                          "shadow": {
                           "type": "math_number",
                           "id": "};|RJM~w.o2|Nw*C*5]S",
                           "fields": {
                            "NUM": 0.2
                           }
                          }
                         },
                         "TRIG": {
                          "shadow": {
                           "type": "math_number",
                           "id": "(uXIoGJB2c*6pT4+4Utg",
                           "fields": {
                            "NUM": 0
                           }
                          },
                          "block": {
                           "type": "variables_get",
                           "id": "{o+`EC$TZc~E0`!h?WZR",
                           "fields": {
                            "VAR": {
                             "id": "yqOQgJ?%^{OM}.J-CFm^"
                            }
                           }
                          }
                         },
                         "MUL": {
                          "shadow": {
                           "type": "math_number",
                           "id": "[9fNOWO$`h2AXL3yb?+A",
                           "fields": {
                            "NUM": 1
                           }
                          }
                         },
                         "ADD": {
                          "shadow": {
                           "type": "math_number",
                           "id": "#GZ@Zawsw2XSf{iklK#=",
                           "fields": {
                            "NUM": 0
                           }
                          }
                         }
                        }
                       }
                      }
                     }
                    }
                   }
                  }
                 }
                }
               }
              }
             }
            }
           }
          }
         }
        }
       }
      }
     }
    }
   }
  ]
 },
 "variables": [
  {
   "name": "tr",
   "id": "yqOQgJ?%^{OM}.J-CFm^"
  }
 ]
}
