{
 "blocks": {
  "languageVersion": 0,
  "blocks": [
   {
    "type": "Sc_Comment",
    "id": "gKB|+^Ob~)]~Bjs!Kxm[",
    "x": 0,
    "y": 0,
    "fields": {
     "COMMENT": "Block Names, Parameters, Messages"
    },
    "next": {
     "block": {
      "type": "Sc_Play",
      "id": "9H+w)Lzs3)K(f$w4x$H[",
      "inputs": {
       "CODE": {
        "block": {
         "type": "Sc_SinOsc",
         "id": ":?Bv*k7xZK-[!~]}tC?C",
         "inline": false,
         "inputs": {
          "FREQ": {
           "block": {
            "type": "Sc_SinOsc",
            "id": "vUf^+#FK84H}Rm.yaNIs",
            "inline": true,
            "inputs": {
             "FREQ": {
              "block": {
               "type": "Sc_BinaryOp",
               "id": "fjh/+;GU-,g`m~A0N^Q7",
               "inline": true,
               "fields": {
                "OP": "/"
               },
               "inputs": {
                "LHS": {
                 "block": {
                  "type": "math_number",
                  "id": "Am)~Q[8@9=,-U`(,i{t]",
                  "fields": {
                   "NUM": 1
                  }
                 }
                },
                "RHS": {
                 "block": {
                  "type": "lists_create_with",
                  "id": "`s,E_O1fW/8ZTOJh+-D+",
                  "inline": true,
                  "extraState": {
                   "itemCount": 2
                  },
                  "inputs": {
                   "ADD0": {
                    "block": {
                     "type": "math_number",
                     "id": "d)2B5?[dav[5B$^O~NC+",
                     "fields": {
                      "NUM": 7
                     }
                    }
                   },
                   "ADD1": {
                    "block": {
                     "type": "math_number",
                     "id": "K1Ozc^6xfO0@ALE|K`hF",
                     "fields": {
                      "NUM": 9
                     }
                    }
                   }
                  }
                 }
                }
               }
              }
             },
             "PHASE": {
              "block": {
               "type": "math_number",
               "id": "_aha%(0]*39~=|{*#jcW",
               "fields": {
                "NUM": 0
               }
              }
             },
             "MUL": {
              "shadow": {
               "type": "math_number",
               "id": "OiNdOH/@##0G+cS`%?D.",
               "fields": {
                "NUM": 1
               }
              },
              "block": {
               "type": "lists_create_with",
               "id": "-%0]:1_F*s-TgLj}=Q?h",
               "inline": true,
               "extraState": {
                "itemCount": 2
               },
               "inputs": {
                "ADD0": {
                 "block": {
                  "type": "math_number",
                  "id": "G$AuqmV?;oyl=WpI`#mg",
                  "fields": {
                   "NUM": 55
                  }
                 }
                },
                "ADD1": {
                 "block": {
                  "type": "math_number",
                  "id": "bNHtG0:Zn{_5gb-l+!L`",
                  "fields": {
                   "NUM": 57
                  }
                 }
                }
               }
              }
             },
             "ADD": {
              "shadow": {
               "type": "math_number",
               "id": "C=JBb4UB)qR1@:N0Tcyb",
               "fields": {
                "NUM": 0
               }
              },
              "block": {
               "type": "math_number",
               "id": "EgtVpH[d)fKLDwMLAtFZ",
               "fields": {
                "NUM": 110
               }
              }
             }
            }
           }
          },
          "PHASE": {
           "block": {
            "type": "math_number",
            "id": "9Kx]]~fTm|G-0p}^mRM6",
            "fields": {
             "NUM": 0
            }
           }
          },
          "MUL": {
           "shadow": {
            "type": "math_number",
            "id": "LpbNN!{OSlI+uM?NvpG!",
            "fields": {
             "NUM": 1
            }
           },
           "block": {
            "type": "Sc_SinOsc",
            "id": "5$#%lvW)rNS!~JLGY7#m",
            "inline": true,
            "inputs": {
             "FREQ": {
              "block": {
               "type": "Sc_BinaryOp",
               "id": "FnbOE5c+uC1pBT4x,J|2",
               "inline": true,
               "fields": {
                "OP": "/"
               },
               "inputs": {
                "LHS": {
                 "block": {
                  "type": "math_number",
                  "id": "6v@|U=8oMQ0)i_GoJ_!4",
                  "fields": {
                   "NUM": 1
                  }
                 }
                },
                "RHS": {
                 "block": {
                  "type": "lists_create_with",
                  "id": "[PL#Dp%)_F(X?j8k#d0-",
                  "inline": true,
                  "extraState": {
                   "itemCount": 2
                  },
                  "inputs": {
                   "ADD0": {
                    "block": {
                     "type": "math_number",
                     "id": "YHze6MH4cgXqqdW}2=s%",
                     "fields": {
                      "NUM": 5
                     }
                    }
                   },
                   "ADD1": {
                    "block": {
                     "type": "math_number",
                     "id": "3dT{E7,@6hifRr:%HY13",
                     "fields": {
                      "NUM": 7
                     }
                    }
                   }
                  }
                 }
                }
               }
              }
             },
             "PHASE": {
              "block": {
               "type": "math_number",
               "id": "9OEn!wojBga{j}]*Wt#~",
               "fields": {
                "NUM": 0
               }
              }
             },
             "MUL": {
              "shadow": {
               "type": "math_number",
               "id": ":))N|oESGs?brgOZ+OX!",
               "fields": {
                "NUM": 1
               }
              },
              "block": {
               "type": "math_number",
               "id": "x7k1GuU/H,)SKWd584N)",
               "fields": {
                "NUM": 0.1
               }
              }
             },
             "ADD": {
              "shadow": {
               "type": "math_number",
               "id": "+63q;VY!,(}Fhlyvl`25",
               "fields": {
                "NUM": 0
               }
              }
             }
            }
           }
          },
          "ADD": {
           "shadow": {
            "type": "math_number",
            "id": "Ld[JXbx]tGykF[NCW8g_",
            "fields": {
             "NUM": 0
            }
           }
          }
         }
        }
       }
      }
     }
    }
   }
  ]
 }
}
