{
 "blocks": {
  "languageVersion": 0,
  "blocks": [
   {
    "type": "Sc_Play",
    "id": "5r#DsIsAQO)(E!{F6!9u",
    "x": 0,
    "y": 0,
    "inputs": {
     "CODE": {
      "block": {
       "type": "Sc_Resonz",
       "id": "o(k@mjE[JyBg=lj)`i,b",
       "inline": false,
       "inputs": {
        "IN": {
         "shadow": {
          "type": "math_number",
          "id": "0aF;#M8?)k+kkPV=9MSf",
          "fields": {
           "NUM": 0
          }
         },
         "block": {
          "type": "Sc_PinkNoise",
          "id": "*}dAjX)=/ybzoE#S_|C-",
          "inline": true,
          "inputs": {
           "MUL": {
            "shadow": {
             "type": "math_number",
             "id": "BdU4y{sTkf1QGLi?=r]R",
             "fields": {
              "NUM": 1
             }
            }
           },
           "ADD": {
            "shadow": {
             "type": "math_number",
             "id": "}[Z9x5xa@xA@NTReY5l!",
             "fields": {
              "NUM": 0
             }
            }
           }
          }
         }
        },
        "FREQ": {
         "shadow": {
          "type": "math_number",
          "id": "TAF0}jwG0rLA.AwKu%30",
          "fields": {
           "NUM": 440
          }
         },
         "block": {
          "type": "math_number",
          "id": "ek$Mbl;PC7D[v;{R@2q|",
          "fields": {
           "NUM": 999
          }
         }
        },
        "BWR": {
         "shadow": {
          "type": "math_number",
          "id": "KT+_j2%d;c5J.3ZRSdnN",
          "fields": {
           "NUM": 1
          }
         },
         "block": {
          "type": "math_number",
          "id": "^WOdM!gtJY}k9/PQg:uA",
          "fields": {
           "NUM": 0.01
          }
         }
        },
        "MUL": {
         "shadow": {
          "type": "math_number",
          "id": "4uL{o|Z+]BZvJRM1-Jr`",
          "fields": {
           "NUM": 1
          }
         }
        },
        "ADD": {
         "shadow": {
          "type": "math_number",
          "id": "QzKI|^~vi?hYe53Z*?yM",
          "fields": {
           "NUM": 0
          }
         }
        }
       }
      }
     }
    }
   }
  ]
 },
 "variables": [
  {
   "name": "tr",
   "id": "8$U8ZNj9f1*YSXeiGwH?"
  }
 ]
}
