{
 "blocks": {
  "languageVersion": 0,
  "blocks": [
   {
    "type": "Sc_Comment",
    "id": "h7R?-[_c@sv/Mhu,dT1%",
    "x": 0,
    "y": 0,
    "fields": {
     "COMMENT": "Eas ; Rl ; warning=feedback-network"
    },
    "next": {
     "block": {
      "type": "variables_set",
      "id": "O0;EQqi}AC/*!Vpnokv~",
      "fields": {
       "VAR": {
        "id": "Wyou}s[Ias/SuJD[kdIE"
       }
      },
      "inputs": {
       "VALUE": {
        "block": {
         "type": "lists_create_with",
         "id": "Ld-|YYQ-Mr@navnueC3$",
         "inline": true,
         "extraState": {
          "itemCount": 3
         },
         "inputs": {
          "ADD0": {
           "block": {
            "type": "math_number",
            "id": "Ldid/El(zmNMRDJdO;:;",
            "fields": {
             "NUM": 6
            }
           }
          },
          "ADD1": {
           "block": {
            "type": "math_number",
            "id": "Y{(rj@uVrDQM?@[}dyH*",
            "fields": {
             "NUM": 20
            }
           }
          },
          "ADD2": {
           "block": {
            "type": "math_number",
            "id": "KLHoC^XspD9nc(e^A:-Y",
            "fields": {
             "NUM": 32
            }
           }
          }
         }
        }
       }
      },
      "next": {
       "block": {
        "type": "variables_set",
        "id": "|yR_@{,T4]hiVhv?[$]-",
        "fields": {
         "VAR": {
          "id": "Gg?b,7sB3s@[yCZgylXx"
         }
        },
        "inputs": {
         "VALUE": {
          "block": {
           "type": "Sc_ArrayProc1",
           "id": ")%kaKCs:!K]{wrS(P^,p",
           "fields": {
            "OP": "sum"
           },
           "inputs": {
            "IN": {
             "block": {
              "type": "Sc_AudioIn",
              "id": "=09/]Ht,)auNfuNX@,+R",
              "inline": true,
              "inputs": {
               "CHANNELARRAY": {
                "block": {
                 "type": "lists_create_with",
                 "id": "U]kOQ`MX)6)4w7j[mF3{",
                 "inline": true,
                 "extraState": {
                  "itemCount": 2
                 },
                 "inputs": {
                  "ADD0": {
                   "block": {
                    "type": "math_number",
                    "id": "EK8dABt}Sd|9IFW{lbdb",
                    "fields": {
                     "NUM": 1
                    }
                   }
                  },
                  "ADD1": {
                   "block": {
                    "type": "math_number",
                    "id": ".?Lu8Ty[+m.R/LI^a]W9",
                    "fields": {
                     "NUM": 2
                    }
                   }
                  }
                 }
                }
               },
               "MUL": {
                "shadow": {
                 "type": "math_number",
                 "id": "D3@fi4u.E@S,-16Fw)pz",
                 "fields": {
                  "NUM": 1
                 }
                },
                "block": {
                 "type": "lists_create_with",
                 "id": "DR:!|S/n(GTyRp00M=|x",
                 "inline": true,
                 "extraState": {
                  "itemCount": 2
                 },
                 "inputs": {
                  "ADD0": {
                   "block": {
                    "type": "math_number",
                    "id": ";?qZPusq/)VIE[t[wgou",
                    "fields": {
                     "NUM": 1
                    }
                   }
                  },
                  "ADD1": {
                   "block": {
                    "type": "math_number",
                    "id": "@]!4))5$1?y9vA;qM{y7",
                    "fields": {
                     "NUM": 0.75
                    }
                   }
                  }
                 }
                }
               },
               "ADD": {
                "shadow": {
                 "type": "math_number",
                 "id": "pDV_oSmD2;S2xy;+s+hq",
                 "fields": {
                  "NUM": 0
                 }
                }
               }
              }
             }
            }
           }
          }
         }
        },
        "next": {
         "block": {
          "type": "variables_set",
          "id": "y!L/w5s(2pq,A)vd%5lQ",
          "fields": {
           "VAR": {
            "id": "Mx.qCuN3m|6`RPr#Zk(K"
           }
          },
          "inputs": {
           "VALUE": {
            "block": {
             "type": "Sc_DelayN",
             "id": "2,tM^O|4wT%dngL)x;JN",
             "inline": true,
             "inputs": {
              "IN": {
               "block": {
                "type": "variables_get",
                "id": "O8bS#kZMPGa!(x=2Yw3_",
                "fields": {
                 "VAR": {
                  "id": "Gg?b,7sB3s@[yCZgylXx"
                 }
                }
               }
              },
              "MAXDELAYTIME": {
               "block": {
                "type": "variables_get",
                "id": "|`,FZ9#[eN!N_5{gp.Qd",
                "fields": {
                 "VAR": {
                  "id": "Wyou}s[Ias/SuJD[kdIE"
                 }
                }
               }
              },
              "DELAYTIME": {
               "block": {
                "type": "variables_get",
                "id": "z.7yyvCDhv3vpqxi1biP",
                "fields": {
                 "VAR": {
                  "id": "Wyou}s[Ias/SuJD[kdIE"
                 }
                }
               }
              },
              "MUL": {
               "shadow": {
                "type": "math_number",
                "id": "L]ri[MDi,4pb$}@`X$6)",
                "fields": {
                 "NUM": 1
                }
               }
              },
              "ADD": {
               "shadow": {
                "type": "math_number",
                "id": "A{$s2fys22MQMn=~]}TY",
                "fields": {
                 "NUM": 0
                }
               }
              }
             }
            }
           }
          },
          "next": {
           "block": {
            "type": "variables_set",
            "id": "~|Yu?7ww)*%T!EpE_rE|",
            "fields": {
             "VAR": {
              "id": "@(NuT:YUrY8Q{vs7r2m:"
             }
            },
            "inputs": {
             "VALUE": {
              "block": {
               "type": "Sc_ArrayProc1",
               "id": "s=4Ea:V,SVO.lMLjRhrM",
               "fields": {
                "OP": "sum"
               },
               "inputs": {
                "IN": {
                 "block": {
                  "type": "Sc_EqPan2",
                  "id": "!hhhA@177~d%A6|*iYO5",
                  "inline": true,
                  "inputs": {
                   "IN": {
                    "block": {
                     "type": "variables_get",
                     "id": "X_H/p)R,?CANtmBz=E:O",
                     "fields": {
                      "VAR": {
                       "id": "Mx.qCuN3m|6`RPr#Zk(K"
                      }
                     }
                    }
                   },
                   "POS": {
                    "block": {
                     "type": "lists_create_with",
                     "id": "(*O|Bt[IGQ1Mm0)bgWTj",
                     "inline": true,
                     "extraState": {
                      "itemCount": 3
                     },
                     "inputs": {
                      "ADD0": {
                       "block": {
                        "type": "math_number",
                        "id": "y/OO`:aj?!t*@E;l(byH",
                        "fields": {
                         "NUM": -1
                        }
                       }
                      },
                      "ADD1": {
                       "block": {
                        "type": "math_number",
                        "id": "!@Q3bnGqV.YsBDL^TUAU",
                        "fields": {
                         "NUM": 1
                        }
                       }
                      },
                      "ADD2": {
                       "block": {
                        "type": "math_number",
                        "id": "COHFb_w5Pt(4:X}o`A;o",
                        "fields": {
                         "NUM": 0
                        }
                       }
                      }
                     }
                    }
                   },
                   "MUL": {
                    "shadow": {
                     "type": "math_number",
                     "id": "[oqQt)6Ivplmy**PGspR",
                     "fields": {
                      "NUM": 1
                     }
                    }
                   },
                   "ADD": {
                    "shadow": {
                     "type": "math_number",
                     "id": "_VHV5=U)I|QG_]|m)qzy",
                     "fields": {
                      "NUM": 0
                     }
                    }
                   }
                  }
                 }
                }
               }
              }
             }
            },
            "next": {
             "block": {
              "type": "Sc_Play",
              "id": "nKl#no8HMv;iM-WltHqz",
              "inputs": {
               "CODE": {
                "block": {
                 "type": "Sc_MulAdd",
                 "id": "Cd%(Z!DsSiUgEqe?+m^M",
                 "inline": true,
                 "inputs": {
                  "IN": {
                   "shadow": {
                    "type": "math_number",
                    "id": "ij]%he{RKq{4ha8inr;r",
                    "fields": {
                     "NUM": 0
                    }
                   },
                   "block": {
                    "type": "variables_get",
                    "id": "/AR`g;bF9;*_/fG/,RHm",
                    "fields": {
                     "VAR": {
                      "id": "Gg?b,7sB3s@[yCZgylXx"
                     }
                    }
                   }
                  },
                  "MUL": {
                   "shadow": {
                    "type": "math_number",
                    "id": ")(KaMLog[4/+hmH)cTM}",
                    "fields": {
                     "NUM": 0
                    }
                   },
                   "block": {
                    "type": "math_number",
                    "id": "F~jq9m0[C%LVML.Pr3:Y",
                    "fields": {
                     "NUM": 0.5
                    }
                   }
                  },
                  "ADD": {
                   "shadow": {
                    "type": "math_number",
                    "id": "X/y~[]|!aZZHyceJD+_@",
                    "fields": {
                     "NUM": 0
                    }
                   },
                   "block": {
                    "type": "variables_get",
                    "id": "#wYGrLymxD$7)#s%Q.C~",
                    "fields": {
                     "VAR": {
                      "id": "@(NuT:YUrY8Q{vs7r2m:"
                     }
                    }
                   }
                  }
                 }
                }
               }
              }
             }
            }
           }
          }
         }
        }
       }
      }
     }
    }
   }
  ]
 },
 "variables": [
  {
   "name": "delayTimes",
   "id": "Wyou}s[Ias/SuJD[kdIE"
  },
  {
   "name": "src",
   "id": "Gg?b,7sB3s@[yCZgylXx"
  },
  {
   "name": "delay",
   "id": "Mx.qCuN3m|6`RPr#Zk(K"
  },
  {
   "name": "pan",
   "id": "@(NuT:YUrY8Q{vs7r2m:"
  }
 ]
}
