{
 "blocks": {
  "languageVersion": 0,
  "blocks": [
   {
    "type": "Sc_Comment",
    "id": "!|vYEWz1fC$;zf[BfU!O",
    "x": 0,
    "y": 0,
    "fields": {
     "COMMENT": "F0 ; 0301"
    },
    "next": {
     "block": {
      "type": "variables_set",
      "id": ":;9s#.V?~h4Cyqw~2AW@",
      "fields": {
       "VAR": {
        "id": "6W~}:VDg-OFTDu-4||#+"
       }
      },
      "inputs": {
       "VALUE": {
        "block": {
         "type": "Sc_ArrayProc2",
         "id": "Oa:d2#E-CNgF^|)K?NNw",
         "inline": false,
         "fields": {
          "OP": "collect"
         },
         "inputs": {
          "LHS": {
           "block": {
            "type": "Sc_ArrayFromTo",
            "id": "6LlFitYMQ%c[V.F4*lq6",
            "inline": true,
            "inputs": {
             "FROM": {
              "block": {
               "type": "math_number",
               "id": "NFPM.nY2p~oy#vdwntr=",
               "fields": {
                "NUM": 0
               }
              }
             },
             "TO": {
              "block": {
               "type": "math_number",
               "id": "9N*B|!Xm+zM*t_?lz7a.",
               "fields": {
                "NUM": 3
               }
              }
             }
            }
           }
          },
          "RHS": {
           "block": {
            "type": "Sc_Proc1",
            "id": "=A1Jt~~H4SU/iC4t7TCk",
            "inline": false,
            "inputs": {
             "VAR": {
              "block": {
               "type": "variables_get",
               "id": "D{pcC;y5^rYD^Liw_L7/",
               "fields": {
                "VAR": {
                 "id": "q,g6jB+JG36#8bC1wNpp"
                }
               }
              }
             },
             "RETURN": {
              "block": {
               "type": "Sc_UnaryOp",
               "id": "1F{/wSm*|ZZL7g%Z1dYJ",
               "fields": {
                "OP": "kr"
               },
               "inputs": {
                "IN": {
                 "block": {
                  "type": "Sc_Duty",
                  "id": "-5+sukTw/GM4OY+e)b#v",
                  "inline": false,
                  "inputs": {
                   "DUR": {
                    "block": {
                     "type": "Sc_BinaryOp",
                     "id": "Ln`SXyPo{4RB#!(osXjR",
                     "inline": true,
                     "fields": {
                      "OP": "/"
                     },
                     "inputs": {
                      "LHS": {
                       "block": {
                        "type": "Sc_BinaryOp",
                        "id": "bzN,ncSNS+krdeFAJpB-",
                        "inline": true,
                        "fields": {
                         "OP": "+"
                        },
                        "inputs": {
                         "LHS": {
                          "block": {
                           "type": "variables_get",
                           "id": "9sTe1;[gp:^}!6EzOyQT",
                           "fields": {
                            "VAR": {
                             "id": "q,g6jB+JG36#8bC1wNpp"
                            }
                           }
                          }
                         },
                         "RHS": {
                          "block": {
                           "type": "math_number",
                           "id": "GPEB%hrW6SeZm%c`o#y8",
                           "fields": {
                            "NUM": 1
                           }
                          }
                         }
                        }
                       }
                      },
                      "RHS": {
                       "block": {
                        "type": "math_number",
                        "id": "^Z=;0*%)K-y`6Bf88^?%",
                        "fields": {
                         "NUM": 9
                        }
                       }
                      }
                     }
                    }
                   },
                   "RESET": {
                    "block": {
                     "type": "math_number",
                     "id": "B9$-b2o!K4zr}-33?L5p",
                     "fields": {
                      "NUM": 0
                     }
                    }
                   },
                   "LEVEL": {
                    "block": {
                     "type": "Sc_BinaryOp",
                     "id": "wig|B__H#(Tshwwi!9La",
                     "inline": false,
                     "fields": {
                      "OP": "%"
                     },
                     "inputs": {
                      "LHS": {
                       "shadow": {
                        "type": "math_number",
                        "id": "wmifBomMH3+VZ}ji[F#8",
                        "fields": {
                         "NUM": 0
                        }
                       },
                       "block": {
                        "type": "Sc_ControlIn",
                        "id": "O{f*V#jN3@cX..RCSMO3",
                        "inline": false,
                        "inputs": {
                         "NUMCHANNELS": {
                          "block": {
                           "type": "math_number",
                           "id": "hUugWQ?(;.B|z;Nb1K8q",
                           "fields": {
                            "NUM": 1
                           }
                          }
                         },
                         "BUS": {
                          "block": {
                           "type": "Sc_BinaryOp",
                           "id": "(y`H}:2t4b8+/M5]P~z@",
                           "inline": true,
                           "fields": {
                            "OP": "%"
                           },
                           "inputs": {
                            "LHS": {
                             "block": {
                              "type": "Sc_BinaryOp",
                              "id": "D.H^$S@pId:}FAS~:T5W",
                              "inline": true,
                              "fields": {
                               "OP": "+"
                              },
                              "inputs": {
                               "LHS": {
                                "block": {
                                 "type": "variables_get",
                                 "id": "I-8ysn])@|d`/b)G5+Tm",
                                 "fields": {
                                  "VAR": {
                                   "id": "q,g6jB+JG36#8bC1wNpp"
                                  }
                                 }
                                }
                               },
                               "RHS": {
                                "block": {
                                 "type": "math_number",
                                 "id": "bdSyB#Xou,B+2($AjDCO",
                                 "fields": {
                                  "NUM": 1
                                 }
                                }
                               }
                              }
                             }
                            },
                            "RHS": {
                             "block": {
                              "type": "math_number",
                              "id": "?64FZ+oy4tznyW#d-@qA",
                              "fields": {
                               "NUM": 4
                              }
                             }
                            }
                           }
                          }
                         },
                         "MUL": {
                          "block": {
                           "type": "math_number",
                           "id": "_KVv%;nDRxd.SBN1KC8)",
                           "fields": {
                            "NUM": 1
                           }
                          }
                         },
                         "ADD": {
                          "block": {
                           "type": "Sc_Dseq",
                           "id": "1d?6^NM8XxEAZaKblx$E",
                           "inline": false,
                           "inputs": {
                            "REPEATS": {
                             "shadow": {
                              "type": "math_number",
                              "id": "UqV7AKq9YYxLST8_Ma%l",
                              "fields": {
                               "NUM": 1
                              }
                             },
                             "block": {
                              "type": "Sc_Constant",
                              "id": "Qn!eK$-#.z^*!Ht_3w=L",
                              "fields": {
                               "CONST": "Infinity"
                              }
                             }
                            },
                            "ARRAY": {
                             "shadow": {
                              "type": "math_number",
                              "id": ".YLzd{G{$5=uxXqR!VqB",
                              "fields": {
                               "NUM": 0
                              }
                             },
                             "block": {
                              "type": "lists_create_with",
                              "id": ":K0zi{4tdW5nd9-}z2bS",
                              "inline": true,
                              "extraState": {
                               "itemCount": 8
                              },
                              "inputs": {
                               "ADD0": {
                                "shadow": {
                                 "type": "math_number",
                                 "id": "n65$29?K^p~3~:@eOeIM",
                                 "fields": {
                                  "NUM": 0
                                 }
                                },
                                "block": {
                                 "type": "math_number",
                                 "id": "Mrjh.cA?DuF8gJ4C70HN",
                                 "fields": {
                                  "NUM": 1
                                 }
                                }
                               },
                               "ADD1": {
                                "shadow": {
                                 "type": "math_number",
                                 "id": ":~TcE!YuMyXb:~mgmY`i",
                                 "fields": {
                                  "NUM": 0
                                 }
                                },
                                "block": {
                                 "type": "math_number",
                                 "id": "sdEDOn]vKCwBEVnc_1cs",
                                 "fields": {
                                  "NUM": 1
                                 }
                                }
                               },
                               "ADD2": {
                                "shadow": {
                                 "type": "math_number",
                                 "id": "E6I;B?v/sHl!5rOy*[lC",
                                 "fields": {
                                  "NUM": 0
                                 }
                                },
                                "block": {
                                 "type": "math_number",
                                 "id": "%nsnEAWG{BPkl_WKi%5G",
                                 "fields": {
                                  "NUM": 2
                                 }
                                }
                               },
                               "ADD3": {
                                "block": {
                                 "type": "math_number",
                                 "id": "kv{YeDks!a(kI_WE(mBn",
                                 "fields": {
                                  "NUM": 3
                                 }
                                }
                               },
                               "ADD4": {
                                "shadow": {
                                 "type": "math_number",
                                 "id": ":~TcE!YuMyXb:~mgmY`i",
                                 "fields": {
                                  "NUM": 0
                                 }
                                },
                                "block": {
                                 "type": "math_number",
                                 "id": "=fySgc%~l,XttIU=D?S1",
                                 "fields": {
                                  "NUM": 5
                                 }
                                }
                               },
                               "ADD5": {
                                "block": {
                                 "type": "math_number",
                                 "id": "Kj;Vd9Qi%.^{*9/BOL|!",
                                 "fields": {
                                  "NUM": 8
                                 }
                                }
                               },
                               "ADD6": {
                                "shadow": {
                                 "type": "math_number",
                                 "id": "iWSo5ZxhtHP$~S*^d`2:",
                                 "fields": {
                                  "NUM": 0
                                 }
                                },
                                "block": {
                                 "type": "math_number",
                                 "id": ";_o-b8UZ*c@5d$uy7^tV",
                                 "fields": {
                                  "NUM": 13
                                 }
                                }
                               },
                               "ADD7": {
                                "block": {
                                 "type": "math_number",
                                 "id": "j%~+FB%fLTCrCq7hFjUG",
                                 "fields": {
                                  "NUM": 21
                                 }
                                }
                               }
                              }
                             }
                            },
                            "MUL": {
                             "shadow": {
                              "type": "math_number",
                              "id": ";EPY+Xd?wKlp$KeJH,R4",
                              "fields": {
                               "NUM": 1
                              }
                             }
                            },
                            "ADD": {
                             "shadow": {
                              "type": "math_number",
                              "id": "U2DHRWO6%1|n?$2O6;;C",
                              "fields": {
                               "NUM": 0
                              }
                             }
                            }
                           }
                          }
                         }
                        }
                       }
                      },
                      "RHS": {
                       "shadow": {
                        "type": "math_number",
                        "id": "7hXBk.4M]w,.n?z}(Yzv",
                        "fields": {
                         "NUM": 0
                        }
                       },
                       "block": {
                        "type": "math_number",
                        "id": "`93$zPd]i$thvKDnB.@i",
                        "fields": {
                         "NUM": 9
                        }
                       }
                      }
                     }
                    }
                   },
                   "MUL": {
                    "block": {
                     "type": "math_number",
                     "id": "[!DrGOm.Nzghn;@;N~hi",
                     "fields": {
                      "NUM": 1
                     }
                    }
                   },
                   "ADD": {
                    "block": {
                     "type": "math_number",
                     "id": "y:NFQ6Q)=~)YluM6__vY",
                     "fields": {
                      "NUM": 0
                     }
                    }
                   }
                  }
                 }
                }
               }
              }
             }
            }
           }
          }
         }
        }
       }
      },
      "next": {
       "block": {
        "type": "Sc_Play",
        "id": "P$5lth?HSNd.l)8U)Q4b",
        "inputs": {
         "CODE": {
          "block": {
           "type": "Sc_BinaryOp",
           "id": "(a`{E?LY=/DHQp4Ow9_j",
           "inline": false,
           "fields": {
            "OP": "<!"
           },
           "inputs": {
            "LHS": {
             "block": {
              "type": "Sc_Splay",
              "id": "TeBdo9q5mq1Xv$]jb(=P",
              "inline": false,
              "inputs": {
               "INARRAY": {
                "shadow": {
                 "type": "math_number",
                 "id": "VsMV;(MeZQiW#O]*`:D:",
                 "fields": {
                  "NUM": 0
                 }
                },
                "block": {
                 "type": "Sc_CombN",
                 "id": "k*p4y1K(MTwn-Wiv]%hG",
                 "inline": false,
                 "inputs": {
                  "IN": {
                   "block": {
                    "type": "Sc_SinOsc",
                    "id": "7[z-7]%$-[!rO`1eG:JL",
                    "inline": true,
                    "inputs": {
                     "FREQ": {
                      "block": {
                       "type": "Sc_BinaryOp",
                       "id": "l@~]l%E7]pW,Yy(G+u=G",
                       "inline": true,
                       "fields": {
                        "OP": "*"
                       },
                       "inputs": {
                        "LHS": {
                         "block": {
                          "type": "variables_get",
                          "id": "C8mlmL[LK~|M3;.K~|Yn",
                          "fields": {
                           "VAR": {
                            "id": "6W~}:VDg-OFTDu-4||#+"
                           }
                          }
                         }
                        },
                        "RHS": {
                         "block": {
                          "type": "math_number",
                          "id": "bqc#O]#uUf`hesWTH=#R",
                          "fields": {
                           "NUM": 99
                          }
                         }
                        }
                       }
                      }
                     },
                     "PHASE": {
                      "block": {
                       "type": "Sc_BinaryOp",
                       "id": "xXx:E6Y^w.)ydNe=O*vK",
                       "inline": true,
                       "fields": {
                        "OP": "*"
                       },
                       "inputs": {
                        "LHS": {
                         "block": {
                          "type": "variables_get",
                          "id": "hOE;t55Mh97ldp817v!J",
                          "fields": {
                           "VAR": {
                            "id": "6W~}:VDg-OFTDu-4||#+"
                           }
                          }
                         }
                        },
                        "RHS": {
                         "block": {
                          "type": "math_number",
                          "id": "E%lf:sEtIj)M2C?4QDEf",
                          "fields": {
                           "NUM": 2
                          }
                         }
                        }
                       }
                      }
                     },
                     "MUL": {
                      "shadow": {
                       "type": "math_number",
                       "id": "gdOCiXnYbc4lO-WTm(Rh",
                       "fields": {
                        "NUM": 1
                       }
                      }
                     },
                     "ADD": {
                      "shadow": {
                       "type": "math_number",
                       "id": "[}XSnxnw*:a^C5FXlwWG",
                       "fields": {
                        "NUM": 0
                       }
                      }
                     }
                    }
                   }
                  },
                  "MAXDELAYTIME": {
                   "block": {
                    "type": "math_number",
                    "id": "ftFd([WW5f_0Ow^[Cg^y",
                    "fields": {
                     "NUM": 1
                    }
                   }
                  },
                  "DELAYTIME": {
                   "block": {
                    "type": "Sc_BinaryOp",
                    "id": "le@m5-vWM9QcT/uI8kd3",
                    "inline": true,
                    "fields": {
                     "OP": "/"
                    },
                    "inputs": {
                     "LHS": {
                      "block": {
                       "type": "math_number",
                       "id": "%l0z*=)5@K,Qddr!??i*",
                       "fields": {
                        "NUM": 1
                       }
                      }
                     },
                     "RHS": {
                      "block": {
                       "type": "math_number",
                       "id": "TiejiY`=3,-_)r*1KoKJ",
                       "fields": {
                        "NUM": 3
                       }
                      }
                     }
                    }
                   }
                  },
                  "DECAYTIME": {
                   "block": {
                    "type": "math_number",
                    "id": ",84cG*/Qw;GkQHpYCOmZ",
                    "fields": {
                     "NUM": 1
                    }
                   }
                  },
                  "MUL": {
                   "shadow": {
                    "type": "math_number",
                    "id": "a4nC^Pq=KD;%L)IO}_~T",
                    "fields": {
                     "NUM": 1
                    }
                   }
                  },
                  "ADD": {
                   "shadow": {
                    "type": "math_number",
                    "id": "g9*arPoe#B]BRy]ZMtrY",
                    "fields": {
                     "NUM": 0
                    }
                   }
                  }
                 }
                }
               },
               "MUL": {
                "shadow": {
                 "type": "math_number",
                 "id": "3}![ZBz@hO~WZs@~g#2k",
                 "fields": {
                  "NUM": 1
                 }
                },
                "block": {
                 "type": "math_number",
                 "id": "!RjsFngG:1Vm#pJj16=-",
                 "fields": {
                  "NUM": 0.5
                 }
                }
               },
               "ADD": {
                "shadow": {
                 "type": "math_number",
                 "id": "IdYs/Z[kZfrTo/BnB`zQ",
                 "fields": {
                  "NUM": 0
                 }
                }
               }
              }
             }
            },
            "RHS": {
             "block": {
              "type": "Sc_ControlOut",
              "id": "%~2+EN8|b:{%6$MgjRG/",
              "inline": true,
              "inputs": {
               "BUS": {
                "block": {
                 "type": "math_number",
                 "id": "7QBhX?;+~{i.[w[*MZSm",
                 "fields": {
                  "NUM": 0
                 }
                }
               },
               "CHANNELSLIST": {
                "block": {
                 "type": "variables_get",
                 "id": "(c7dBDqnMkupCsmY_HZY",
                 "fields": {
                  "VAR": {
                   "id": "6W~}:VDg-OFTDu-4||#+"
                  }
                 }
                }
               }
              }
             }
            }
           }
          }
         }
        }
       }
      }
     }
    }
   }
  ]
 },
 "variables": [
  {
   "name": "b",
   "id": "6W~}:VDg-OFTDu-4||#+"
  },
  {
   "name": "i",
   "id": "q,g6jB+JG36#8bC1wNpp"
  }
 ]
}
