{
 "blocks": {
  "languageVersion": 0,
  "blocks": [
   {
    "type": "Sc_Comment",
    "id": "`+KfFD?ZX((x}(,:|PG?",
    "x": 0,
    "y": 0,
    "fields": {
     "COMMENT": "Tw 0220 (F0) ; http://www.fredrikolofsson.com/f0blog/?q=node/617"
    },
    "next": {
     "block": {
      "type": "variables_set",
      "id": "40Apa{%WpW;c@2ssZg$O",
      "fields": {
       "VAR": {
        "id": "|g-vSNY4+cDPgb)o4!E!"
       }
      },
      "inputs": {
       "VALUE": {
        "block": {
         "type": "Sc_InFb",
         "id": "Fi[jDmhvW%n{#;hVDPX,",
         "inline": true,
         "inputs": {
          "NUMCHANNELS": {
           "block": {
            "type": "math_number",
            "id": "aEjhVg,_3p9=~bU9B2wF",
            "fields": {
             "NUM": 1
            }
           }
          },
          "BUS": {
           "block": {
            "type": "math_number",
            "id": "3)xwR-,d+mH2`lrT~e;S",
            "fields": {
             "NUM": 0
            }
           }
          },
          "MUL": {
           "shadow": {
            "type": "math_number",
            "id": "wwKERLYab7WSYs9BCZ06",
            "fields": {
             "NUM": 1
            }
           }
          },
          "ADD": {
           "shadow": {
            "type": "math_number",
            "id": "-.ogWhOgB,UJ8A:.A.;b",
            "fields": {
             "NUM": 0
            }
           }
          }
         }
        }
       }
      },
      "next": {
       "block": {
        "type": "variables_set",
        "id": "vkl)41?:xWS}x])}}ZId",
        "fields": {
         "VAR": {
          "id": ")T`UH!.z46w)Z[!=9D#k"
         }
        },
        "inputs": {
         "VALUE": {
          "block": {
           "type": "Sc_UnaryOp",
           "id": "=B7_*VE2L!fM)8Q6(R/2",
           "fields": {
            "OP": "BufClear"
           },
           "inputs": {
            "IN": {
             "block": {
              "type": "Sc_BufAlloc",
              "id": "`Lc!Mo(lVP5!p^5vd4Q-",
              "inline": true,
              "inputs": {
               "NUMCHANNELS": {
                "block": {
                 "type": "math_number",
                 "id": "8xz]|G-$sRVGEzXF@LRG",
                 "fields": {
                  "NUM": 1
                 }
                }
               },
               "NUMFRAMES": {
                "block": {
                 "type": "math_number",
                 "id": "crERi*M1?=iFpzVHhl1a",
                 "fields": {
                  "NUM": 90000
                 }
                }
               },
               "MUL": {
                "shadow": {
                 "type": "math_number",
                 "id": "BSo8LA?n!9g8w3fz04a@",
                 "fields": {
                  "NUM": 1
                 }
                }
               },
               "ADD": {
                "shadow": {
                 "type": "math_number",
                 "id": "L{2HnC+OqYquMTYxIeMc",
                 "fields": {
                  "NUM": 0
                 }
                }
               }
              }
             }
            }
           }
          }
         }
        },
        "next": {
         "block": {
          "type": "variables_set",
          "id": "hI::YM@tao~ulh_Ls0Wp",
          "fields": {
           "VAR": {
            "id": "?@gNf~LYic(Sg?svTc%i"
           }
          },
          "inputs": {
           "VALUE": {
            "block": {
             "type": "Sc_SinOsc",
             "id": "1%wHCfzP3[?i|wNB*fd^",
             "inline": true,
             "inputs": {
              "FREQ": {
               "block": {
                "type": "math_number",
                "id": "OIQAGhybIoO|_-A[LPhZ",
                "fields": {
                 "NUM": 3
                }
               }
              },
              "PHASE": {
               "block": {
                "type": "math_number",
                "id": "T{`OLw7aJ.Ip6g622*{K",
                "fields": {
                 "NUM": 0
                }
               }
              },
              "MUL": {
               "shadow": {
                "type": "math_number",
                "id": "909R(?9Sz[OGc?^]z@um",
                "fields": {
                 "NUM": 1
                }
               }
              },
              "ADD": {
               "shadow": {
                "type": "math_number",
                "id": ",.HdRqPh[6b)^8ES[/Sl",
                "fields": {
                 "NUM": 0
                }
               }
              }
             }
            }
           }
          },
          "next": {
           "block": {
            "type": "variables_set",
            "id": "{=tg3Z*X.uh1RmVTIzBj",
            "fields": {
             "VAR": {
              "id": "e~OxXzB[tv]ER]v_.3aj"
             }
            },
            "inputs": {
             "VALUE": {
              "block": {
               "type": "Sc_TGrains",
               "id": "{J^`N~]~l*.~4+(zVpmo",
               "inline": false,
               "inputs": {
                "NUMCHANNELS": {
                 "block": {
                  "type": "math_number",
                  "id": "~,tjs;dI_[zpn,srEx6s",
                  "fields": {
                   "NUM": 2
                  }
                 }
                },
                "TRIGGER": {
                 "block": {
                  "type": "variables_get",
                  "id": "mWKS8,?kuGn|^68DVP(*",
                  "fields": {
                   "VAR": {
                    "id": "?@gNf~LYic(Sg?svTc%i"
                   }
                  }
                 }
                },
                "BUFNUM": {
                 "block": {
                  "type": "variables_get",
                  "id": "fZUeip]AAQx=s#+csQdS",
                  "fields": {
                   "VAR": {
                    "id": ")T`UH!.z46w)Z[!=9D#k"
                   }
                  }
                 }
                },
                "RATE": {
                 "block": {
                  "type": "Sc_BinaryOp",
                  "id": "nU.?9puJlV]Mkb#{*;1i",
                  "inline": true,
                  "fields": {
                   "OP": "+"
                  },
                  "inputs": {
                   "LHS": {
                    "block": {
                     "type": "variables_get",
                     "id": "wGyzuj5|ZaP8hs|u{UFr",
                     "fields": {
                      "VAR": {
                       "id": "|g-vSNY4+cDPgb)o4!E!"
                      }
                     }
                    }
                   },
                   "RHS": {
                    "block": {
                     "type": "math_number",
                     "id": "rew@%6U./0!qF4@vLP(:",
                     "fields": {
                      "NUM": 3
                     }
                    }
                   }
                  }
                 }
                },
                "CENTERPOS": {
                 "block": {
                  "type": "math_number",
                  "id": "%qE+$hP9Iq.$(3`9V?2%",
                  "fields": {
                   "NUM": 2
                  }
                 }
                },
                "DUR": {
                 "block": {
                  "type": "math_number",
                  "id": "IO5+N)`cGuKe2o$zG,lX",
                  "fields": {
                   "NUM": 12
                  }
                 }
                },
                "PAN": {
                 "block": {
                  "type": "math_number",
                  "id": "v}a#S`~H+H6tj%XOkQYU",
                  "fields": {
                   "NUM": 0
                  }
                 }
                },
                "AMP": {
                 "block": {
                  "type": "math_number",
                  "id": "UJbiQQ;pM!*27(@j+Bg~",
                  "fields": {
                   "NUM": 0.1
                  }
                 }
                },
                "INTERP": {
                 "block": {
                  "type": "math_number",
                  "id": ";9jK07u5;D|mXQ02Yiy1",
                  "fields": {
                   "NUM": 4
                  }
                 }
                },
                "MUL": {
                 "block": {
                  "type": "math_number",
                  "id": "P,m;qVT/xS_(+;h|5jw7",
                  "fields": {
                   "NUM": 1
                  }
                 }
                },
                "ADD": {
                 "block": {
                  "type": "math_number",
                  "id": "5c@vf37Qm0@+[#.nmGUw",
                  "fields": {
                   "NUM": 0
                  }
                 }
                }
               }
              }
             }
            },
            "next": {
             "block": {
              "type": "Sc_Play",
              "id": "B45vXW004TnN7[MByaN.",
              "inputs": {
               "CODE": {
                "block": {
                 "type": "Sc_BinaryOp",
                 "id": "$Kk#obz2]l?^vStrwDj:",
                 "inline": false,
                 "fields": {
                  "OP": "<!"
                 },
                 "inputs": {
                  "LHS": {
                   "block": {
                    "type": "Sc_HPF",
                    "id": "@Po#0+BIT=(QY+T+g2W3",
                    "inline": true,
                    "inputs": {
                     "IN": {
                      "block": {
                       "type": "Sc_SinOsc",
                       "id": "7+[,MCyQ@,}[y6jjSfiI",
                       "inline": true,
                       "inputs": {
                        "FREQ": {
                         "block": {
                          "type": "math_number",
                          "id": ")Tyx2AIxPibYz~Em8lu1",
                          "fields": {
                           "NUM": 99
                          }
                         }
                        },
                        "PHASE": {
                         "block": {
                          "type": "Sc_BinaryOp",
                          "id": "xj%QrXaL7y8(sQ_RPtYt",
                          "inline": true,
                          "fields": {
                           "OP": "*"
                          },
                          "inputs": {
                           "LHS": {
                            "block": {
                             "type": "variables_get",
                             "id": "M3eIAhZ`1h[|{aAJlDTi",
                             "fields": {
                              "VAR": {
                               "id": "|g-vSNY4+cDPgb)o4!E!"
                              }
                             }
                            }
                           },
                           "RHS": {
                            "block": {
                             "type": "math_number",
                             "id": "ttWOSA-EF^IEg{wOR]]h",
                             "fields": {
                              "NUM": 6
                             }
                            }
                           }
                          }
                         }
                        },
                        "MUL": {
                         "shadow": {
                          "type": "math_number",
                          "id": "|yqkNNtw@~6!*1)oh)Ga",
                          "fields": {
                           "NUM": 1
                          }
                         },
                         "block": {
                          "type": "Sc_UnaryOp",
                          "id": "8y1H%/X4?V+Gal#Df64L",
                          "fields": {
                           "OP": "Reciprocal"
                          },
                          "inputs": {
                           "IN": {
                            "shadow": {
                             "type": "math_number",
                             "id": "G0fN:l[k-Ai*mF9rh^I^",
                             "fields": {
                              "NUM": 0
                             }
                            },
                            "block": {
                             "type": "math_number",
                             "id": "sH*c;4q%$$XSZU3mfl1U",
                             "fields": {
                              "NUM": 9
                             }
                            }
                           }
                          }
                         }
                        },
                        "ADD": {
                         "shadow": {
                          "type": "math_number",
                          "id": "[C[/Dy0!XR`@o65W:zba",
                          "fields": {
                           "NUM": 0
                          }
                         },
                         "block": {
                          "type": "variables_get",
                          "id": "|+zCzV+IS]Ykyt9U]d=7",
                          "fields": {
                           "VAR": {
                            "id": "e~OxXzB[tv]ER]v_.3aj"
                           }
                          }
                         }
                        }
                       }
                      }
                     },
                     "FREQ": {
                      "block": {
                       "type": "math_number",
                       "id": "@VIM4:EnIkRfmbvs#ZUw",
                       "fields": {
                        "NUM": 9
                       }
                      }
                     },
                     "MUL": {
                      "shadow": {
                       "type": "math_number",
                       "id": "UH3`/er}j}^%=OnCj*Re",
                       "fields": {
                        "NUM": 1
                       }
                      }
                     },
                     "ADD": {
                      "shadow": {
                       "type": "math_number",
                       "id": "V0v=/G:f]}Z%HwvGR^+f",
                       "fields": {
                        "NUM": 0
                       }
                      }
                     }
                    }
                   }
                  },
                  "RHS": {
                   "block": {
                    "type": "Sc_BufRec",
                    "id": "s3Md.lYg[K^[s%?q,Z6G",
                    "inline": true,
                    "inputs": {
                     "BUFNUM": {
                      "block": {
                       "type": "variables_get",
                       "id": "FD;%pOA~B@JsD3`}+3+X",
                       "fields": {
                        "VAR": {
                         "id": ")T`UH!.z46w)Z[!=9D#k"
                        }
                       }
                      }
                     },
                     "RESET": {
                      "block": {
                       "type": "math_number",
                       "id": "+/nSA0xop_XVMgdF_e~+",
                       "fields": {
                        "NUM": 0
                       }
                      }
                     },
                     "INPUTARRAY": {
                      "block": {
                       "type": "variables_get",
                       "id": "$Id{#4`tVd0BIpho8zjX",
                       "fields": {
                        "VAR": {
                         "id": "|g-vSNY4+cDPgb)o4!E!"
                        }
                       }
                      }
                     },
                     "MUL": {
                      "shadow": {
                       "type": "math_number",
                       "id": "V[/^:5p$IB2*U#*K?O;P",
                       "fields": {
                        "NUM": 1
                       }
                      }
                     },
                     "ADD": {
                      "shadow": {
                       "type": "math_number",
                       "id": "oi@u(_$(l^fG!py5=/1k",
                       "fields": {
                        "NUM": 0
                       }
                      }
                     }
                    }
                   }
                  }
                 }
                }
               }
              }
             }
            }
           }
          }
         }
        }
       }
      }
     }
    }
   }
  ]
 },
 "variables": [
  {
   "name": "c",
   "id": "|g-vSNY4+cDPgb)o4!E!"
  },
  {
   "name": "b",
   "id": ")T`UH!.z46w)Z[!=9D#k"
  },
  {
   "name": "t",
   "id": "?@gNf~LYic(Sg?svTc%i"
  },
  {
   "name": "g",
   "id": "e~OxXzB[tv]ER]v_.3aj"
  }
 ]
}
