{
 "blocks": {
  "languageVersion": 0,
  "blocks": [
   {
    "type": "Sc_Comment",
    "id": "M}nE;b!B8?hgvAKrJFyS",
    "x": 0,
    "y": 0,
    "fields": {
     "COMMENT": "https://twitter.com/redFrik/status/1374139774269857798 ; F0"
    },
    "next": {
     "block": {
      "type": "variables_set",
      "id": "|m},BUqdMpn1vnF~U1Ab",
      "fields": {
       "VAR": {
        "id": "#h9Pw|Yu!w]D_/=y[:PL"
       }
      },
      "inputs": {
       "VALUE": {
        "block": {
         "type": "lists_create_with",
         "id": "g8/2n{QgI3fP]/ibvwGD",
         "inline": true,
         "extraState": {
          "itemCount": 3
         },
         "inputs": {
          "ADD0": {
           "block": {
            "type": "math_number",
            "id": "O{QVQ5u#)2K3k$|)1dP6",
            "fields": {
             "NUM": 1
            }
           }
          },
          "ADD1": {
           "block": {
            "type": "math_number",
            "id": "{7/5.)]mfDmr|M4]wlgF",
            "fields": {
             "NUM": 0.5
            }
           }
          },
          "ADD2": {
           "block": {
            "type": "math_number",
            "id": "P{WbSJapF#}+B-R{;W.w",
            "fields": {
             "NUM": 1.25
            }
           }
          }
         }
        }
       }
      },
      "next": {
       "block": {
        "type": "variables_set",
        "id": "7ajmqJSirGva:CO|Sbtm",
        "fields": {
         "VAR": {
          "id": "EQ$?aqu0ApeVt*^+*aNb"
         }
        },
        "inputs": {
         "VALUE": {
          "block": {
           "type": "Sc_BinaryOp",
           "id": ",HDDa$VLJd+oR#~%Uu7O",
           "inline": true,
           "fields": {
            "OP": ">"
           },
           "inputs": {
            "LHS": {
             "block": {
              "type": "Sc_SinOscFB",
              "id": "y,S|?l/kDpPLym`|*a}y",
              "inline": true,
              "inputs": {
               "FREQ": {
                "block": {
                 "type": "math_number",
                 "id": "tja*u:nu/KNJJ@p0g`hB",
                 "fields": {
                  "NUM": 3
                 }
                }
               },
               "FEEDBACK": {
                "block": {
                 "type": "math_number",
                 "id": "s1qkTwBiSQo)p1{+/8HN",
                 "fields": {
                  "NUM": 0
                 }
                }
               },
               "MUL": {
                "shadow": {
                 "type": "math_number",
                 "id": ".Ieb/wy/fHgs{/k58@fa",
                 "fields": {
                  "NUM": 1
                 }
                }
               },
               "ADD": {
                "shadow": {
                 "type": "math_number",
                 "id": ":wV~/U-6_S3}|.TV{.xP",
                 "fields": {
                  "NUM": 0
                 }
                }
               }
              }
             }
            },
            "RHS": {
             "block": {
              "type": "math_number",
              "id": "D6G(!e73.$)c,zR%)D,u",
              "fields": {
               "NUM": 0
              }
             }
            }
           }
          }
         }
        },
        "next": {
         "block": {
          "type": "variables_set",
          "id": "%2S3M{XBf;qX{79-=M`B",
          "fields": {
           "VAR": {
            "id": "ThMOZGqpWSLd2]{-dzRO"
           }
          },
          "inputs": {
           "VALUE": {
            "block": {
             "type": "Sc_SinOscFB",
             "id": "m1*7IiqMROcyD/$cj/dG",
             "inline": false,
             "inputs": {
              "FREQ": {
               "block": {
                "type": "Sc_MulAdd",
                "id": "%!2-wiURxzOu0jGB%5rM",
                "inline": true,
                "inputs": {
                 "IN": {
                  "shadow": {
                   "type": "math_number",
                   "id": "=nT5-~p0(/S|;!j`*n63",
                   "fields": {
                    "NUM": 0
                   }
                  },
                  "block": {
                   "type": "Sc_BinaryOp",
                   "id": "*iZqcWjqCH3*wt315kfi",
                   "inline": true,
                   "fields": {
                    "OP": "<"
                   },
                   "inputs": {
                    "LHS": {
                     "block": {
                      "type": "Sc_SinOscFB",
                      "id": "@V4DB%]=TlaHbrn-D2h2",
                      "inline": true,
                      "inputs": {
                       "FREQ": {
                        "block": {
                         "type": "Sc_BinaryOp",
                         "id": "ya:?}pl/xLXPCR]%gZNt",
                         "inline": true,
                         "fields": {
                          "OP": "/"
                         },
                         "inputs": {
                          "LHS": {
                           "block": {
                            "type": "math_number",
                            "id": "lH_@zZlLS~F}jEtL}Tos",
                            "fields": {
                             "NUM": 1
                            }
                           }
                          },
                          "RHS": {
                           "block": {
                            "type": "math_number",
                            "id": "qC7L@Q^tqs(;RvkzIe5O",
                            "fields": {
                             "NUM": 64
                            }
                           }
                          }
                         }
                        }
                       },
                       "FEEDBACK": {
                        "block": {
                         "type": "math_number",
                         "id": "lXmRfv6q:Frd.VMd@l}#",
                         "fields": {
                          "NUM": 0
                         }
                        }
                       },
                       "MUL": {
                        "shadow": {
                         "type": "math_number",
                         "id": "e2U(lrx(MFyqK$#K*82d",
                         "fields": {
                          "NUM": 1
                         }
                        }
                       },
                       "ADD": {
                        "shadow": {
                         "type": "math_number",
                         "id": "5O?]RZ5?z=~)n1vm^:a.",
                         "fields": {
                          "NUM": 0
                         }
                        }
                       }
                      }
                     }
                    },
                    "RHS": {
                     "block": {
                      "type": "math_number",
                      "id": "9m.@N%HnkGQzkR9yRYSr",
                      "fields": {
                       "NUM": 0
                      }
                     }
                    }
                   }
                  }
                 },
                 "MUL": {
                  "shadow": {
                   "type": "math_number",
                   "id": "9a|Phzjxj:^LV{|+k(HZ",
                   "fields": {
                    "NUM": 0
                   }
                  },
                  "block": {
                   "type": "math_number",
                   "id": "3J3e!:xGKAUxMLY+f$n#",
                   "fields": {
                    "NUM": 9
                   }
                  }
                 },
                 "ADD": {
                  "shadow": {
                   "type": "math_number",
                   "id": ":6Q=IrnI(@/d|NAP:0.C",
                   "fields": {
                    "NUM": 0
                   }
                  },
                  "block": {
                   "type": "math_number",
                   "id": "*EArLmV~qJgaBTNqO(N9",
                   "fields": {
                    "NUM": 50
                   }
                  }
                 }
                }
               }
              },
              "FEEDBACK": {
               "block": {
                "type": "Sc_BinaryOp",
                "id": "e:3=GWnZR_wB:WckBC7@",
                "inline": true,
                "fields": {
                 "OP": "/"
                },
                "inputs": {
                 "LHS": {
                  "block": {
                   "type": "Sc_BinaryOp",
                   "id": "0)/V[{+s]K5gb[f;]cUA",
                   "inline": true,
                   "fields": {
                    "OP": "+"
                   },
                   "inputs": {
                    "LHS": {
                     "block": {
                      "type": "Sc_SinOscFB",
                      "id": "ax5e6FG,je?-]F!Ho|Fc",
                      "inline": true,
                      "inputs": {
                       "FREQ": {
                        "block": {
                         "type": "Sc_BinaryOp",
                         "id": "MaD,P{bQCebeo06;g@7I",
                         "inline": true,
                         "fields": {
                          "OP": "/"
                         },
                         "inputs": {
                          "LHS": {
                           "block": {
                            "type": "math_number",
                            "id": "KZq6Rf)S{se!_51_DfGh",
                            "fields": {
                             "NUM": 1
                            }
                           }
                          },
                          "RHS": {
                           "block": {
                            "type": "math_number",
                            "id": "FX0~6HUqc5J03p9fNZ{1",
                            "fields": {
                             "NUM": 8
                            }
                           }
                          }
                         }
                        }
                       },
                       "FEEDBACK": {
                        "block": {
                         "type": "math_number",
                         "id": "$!v|t]83nd2p|LU-t0Cp",
                         "fields": {
                          "NUM": 0
                         }
                        }
                       },
                       "MUL": {
                        "shadow": {
                         "type": "math_number",
                         "id": "ydksl/xAl~^=Z.IE4.ox",
                         "fields": {
                          "NUM": 1
                         }
                        }
                       },
                       "ADD": {
                        "shadow": {
                         "type": "math_number",
                         "id": "4Y@M@%$HdZf8jH-dbm!t",
                         "fields": {
                          "NUM": 0
                         }
                        }
                       }
                      }
                     }
                    },
                    "RHS": {
                     "block": {
                      "type": "math_number",
                      "id": "FWlV~2LJwQuvjJ@@H-$j",
                      "fields": {
                       "NUM": 1
                      }
                     }
                    }
                   }
                  }
                 },
                 "RHS": {
                  "block": {
                   "type": "math_number",
                   "id": "W+dg2C9C^U*WkgkE7)h:",
                   "fields": {
                    "NUM": 2
                   }
                  }
                 }
                }
               }
              },
              "MUL": {
               "shadow": {
                "type": "math_number",
                "id": "MuZ-I.bh24I8O,2%Ha=-",
                "fields": {
                 "NUM": 1
                }
               },
               "block": {
                "type": "Sc_HPF",
                "id": "}sGAOi)V+P.01%s2J4n[",
                "inline": true,
                "inputs": {
                 "IN": {
                  "block": {
                   "type": "variables_get",
                   "id": "c12S1,NrI^X:G4Y?R2+N",
                   "fields": {
                    "VAR": {
                     "id": "EQ$?aqu0ApeVt*^+*aNb"
                    }
                   }
                  }
                 },
                 "FREQ": {
                  "block": {
                   "type": "math_number",
                   "id": "s/:C7[*~;v~*!vB+!h#@",
                   "fields": {
                    "NUM": 4
                   }
                  }
                 },
                 "MUL": {
                  "shadow": {
                   "type": "math_number",
                   "id": "*s19D`hbf8o)x]J{f~MM",
                   "fields": {
                    "NUM": 1
                   }
                  },
                  "block": {
                   "type": "math_number",
                   "id": "vjW5NKg{5Bzt9g?Iy:fd",
                   "fields": {
                    "NUM": 5
                   }
                  }
                 },
                 "ADD": {
                  "shadow": {
                   "type": "math_number",
                   "id": "F`v$,s!km]li~gWTNnm3",
                   "fields": {
                    "NUM": 0
                   }
                  }
                 }
                }
               }
              },
              "ADD": {
               "shadow": {
                "type": "math_number",
                "id": "ov_**yk#|pAukeaJpyw:",
                "fields": {
                 "NUM": 0
                }
               }
              }
             }
            }
           }
          },
          "next": {
           "block": {
            "type": "variables_set",
            "id": "i**;2k=n?x%I?%Z(f`[f",
            "fields": {
             "VAR": {
              "id": "gqq3$Ul9(ak2cK(*-2EN"
             }
            },
            "inputs": {
             "VALUE": {
              "block": {
               "type": "Sc_Lag3UD",
               "id": "Ubh.v;h@W2nx|=}E7ALY",
               "inline": false,
               "inputs": {
                "IN": {
                 "block": {
                  "type": "Sc_Demand",
                  "id": "5M,#K#@l[CEQb+A-fba9",
                  "inline": false,
                  "inputs": {
                   "TRIG": {
                    "block": {
                     "type": "Sc_SinOscFB",
                     "id": "e:[+LYLh`*YVMOGUTnDp",
                     "inline": true,
                     "inputs": {
                      "FREQ": {
                       "block": {
                        "type": "Sc_BinaryOp",
                        "id": "z%W4Li*~x){y!.*5*]fX",
                        "inline": true,
                        "fields": {
                         "OP": "/"
                        },
                        "inputs": {
                         "LHS": {
                          "block": {
                           "type": "math_number",
                           "id": "+T(-xclR;=T)fUlgHX{T",
                           "fields": {
                            "NUM": 1
                           }
                          }
                         },
                         "RHS": {
                          "block": {
                           "type": "math_number",
                           "id": "W,Hy/po^yPzpNb}8G+pD",
                           "fields": {
                            "NUM": 12
                           }
                          }
                         }
                        }
                       }
                      },
                      "FEEDBACK": {
                       "block": {
                        "type": "math_number",
                        "id": "-S58H0S,-zK~j,S~0I43",
                        "fields": {
                         "NUM": 0
                        }
                       }
                      },
                      "MUL": {
                       "shadow": {
                        "type": "math_number",
                        "id": "em6=0}Svkp}Fg%U3d.@8",
                        "fields": {
                         "NUM": 1
                        }
                       }
                      },
                      "ADD": {
                       "shadow": {
                        "type": "math_number",
                        "id": "Z;J@@~[]!XNr/L2-t7Il",
                        "fields": {
                         "NUM": 0
                        }
                       }
                      }
                     }
                    }
                   },
                   "RESET": {
                    "block": {
                     "type": "math_number",
                     "id": "N{#Q(%N.O5qeUU~f)[Dt",
                     "fields": {
                      "NUM": 0
                     }
                    }
                   },
                   "DEMANDUGENS": {
                    "block": {
                     "type": "Sc_BinaryOp",
                     "id": "%8S7$U/LFei0-Xa+(_~[",
                     "inline": false,
                     "fields": {
                      "OP": "*"
                     },
                     "inputs": {
                      "LHS": {
                       "block": {
                        "type": "Sc_Dseq",
                        "id": "x;PjMB_2s3NM0k$rowh-",
                        "inline": false,
                        "inputs": {
                         "REPEATS": {
                          "block": {
                           "type": "Sc_Constant",
                           "id": "?qR[G%W|}bI;6/FrC$yO",
                           "fields": {
                            "CONST": "Infinity"
                           }
                          }
                         },
                         "ARRAY": {
                          "block": {
                           "type": "Sc_BinaryOp",
                           "id": "))1M62t;tzT+(o4[!X-Y",
                           "inline": true,
                           "fields": {
                            "OP": "*"
                           },
                           "inputs": {
                            "LHS": {
                             "block": {
                              "type": "lists_create_with",
                              "id": "Fl0nu4na-#f=rpjHUJp~",
                              "inline": true,
                              "extraState": {
                               "itemCount": 6
                              },
                              "inputs": {
                               "ADD0": {
                                "block": {
                                 "type": "math_number",
                                 "id": "1)cE3)@!NRNKrzG[C@V]",
                                 "fields": {
                                  "NUM": 1
                                 }
                                }
                               },
                               "ADD1": {
                                "block": {
                                 "type": "math_number",
                                 "id": "/t0$gOR}Ah%Ie0@sHV76",
                                 "fields": {
                                  "NUM": 1
                                 }
                                }
                               },
                               "ADD2": {
                                "block": {
                                 "type": "math_number",
                                 "id": "k:}Tz80`hW2QZCw-gWe[",
                                 "fields": {
                                  "NUM": 2
                                 }
                                }
                               },
                               "ADD3": {
                                "block": {
                                 "type": "math_number",
                                 "id": "GNw0EaRBZ.q6+.y96WV{",
                                 "fields": {
                                  "NUM": 3
                                 }
                                }
                               },
                               "ADD4": {
                                "block": {
                                 "type": "math_number",
                                 "id": "1AQ0MfeAr(Xbuk=jck=n",
                                 "fields": {
                                  "NUM": 4
                                 }
                                }
                               },
                               "ADD5": {
                                "block": {
                                 "type": "math_number",
                                 "id": ":#gfYg,6|ji^6g/eci#0",
                                 "fields": {
                                  "NUM": 1
                                 }
                                }
                               }
                              }
                             }
                            },
                            "RHS": {
                             "block": {
                              "type": "Sc_BinaryOp",
                              "id": "nwUMOd}ge=Ul(E_(EFe!",
                              "inline": true,
                              "fields": {
                               "OP": "+"
                              },
                              "inputs": {
                               "LHS": {
                                "block": {
                                 "type": "Sc_BinaryOp",
                                 "id": "zV+HW,[khY~s/iO2y6?`",
                                 "inline": true,
                                 "fields": {
                                  "OP": "*"
                                 },
                                 "inputs": {
                                  "LHS": {
                                   "block": {
                                    "type": "Sc_BinaryOp",
                                    "id": "OASc3tzGB^;j|CxC7q47",
                                    "inline": true,
                                    "fields": {
                                     "OP": "<"
                                    },
                                    "inputs": {
                                     "LHS": {
                                      "block": {
                                       "type": "Sc_SinOscFB",
                                       "id": "FN/@.(:mKHc#S6B8z0%u",
                                       "inline": true,
                                       "inputs": {
                                        "FREQ": {
                                         "block": {
                                          "type": "Sc_BinaryOp",
                                          "id": "fY.wu)B8AK?a,lfi~/)C",
                                          "inline": true,
                                          "fields": {
                                           "OP": "/"
                                          },
                                          "inputs": {
                                           "LHS": {
                                            "block": {
                                             "type": "math_number",
                                             "id": "sqUL]hC1y%Rt`Yn4ft!G",
                                             "fields": {
                                              "NUM": 1
                                             }
                                            }
                                           },
                                           "RHS": {
                                            "block": {
                                             "type": "math_number",
                                             "id": "R}GRzLfgJ~^g#Xhad8K3",
                                             "fields": {
                                              "NUM": 96
                                             }
                                            }
                                           }
                                          }
                                         }
                                        },
                                        "FEEDBACK": {
                                         "block": {
                                          "type": "math_number",
                                          "id": "mRfL=jF=Cc-IpAqI+lDJ",
                                          "fields": {
                                           "NUM": 0
                                          }
                                         }
                                        },
                                        "MUL": {
                                         "shadow": {
                                          "type": "math_number",
                                          "id": "~fvsBUHPNNRULO)o3tk0",
                                          "fields": {
                                           "NUM": 1
                                          }
                                         }
                                        },
                                        "ADD": {
                                         "shadow": {
                                          "type": "math_number",
                                          "id": "=,zWy;G^Q)A;!,qw)Nxj",
                                          "fields": {
                                           "NUM": 0
                                          }
                                         }
                                        }
                                       }
                                      }
                                     },
                                     "RHS": {
                                      "block": {
                                       "type": "math_number",
                                       "id": "r$3Xyn$OnH4k2-By]ew9",
                                       "fields": {
                                        "NUM": 0.5
                                       }
                                      }
                                     }
                                    }
                                   }
                                  },
                                  "RHS": {
                                   "block": {
                                    "type": "math_number",
                                    "id": "p:?OPc8hV]!M8D(?Fu`Y",
                                    "fields": {
                                     "NUM": 19
                                    }
                                   }
                                  }
                                 }
                                }
                               },
                               "RHS": {
                                "block": {
                                 "type": "math_number",
                                 "id": "eE,q0fJIw|}3Ua:N@o`L",
                                 "fields": {
                                  "NUM": 99
                                 }
                                }
                               }
                              }
                             }
                            }
                           }
                          }
                         },
                         "MUL": {
                          "shadow": {
                           "type": "math_number",
                           "id": "%$j7u~(hbi6uhR0iR0P-",
                           "fields": {
                            "NUM": 1
                           }
                          }
                         },
                         "ADD": {
                          "shadow": {
                           "type": "math_number",
                           "id": "9;~x6rUAjl0N-;hAH^wa",
                           "fields": {
                            "NUM": 0
                           }
                          }
                         }
                        }
                       }
                      },
                      "RHS": {
                       "block": {
                        "type": "variables_get",
                        "id": "ex}@qE%Ew5|D=10J;:rK",
                        "fields": {
                         "VAR": {
                          "id": "#h9Pw|Yu!w]D_/=y[:PL"
                         }
                        }
                       }
                      }
                     }
                    }
                   },
                   "MUL": {
                    "shadow": {
                     "type": "math_number",
                     "id": "-L_d)m{.w-]$n_S-)t=d",
                     "fields": {
                      "NUM": 1
                     }
                    }
                   },
                   "ADD": {
                    "shadow": {
                     "type": "math_number",
                     "id": "0H:nMR*j|(^gn!cN[(Q2",
                     "fields": {
                      "NUM": 0
                     }
                    }
                   }
                  }
                 }
                },
                "LAGTIMEU": {
                 "block": {
                  "type": "math_number",
                  "id": "ZM@B3Ji/msES8.eP}*-x",
                  "fields": {
                   "NUM": 1
                  }
                 }
                },
                "LAGTIMED": {
                 "block": {
                  "type": "math_number",
                  "id": "PS~~SEUK#7rl*lz`KT-.",
                  "fields": {
                   "NUM": 3
                  }
                 }
                },
                "MUL": {
                 "shadow": {
                  "type": "math_number",
                  "id": "@hEvTy-h#@YReFV*`rXI",
                  "fields": {
                   "NUM": 1
                  }
                 }
                },
                "ADD": {
                 "shadow": {
                  "type": "math_number",
                  "id": "n=$KR2/Wx3ccg2Vj!O8A",
                  "fields": {
                   "NUM": 0
                  }
                 }
                }
               }
              }
             }
            },
            "next": {
             "block": {
              "type": "variables_set",
              "id": "!2clkqa~L=gJ)4o*~h9m",
              "fields": {
               "VAR": {
                "id": "_I~7;k21mg`w_Ttb;-t3"
               }
              },
              "inputs": {
               "VALUE": {
                "block": {
                 "type": "Sc_Splay",
                 "id": "AvB3#[]yjC#umL^AkegK",
                 "inline": true,
                 "inputs": {
                  "INARRAY": {
                   "shadow": {
                    "type": "math_number",
                    "id": "TR%6n}lUkE:EjhjD)7~r",
                    "fields": {
                     "NUM": 0
                    }
                   },
                   "block": {
                    "type": "Sc_SinOscFB",
                    "id": "2-~B|.r.r/:,W*9[$)aj",
                    "inline": true,
                    "inputs": {
                     "FREQ": {
                      "block": {
                       "type": "variables_get",
                       "id": "Y?{3BwG+iVc)@p}xJ_xG",
                       "fields": {
                        "VAR": {
                         "id": "gqq3$Ul9(ak2cK(*-2EN"
                        }
                       }
                      }
                     },
                     "FEEDBACK": {
                      "block": {
                       "type": "Sc_BinaryOp",
                       "id": "%d.9LAw#a7Wh0tEKbTS+",
                       "inline": true,
                       "fields": {
                        "OP": "/"
                       },
                       "inputs": {
                        "LHS": {
                         "block": {
                          "type": "Sc_SinOscFB",
                          "id": "O{xF:V$)2zZXQrs7|7)R",
                          "inline": true,
                          "inputs": {
                           "FREQ": {
                            "block": {
                             "type": "Sc_BinaryOp",
                             "id": "{.:Jo!G:erh7C?}CNXA,",
                             "inline": true,
                             "fields": {
                              "OP": "/"
                             },
                             "inputs": {
                              "LHS": {
                               "block": {
                                "type": "variables_get",
                                "id": "Bml@?r$}^{E(7/kF),G$",
                                "fields": {
                                 "VAR": {
                                  "id": "#h9Pw|Yu!w]D_/=y[:PL"
                                 }
                                }
                               }
                              },
                              "RHS": {
                               "block": {
                                "type": "math_number",
                                "id": "1/PK`tIjamqRgU/ON:bR",
                                "fields": {
                                 "NUM": 16
                                }
                               }
                              }
                             }
                            }
                           },
                           "FEEDBACK": {
                            "block": {
                             "type": "math_number",
                             "id": "/lb0p1Z,[eAl[]Hb`d@N",
                             "fields": {
                              "NUM": 0
                             }
                            }
                           },
                           "MUL": {
                            "shadow": {
                             "type": "math_number",
                             "id": "Sextbm_KaunqjB{zH]$V",
                             "fields": {
                              "NUM": 1
                             }
                            }
                           },
                           "ADD": {
                            "shadow": {
                             "type": "math_number",
                             "id": "s+R9@MXqlIII:DwDC{rD",
                             "fields": {
                              "NUM": 0
                             }
                            },
                            "block": {
                             "type": "math_number",
                             "id": ";NNW#jiGFgg=EWI9pZUA",
                             "fields": {
                              "NUM": 1
                             }
                            }
                           }
                          }
                         }
                        },
                        "RHS": {
                         "block": {
                          "type": "math_number",
                          "id": "ht9VWaFTfAil--W8~HuY",
                          "fields": {
                           "NUM": 3
                          }
                         }
                        }
                       }
                      }
                     },
                     "MUL": {
                      "shadow": {
                       "type": "math_number",
                       "id": "B$6}Z(_*~o]m,GkxxXjV",
                       "fields": {
                        "NUM": 1
                       }
                      }
                     },
                     "ADD": {
                      "shadow": {
                       "type": "math_number",
                       "id": "Dy(dXg^/[u$Hi|g(9FI(",
                       "fields": {
                        "NUM": 0
                       }
                      }
                     }
                    }
                   }
                  },
                  "MUL": {
                   "shadow": {
                    "type": "math_number",
                    "id": "GXw9V=|l]A*kn=yaKuU8",
                    "fields": {
                     "NUM": 1
                    }
                   }
                  },
                  "ADD": {
                   "shadow": {
                    "type": "math_number",
                    "id": "qsD67Bn#USdxjTx*W/98",
                    "fields": {
                     "NUM": 0
                    }
                   }
                  }
                 }
                }
               }
              },
              "next": {
               "block": {
                "type": "variables_set",
                "id": ".nbjHhNpbESSG*s8D6q[",
                "fields": {
                 "VAR": {
                  "id": "/iVfkXg]@s`[G:If^{.F"
                 }
                },
                "inputs": {
                 "VALUE": {
                  "block": {
                   "type": "Sc_BinaryOp",
                   "id": "fmM|fz#]+`D.6fC{yhUu",
                   "inline": true,
                   "fields": {
                    "OP": "/"
                   },
                   "inputs": {
                    "LHS": {
                     "block": {
                      "type": "Sc_HPF",
                      "id": "B+%[Bax:OZg*O`#UE(qG",
                      "inline": true,
                      "inputs": {
                       "IN": {
                        "block": {
                         "type": "Sc_BinaryOp",
                         "id": "jzd0B[q.DXF%@eK07}9E",
                         "inline": true,
                         "fields": {
                          "OP": ">"
                         },
                         "inputs": {
                          "LHS": {
                           "block": {
                            "type": "variables_get",
                            "id": "2tU;#Ya[9dnbn_yyEOk*",
                            "fields": {
                             "VAR": {
                              "id": "EQ$?aqu0ApeVt*^+*aNb"
                             }
                            }
                           }
                          },
                          "RHS": {
                           "block": {
                            "type": "math_number",
                            "id": "9(aouv8a#24@YPaO99FM",
                            "fields": {
                             "NUM": 0.1
                            }
                           }
                          }
                         }
                        }
                       },
                       "FREQ": {
                        "block": {
                         "type": "Sc_BinaryOp",
                         "id": "@HauT~i3/0yTX--7V)`z",
                         "inline": true,
                         "fields": {
                          "OP": "+"
                         },
                         "inputs": {
                          "LHS": {
                           "block": {
                            "type": "Sc_BinaryOp",
                            "id": "=uP`a8)PnQFV?P)1uUyJ",
                            "inline": true,
                            "fields": {
                             "OP": "^"
                            },
                            "inputs": {
                             "LHS": {
                              "block": {
                               "type": "math_number",
                               "id": "hV_Emj~vwS`dhFf1zpXa",
                               "fields": {
                                "NUM": 9
                               }
                              }
                             },
                             "RHS": {
                              "block": {
                               "type": "Sc_SinOscFB",
                               "id": "(cv!tC|2`A7zB/U{L*kR",
                               "inline": true,
                               "inputs": {
                                "FREQ": {
                                 "block": {
                                  "type": "Sc_BinaryOp",
                                  "id": "^ae+%h#;aFG*V6?YIpbJ",
                                  "inline": true,
                                  "fields": {
                                   "OP": "/"
                                  },
                                  "inputs": {
                                   "LHS": {
                                    "block": {
                                     "type": "math_number",
                                     "id": "hrO%?(LA8:9#p25{z.w]",
                                     "fields": {
                                      "NUM": 1
                                     }
                                    }
                                   },
                                   "RHS": {
                                    "block": {
                                     "type": "math_number",
                                     "id": "Fd;o$zEup}+AcR`i6B?-",
                                     "fields": {
                                      "NUM": 19
                                     }
                                    }
                                   }
                                  }
                                 }
                                },
                                "FEEDBACK": {
                                 "block": {
                                  "type": "math_number",
                                  "id": "~HI9}mb8Mg8UFYBvqK]$",
                                  "fields": {
                                   "NUM": 0
                                  }
                                 }
                                },
                                "MUL": {
                                 "shadow": {
                                  "type": "math_number",
                                  "id": "E*[Jw2|/[zW4mWsbZdVr",
                                  "fields": {
                                   "NUM": 1
                                  }
                                 }
                                },
                                "ADD": {
                                 "shadow": {
                                  "type": "math_number",
                                  "id": "nC_aOUWGkKJ26p_mskqf",
                                  "fields": {
                                   "NUM": 0
                                  }
                                 }
                                }
                               }
                              }
                             }
                            }
                           }
                          },
                          "RHS": {
                           "block": {
                            "type": "math_number",
                            "id": "r.AS~9L,veZiD5~0o-Wt",
                            "fields": {
                             "NUM": 3
                            }
                           }
                          }
                         }
                        }
                       },
                       "MUL": {
                        "shadow": {
                         "type": "math_number",
                         "id": "b=$BctzP,Pz;}]zdif4s",
                         "fields": {
                          "NUM": 1
                         }
                        },
                        "block": {
                         "type": "Sc_SinOscFB",
                         "id": "t(lXlS)]^6wiAti,$Itm",
                         "inline": true,
                         "inputs": {
                          "FREQ": {
                           "block": {
                            "type": "Sc_BinaryOp",
                            "id": "XdbI/Mq1n#t=p/N8}0;|",
                            "inline": true,
                            "fields": {
                             "OP": "*"
                            },
                            "inputs": {
                             "LHS": {
                              "block": {
                               "type": "lists_create_with",
                               "id": "]6gr!kuG~tZ;qmN`$#~b",
                               "inline": true,
                               "extraState": {
                                "itemCount": 2
                               },
                               "inputs": {
                                "ADD0": {
                                 "block": {
                                  "type": "math_number",
                                  "id": "+8!6+7Lg@lnGMv:e)m;j",
                                  "fields": {
                                   "NUM": 12
                                  }
                                 }
                                },
                                "ADD1": {
                                 "block": {
                                  "type": "math_number",
                                  "id": "gAd!q+zYUTV)bCYyMor9",
                                  "fields": {
                                   "NUM": 9
                                  }
                                 }
                                }
                               }
                              }
                             },
                             "RHS": {
                              "block": {
                               "type": "math_number",
                               "id": "z#csrPV*DPSC7cgZC{*q",
                               "fields": {
                                "NUM": 99
                               }
                              }
                             }
                            }
                           }
                          },
                          "FEEDBACK": {
                           "block": {
                            "type": "math_number",
                            "id": "c=3utT|FfC_Xu4:ZnZmk",
                            "fields": {
                             "NUM": 0
                            }
                           }
                          },
                          "MUL": {
                           "shadow": {
                            "type": "math_number",
                            "id": "D?/G[K(}#iMQTLqW|n!0",
                            "fields": {
                             "NUM": 1
                            }
                           }
                          },
                          "ADD": {
                           "shadow": {
                            "type": "math_number",
                            "id": "$V`mVsJ~SOfb^F0X.+:$",
                            "fields": {
                             "NUM": 0
                            }
                           }
                          }
                         }
                        }
                       },
                       "ADD": {
                        "shadow": {
                         "type": "math_number",
                         "id": "q^z=VD=D)%kouUS:5FuY",
                         "fields": {
                          "NUM": 0
                         }
                        }
                       }
                      }
                     }
                    },
                    "RHS": {
                     "block": {
                      "type": "math_number",
                      "id": "R[[?5KGYTPek;vr[xjM|",
                      "fields": {
                       "NUM": 6
                      }
                     }
                    }
                   }
                  }
                 }
                },
                "next": {
                 "block": {
                  "type": "Sc_Play",
                  "id": "qZ;?W%.E]]-cPnAsv/U;",
                  "inputs": {
                   "CODE": {
                    "block": {
                     "type": "Sc_BinaryOp",
                     "id": "WRgSX}zoYSoHFL1xc;UD",
                     "inline": true,
                     "fields": {
                      "OP": "*"
                     },
                     "inputs": {
                      "LHS": {
                       "block": {
                        "type": "Sc_UnaryOp",
                        "id": "0|$FKM;@Y~i}Nk|.[,}@",
                        "fields": {
                         "OP": "Tanh"
                        },
                        "inputs": {
                         "IN": {
                          "block": {
                           "type": "Sc_BinaryOp",
                           "id": ";siFl7,sUZ3Ki2^54bq1",
                           "inline": true,
                           "fields": {
                            "OP": "+"
                           },
                           "inputs": {
                            "LHS": {
                             "block": {
                              "type": "Sc_BinaryOp",
                              "id": "H^vog#G/y$KBH.ZI4txJ",
                              "inline": true,
                              "fields": {
                               "OP": "+"
                              },
                              "inputs": {
                               "LHS": {
                                "block": {
                                 "type": "lists_create_with",
                                 "id": "i+ja!{=.iKqzkpio?mVL",
                                 "inline": true,
                                 "extraState": {
                                  "itemCount": 2
                                 },
                                 "inputs": {
                                  "ADD0": {
                                   "block": {
                                    "type": "variables_get",
                                    "id": "{[Cu6rxbQM~|i,i0~=V*",
                                    "fields": {
                                     "VAR": {
                                      "id": "ThMOZGqpWSLd2]{-dzRO"
                                     }
                                    }
                                   }
                                  },
                                  "ADD1": {
                                   "block": {
                                    "type": "variables_get",
                                    "id": "P6Y/M[z)1M?N4?iwb(1I",
                                    "fields": {
                                     "VAR": {
                                      "id": "ThMOZGqpWSLd2]{-dzRO"
                                     }
                                    }
                                   }
                                  }
                                 }
                                }
                               },
                               "RHS": {
                                "block": {
                                 "type": "variables_get",
                                 "id": "A(6?}zpdLt}]D@gksfPg",
                                 "fields": {
                                  "VAR": {
                                   "id": "_I~7;k21mg`w_Ttb;-t3"
                                  }
                                 }
                                }
                               }
                              }
                             }
                            },
                            "RHS": {
                             "block": {
                              "type": "variables_get",
                              "id": "ybZWb}Rp:^v7H2kQd!|U",
                              "fields": {
                               "VAR": {
                                "id": "/iVfkXg]@s`[G:If^{.F"
                               }
                              }
                             }
                            }
                           }
                          }
                         }
                        }
                       }
                      },
                      "RHS": {
                       "block": {
                        "type": "math_number",
                        "id": "oq*)m;t%$ox^[q/Fb{$s",
                        "fields": {
                         "NUM": 0.1
                        }
                       }
                      }
                     }
                    }
                   }
                  }
                 }
                }
               }
              }
             }
            }
           }
          }
         }
        }
       }
      }
     }
    }
   }
  ]
 },
 "variables": [
  {
   "name": "b",
   "id": "#h9Pw|Yu!w]D_/=y[:PL"
  },
  {
   "name": "c",
   "id": "EQ$?aqu0ApeVt*^+*aNb"
  },
  {
   "name": "x",
   "id": "ThMOZGqpWSLd2]{-dzRO"
  },
  {
   "name": "f0",
   "id": "gqq3$Ul9(ak2cK(*-2EN"
  },
  {
   "name": "y",
   "id": "_I~7;k21mg`w_Ttb;-t3"
  },
  {
   "name": "z",
   "id": "/iVfkXg]@s`[G:If^{.F"
  }
 ]
}
