{
 "blocks": {
  "languageVersion": 0,
  "blocks": [
   {
    "type": "Sc_Comment",
    "id": "3kHJE#;cTkmvIEA+{:aJ",
    "x": 0,
    "y": 0,
    "fields": {
     "COMMENT": "https://twitter.com/redFrik/status/1452954849885163525 ; F0 ; reset (Rd)"
    },
    "next": {
     "block": {
      "type": "variables_set",
      "id": "E!8fiQ]8h1N0x7I9YSaV",
      "fields": {
       "VAR": {
        "id": "X0VO2k+Y.DXd8S}HM@i,"
       }
      },
      "inputs": {
       "VALUE": {
        "block": {
         "type": "Sc_Impulse",
         "id": "%?2{vefljeeMds5C[HRc",
         "inline": true,
         "inputs": {
          "FREQ": {
           "block": {
            "type": "Sc_BinaryOp",
            "id": "m5X*WbJlB]xci!c`{QR1",
            "inline": true,
            "fields": {
             "OP": "/"
            },
            "inputs": {
             "LHS": {
              "block": {
               "type": "math_number",
               "id": "lh`S;C6tSkTCrRrQ+XTG",
               "fields": {
                "NUM": 1
               }
              }
             },
             "RHS": {
              "block": {
               "type": "math_number",
               "id": "mV^)x/Sk{W~7Sq)#0U8g",
               "fields": {
                "NUM": 9
               }
              }
             }
            }
           }
          },
          "PHASE": {
           "block": {
            "type": "math_number",
            "id": "k@-znFGl^]IjW)Ry:e?y",
            "fields": {
             "NUM": 0
            }
           }
          },
          "MUL": {
           "shadow": {
            "type": "math_number",
            "id": "AJUm7N}:3Rd:!DP}(p4u",
            "fields": {
             "NUM": 1
            }
           }
          },
          "ADD": {
           "shadow": {
            "type": "math_number",
            "id": "nF1CxC{RV^qH9JNNI{hU",
            "fields": {
             "NUM": 0
            }
           }
          }
         }
        }
       }
      },
      "next": {
       "block": {
        "type": "variables_set",
        "id": "R@a/oHO;%KkQX(A9{=Re",
        "fields": {
         "VAR": {
          "id": "q5[G:zm3[6Hn]3qCK8`#"
         }
        },
        "inputs": {
         "VALUE": {
          "block": {
           "type": "Sc_TRand",
           "id": "d0CQ=UR8AkiRX~F=]B3i",
           "inline": true,
           "inputs": {
            "LO": {
             "block": {
              "type": "math_number",
              "id": "W(}P@Z3JRe5LcOTULbe6",
              "fields": {
               "NUM": 1
              }
             }
            },
            "HI": {
             "block": {
              "type": "math_number",
              "id": "auq]`8kpzzIw1y?q={EF",
              "fields": {
               "NUM": 64
              }
             }
            },
            "TRIG": {
             "block": {
              "type": "variables_get",
              "id": ".ZEm|$f]6_YrKNh=cAOW",
              "fields": {
               "VAR": {
                "id": "X0VO2k+Y.DXd8S}HM@i,"
               }
              }
             }
            },
            "MUL": {
             "shadow": {
              "type": "math_number",
              "id": "RwKeQOg^08J]T};WuQN@",
              "fields": {
               "NUM": 1
              }
             }
            },
            "ADD": {
             "shadow": {
              "type": "math_number",
              "id": "g[a%k0DqK%#)CXEMw.b[",
              "fields": {
               "NUM": 0
              }
             }
            }
           }
          }
         }
        },
        "next": {
         "block": {
          "type": "variables_set",
          "id": "M.X{jFP5_Lj?KN@xCw3v",
          "fields": {
           "VAR": {
            "id": "%~_nE1Om515?K]2,c$vs"
           }
          },
          "inputs": {
           "VALUE": {
            "block": {
             "type": "Sc_UnaryOp",
             "id": "]!.LcI9VU:R({M883DgB",
             "fields": {
              "OP": "Ceiling"
             },
             "inputs": {
              "IN": {
               "block": {
                "type": "Sc_SinOsc",
                "id": "aFgfD[Am^2q,{.d:Dsec",
                "inline": true,
                "inputs": {
                 "FREQ": {
                  "block": {
                   "type": "Sc_BinaryOp",
                   "id": "R^*VR8J0XSN_[}{kfs:*",
                   "inline": true,
                   "fields": {
                    "OP": "%"
                   },
                   "inputs": {
                    "LHS": {
                     "block": {
                      "type": "variables_get",
                      "id": "(71]K|WPcn4o:p8~R[4J",
                      "fields": {
                       "VAR": {
                        "id": "q5[G:zm3[6Hn]3qCK8`#"
                       }
                      }
                     }
                    },
                    "RHS": {
                     "block": {
                      "type": "math_number",
                      "id": "ALp0Pe-peG)#%^E$1TF^",
                      "fields": {
                       "NUM": 9.33
                      }
                     }
                    }
                   }
                  }
                 },
                 "PHASE": {
                  "block": {
                   "type": "math_number",
                   "id": "IYcCSIIU4qHNzR:S#qMD",
                   "fields": {
                    "NUM": 0
                   }
                  }
                 },
                 "MUL": {
                  "shadow": {
                   "type": "math_number",
                   "id": "Q-SW%*bkuZ;!J}83Pg3q",
                   "fields": {
                    "NUM": 1
                   }
                  },
                  "block": {
                   "type": "math_number",
                   "id": "72aup*WR4v%11p9yx0tr",
                   "fields": {
                    "NUM": 5
                   }
                  }
                 },
                 "ADD": {
                  "shadow": {
                   "type": "math_number",
                   "id": "^k=Tf+YES$Qe/Iu9tp5q",
                   "fields": {
                    "NUM": 0
                   }
                  },
                  "block": {
                   "type": "math_number",
                   "id": "kq.Km+!R6G|#]xl!X54o",
                   "fields": {
                    "NUM": 5
                   }
                  }
                 }
                }
               }
              }
             }
            }
           }
          },
          "next": {
           "block": {
            "type": "variables_set",
            "id": "`YnAB?b/LDwxSqEESy8v",
            "fields": {
             "VAR": {
              "id": "$Ve7-I`(oHPCl`S(w0,X"
             }
            },
            "inputs": {
             "VALUE": {
              "block": {
               "type": "Sc_SinOsc",
               "id": "lPcSpr20wXzDSw4%y0Kn",
               "inline": true,
               "inputs": {
                "FREQ": {
                 "block": {
                  "type": "Sc_BinaryOp",
                  "id": "Me(O!v(QB7;P7@=fObdr",
                  "inline": true,
                  "fields": {
                   "OP": "/"
                  },
                  "inputs": {
                   "LHS": {
                    "block": {
                     "type": "Sc_BinaryOp",
                     "id": "%DRf~:K:bW#G~7ioko~:",
                     "inline": true,
                     "fields": {
                      "OP": "*"
                     },
                     "inputs": {
                      "LHS": {
                       "block": {
                        "type": "Sc_BinaryOp",
                        "id": "0U^?|}V:KBQ|z-7h4aWH",
                        "inline": true,
                        "fields": {
                         "OP": "^"
                        },
                        "inputs": {
                         "LHS": {
                          "block": {
                           "type": "math_number",
                           "id": "Yt4(pA2rCQX$9uyeTA3#",
                           "fields": {
                            "NUM": 2
                           }
                          }
                         },
                         "RHS": {
                          "block": {
                           "type": "Sc_BinaryOp",
                           "id": "]c5o3LH0SkG;$0$$jy^d",
                           "inline": true,
                           "fields": {
                            "OP": "%"
                           },
                           "inputs": {
                            "LHS": {
                             "block": {
                              "type": "variables_get",
                              "id": "[C2UT`9DE+c#0j,pK$9/",
                              "fields": {
                               "VAR": {
                                "id": "q5[G:zm3[6Hn]3qCK8`#"
                               }
                              }
                             }
                            },
                            "RHS": {
                             "block": {
                              "type": "math_number",
                              "id": "5LQu6RJBbsD![8$R;{bv",
                              "fields": {
                               "NUM": 11
                              }
                             }
                            }
                           }
                          }
                         }
                        }
                       }
                      },
                      "RHS": {
                       "block": {
                        "type": "math_number",
                        "id": "?:6Gk*i!7#)+nzD]TBsZ",
                        "fields": {
                         "NUM": 150
                        }
                       }
                      }
                     }
                    }
                   },
                   "RHS": {
                    "block": {
                     "type": "variables_get",
                     "id": "6^N19j[S$E-1G#azbF2i",
                     "fields": {
                      "VAR": {
                       "id": "%~_nE1Om515?K]2,c$vs"
                      }
                     }
                    }
                   }
                  }
                 }
                },
                "PHASE": {
                 "block": {
                  "type": "math_number",
                  "id": "}NN~ZLe6?+=#dUg%,RS[",
                  "fields": {
                   "NUM": 0
                  }
                 }
                },
                "MUL": {
                 "shadow": {
                  "type": "math_number",
                  "id": "ea1W~J2Fn;gYawmqOocN",
                  "fields": {
                   "NUM": 1
                  }
                 }
                },
                "ADD": {
                 "shadow": {
                  "type": "math_number",
                  "id": "rN?:-kF,`l%^fs#:WV-#",
                  "fields": {
                   "NUM": 0
                  }
                 }
                }
               }
              }
             }
            },
            "next": {
             "block": {
              "type": "variables_set",
              "id": "IN;s(/~SJdE02+ulm}7#",
              "fields": {
               "VAR": {
                "id": ",o=z}^2Y1y34z;]hAJK,"
               }
              },
              "inputs": {
               "VALUE": {
                "block": {
                 "type": "Sc_BinaryOp",
                 "id": "F`D1y0yR^I7,8/@{{mKT",
                 "inline": true,
                 "fields": {
                  "OP": ">"
                 },
                 "inputs": {
                  "LHS": {
                   "block": {
                    "type": "Sc_UnaryOp",
                    "id": "2N^m.vSxxAq$l(Uz7bJC",
                    "fields": {
                     "OP": "Abs"
                    },
                    "inputs": {
                     "IN": {
                      "block": {
                       "type": "Sc_HPZ1",
                       "id": "Nt2C?3T$^.%#~A;{PG/_",
                       "inline": true,
                       "inputs": {
                        "IN": {
                         "block": {
                          "type": "variables_get",
                          "id": "`?8~wX2aXqD*X./g`we~",
                          "fields": {
                           "VAR": {
                            "id": "%~_nE1Om515?K]2,c$vs"
                           }
                          }
                         }
                        },
                        "MUL": {
                         "shadow": {
                          "type": "math_number",
                          "id": "c#;g5DDDLiCC~f*0)f/p",
                          "fields": {
                           "NUM": 1
                          }
                         }
                        },
                        "ADD": {
                         "shadow": {
                          "type": "math_number",
                          "id": "3KRn`lKiZ9{KAR^=TkGX",
                          "fields": {
                           "NUM": 0
                          }
                         }
                        }
                       }
                      }
                     }
                    }
                   }
                  },
                  "RHS": {
                   "block": {
                    "type": "math_number",
                    "id": "+AK(`;L8,;|/AkGb/+Gq",
                    "fields": {
                     "NUM": 0
                    }
                   }
                  }
                 }
                }
               }
              },
              "next": {
               "block": {
                "type": "variables_set",
                "id": "dhdAW[[?l`c@4*2whbhd",
                "fields": {
                 "VAR": {
                  "id": "4J|A;j?!5s7SanC,vLJ,"
                 }
                },
                "inputs": {
                 "VALUE": {
                  "block": {
                   "type": "Sc_LinExp",
                   "id": "p1lWK7Gv=%mzfQL3aY40",
                   "inline": false,
                   "inputs": {
                    "IN": {
                     "block": {
                      "type": "variables_get",
                      "id": "IgZ5UXxn~+q+s?H#HaB)",
                      "fields": {
                       "VAR": {
                        "id": "$Ve7-I`(oHPCl`S(w0,X"
                       }
                      }
                     }
                    },
                    "SRCLO": {
                     "block": {
                      "type": "math_number",
                      "id": "MOwV@)[Be?J/|,Nh+^y.",
                      "fields": {
                       "NUM": -1
                      }
                     }
                    },
                    "SRCHI": {
                     "block": {
                      "type": "math_number",
                      "id": "KDXM[J^2O:j6,w@:7$Na",
                      "fields": {
                       "NUM": 1
                      }
                     }
                    },
                    "DSTLO": {
                     "block": {
                      "type": "Sc_Latch",
                      "id": "c[|q=.WBt]%}qM,%oUV=",
                      "inline": true,
                      "inputs": {
                       "IN": {
                        "block": {
                         "type": "Sc_LinExp",
                         "id": "Un3e:Q[y3,U4PRV[w^-|",
                         "inline": true,
                         "inputs": {
                          "IN": {
                           "block": {
                            "type": "Sc_SinOsc",
                            "id": "@IZ`hrMB!l+_QK]=uF?n",
                            "inline": true,
                            "inputs": {
                             "FREQ": {
                              "block": {
                               "type": "Sc_BinaryOp",
                               "id": "zX}XDTGueM:H`Y=du6=a",
                               "inline": true,
                               "fields": {
                                "OP": "%"
                               },
                               "inputs": {
                                "LHS": {
                                 "block": {
                                  "type": "variables_get",
                                  "id": "oR]kQd!3{#By%kpn2D4Z",
                                  "fields": {
                                   "VAR": {
                                    "id": "q5[G:zm3[6Hn]3qCK8`#"
                                   }
                                  }
                                 }
                                },
                                "RHS": {
                                 "block": {
                                  "type": "math_number",
                                  "id": "T$8[*NT6:Je.vLLB-6!N",
                                  "fields": {
                                   "NUM": 4.4
                                  }
                                 }
                                }
                               }
                              }
                             },
                             "PHASE": {
                              "block": {
                               "type": "math_number",
                               "id": "Ly0Ebd6gFJR*hgWZ[q*9",
                               "fields": {
                                "NUM": 0
                               }
                              }
                             },
                             "MUL": {
                              "shadow": {
                               "type": "math_number",
                               "id": "em[1V{Bf0:5OT!qr-gU_",
                               "fields": {
                                "NUM": 1
                               }
                              }
                             },
                             "ADD": {
                              "shadow": {
                               "type": "math_number",
                               "id": "w0`,AXQ$dSVLVqu~/6l/",
                               "fields": {
                                "NUM": 0
                               }
                              }
                             }
                            }
                           }
                          },
                          "SRCLO": {
                           "block": {
                            "type": "math_number",
                            "id": "{qJVqQ_}?Q1x2*xtuXtG",
                            "fields": {
                             "NUM": -1
                            }
                           }
                          },
                          "SRCHI": {
                           "block": {
                            "type": "math_number",
                            "id": "6C#Yo_,vap9LB*2l@3O0",
                            "fields": {
                             "NUM": 1
                            }
                           }
                          },
                          "DSTLO": {
                           "block": {
                            "type": "math_number",
                            "id": "?V`($@ITN=cuf|b;5xSL",
                            "fields": {
                             "NUM": 9
                            }
                           }
                          },
                          "DSTHI": {
                           "block": {
                            "type": "math_number",
                            "id": "63vxZ8p0jSuGe:im6Ir7",
                            "fields": {
                             "NUM": 999
                            }
                           }
                          },
                          "MUL": {
                           "shadow": {
                            "type": "math_number",
                            "id": "ginh8p9J-Y-:OXS;Bau]",
                            "fields": {
                             "NUM": 1
                            }
                           }
                          },
                          "ADD": {
                           "shadow": {
                            "type": "math_number",
                            "id": "VFSKr6Dp)ZEdJ`K$R?+Y",
                            "fields": {
                             "NUM": 0
                            }
                           }
                          }
                         }
                        }
                       },
                       "TRIG": {
                        "block": {
                         "type": "variables_get",
                         "id": "PoH{F%e)@lA,OhG]QFU3",
                         "fields": {
                          "VAR": {
                           "id": ",o=z}^2Y1y34z;]hAJK,"
                          }
                         }
                        }
                       },
                       "MUL": {
                        "shadow": {
                         "type": "math_number",
                         "id": "~ClRMuf5.3+v]x$G*3AN",
                         "fields": {
                          "NUM": 1
                         }
                        }
                       },
                       "ADD": {
                        "shadow": {
                         "type": "math_number",
                         "id": "DJwBY]DsYH7Oa0.*gjBH",
                         "fields": {
                          "NUM": 0
                         }
                        }
                       }
                      }
                     }
                    },
                    "DSTHI": {
                     "block": {
                      "type": "Sc_Latch",
                      "id": "O{0yXOUyWPS2pzHmZPtn",
                      "inline": true,
                      "inputs": {
                       "IN": {
                        "block": {
                         "type": "Sc_LinExp",
                         "id": "F%nFKvr8=*TmOYg9LRe%",
                         "inline": true,
                         "inputs": {
                          "IN": {
                           "block": {
                            "type": "Sc_SinOsc",
                            "id": ",:uX|W-6fn5bo,vBbfH2",
                            "inline": true,
                            "inputs": {
                             "FREQ": {
                              "block": {
                               "type": "Sc_BinaryOp",
                               "id": "Lxu`R5?kn]7(db,WuThe",
                               "inline": true,
                               "fields": {
                                "OP": "%"
                               },
                               "inputs": {
                                "LHS": {
                                 "block": {
                                  "type": "variables_get",
                                  "id": "c9SiN5O#^@F}p)y3=bAE",
                                  "fields": {
                                   "VAR": {
                                    "id": "q5[G:zm3[6Hn]3qCK8`#"
                                   }
                                  }
                                 }
                                },
                                "RHS": {
                                 "block": {
                                  "type": "Sc_Constant",
                                  "id": "}V9@}Dn~xVvLdC]v|Qa-",
                                  "fields": {
                                   "CONST": "pi"
                                  }
                                 }
                                }
                               }
                              }
                             },
                             "PHASE": {
                              "block": {
                               "type": "math_number",
                               "id": "%fY!#CRiYMvXgGFGuEp7",
                               "fields": {
                                "NUM": 0
                               }
                              }
                             },
                             "MUL": {
                              "shadow": {
                               "type": "math_number",
                               "id": "TCvS+Jbs!9h@1zt+2*y(",
                               "fields": {
                                "NUM": 1
                               }
                              }
                             },
                             "ADD": {
                              "shadow": {
                               "type": "math_number",
                               "id": "IsE0T#(xXW7A`:pA9NVG",
                               "fields": {
                                "NUM": 0
                               }
                              }
                             }
                            }
                           }
                          },
                          "SRCLO": {
                           "block": {
                            "type": "math_number",
                            "id": "hHAs{w]SN_wvS2JDDP#+",
                            "fields": {
                             "NUM": -1
                            }
                           }
                          },
                          "SRCHI": {
                           "block": {
                            "type": "math_number",
                            "id": "x;zhi9)g+qDFW5c$am2%",
                            "fields": {
                             "NUM": 1
                            }
                           }
                          },
                          "DSTLO": {
                           "block": {
                            "type": "math_number",
                            "id": "[O.xHjbcO~VQ8jGJE[|Z",
                            "fields": {
                             "NUM": 99
                            }
                           }
                          },
                          "DSTHI": {
                           "block": {
                            "type": "math_number",
                            "id": "=Umz;#$_cm=S?=w,^rQ^",
                            "fields": {
                             "NUM": 9000
                            }
                           }
                          },
                          "MUL": {
                           "shadow": {
                            "type": "math_number",
                            "id": "4xU]T[rg%t^kJ9cn|kL[",
                            "fields": {
                             "NUM": 1
                            }
                           }
                          },
                          "ADD": {
                           "shadow": {
                            "type": "math_number",
                            "id": "@I2BmLLa$:(|HM0Ap^nd",
                            "fields": {
                             "NUM": 0
                            }
                           }
                          }
                         }
                        }
                       },
                       "TRIG": {
                        "block": {
                         "type": "variables_get",
                         "id": "814Rk~fRne=CviEp|d]!",
                         "fields": {
                          "VAR": {
                           "id": ",o=z}^2Y1y34z;]hAJK,"
                          }
                         }
                        }
                       },
                       "MUL": {
                        "shadow": {
                         "type": "math_number",
                         "id": "|x,9`tSFspOIdT*Lr=88",
                         "fields": {
                          "NUM": 1
                         }
                        }
                       },
                       "ADD": {
                        "shadow": {
                         "type": "math_number",
                         "id": "Z|rDY1:u267#f?Sff:4W",
                         "fields": {
                          "NUM": 0
                         }
                        }
                       }
                      }
                     }
                    },
                    "MUL": {
                     "shadow": {
                      "type": "math_number",
                      "id": "[lXJb(91vy}-(mScTrQw",
                      "fields": {
                       "NUM": 1
                      }
                     }
                    },
                    "ADD": {
                     "shadow": {
                      "type": "math_number",
                      "id": "1.gR`EqW+3I^$O[TlV#c",
                      "fields": {
                       "NUM": 0
                      }
                     }
                    }
                   }
                  }
                 }
                },
                "next": {
                 "block": {
                  "type": "Sc_Play",
                  "id": ";Cjo#{FG:V={xk)3sLm8",
                  "inputs": {
                   "CODE": {
                    "block": {
                     "type": "Sc_EqPan2",
                     "id": ".aHy@.o8SFtc0zC$_@KO",
                     "inline": false,
                     "inputs": {
                      "IN": {
                       "block": {
                        "type": "Sc_Blip",
                        "id": "jLn+J]4Oe[|V}M2*-~^|",
                        "inline": true,
                        "inputs": {
                         "FREQ": {
                          "block": {
                           "type": "variables_get",
                           "id": "_nZ16yim5dy|[C[xM@2X",
                           "fields": {
                            "VAR": {
                             "id": "4J|A;j?!5s7SanC,vLJ,"
                            }
                           }
                          }
                         },
                         "NUMHARM": {
                          "block": {
                           "type": "Sc_BinaryOp",
                           "id": "*YS4LmWVyGu=JCj[a84B",
                           "inline": true,
                           "fields": {
                            "OP": "+"
                           },
                           "inputs": {
                            "LHS": {
                             "block": {
                              "type": "variables_get",
                              "id": "%mdE]6~O.kL^h:%P.D3Y",
                              "fields": {
                               "VAR": {
                                "id": "$Ve7-I`(oHPCl`S(w0,X"
                               }
                              }
                             }
                            },
                            "RHS": {
                             "block": {
                              "type": "math_number",
                              "id": "_RtQZidUySMIi3/#I;_q",
                              "fields": {
                               "NUM": 2
                              }
                             }
                            }
                           }
                          }
                         },
                         "MUL": {
                          "shadow": {
                           "type": "math_number",
                           "id": "0uO{AesX{*nm|%qd`yot",
                           "fields": {
                            "NUM": 1
                           }
                          },
                          "block": {
                           "type": "Sc_BinaryOp",
                           "id": "8/dBQ,[J}.o|*YPGQchH",
                           "inline": true,
                           "fields": {
                            "OP": "-"
                           },
                           "inputs": {
                            "LHS": {
                             "block": {
                              "type": "math_number",
                              "id": "Vwo=1O{*J/J`0=kf8%Hd",
                              "fields": {
                               "NUM": 1
                              }
                             }
                            },
                            "RHS": {
                             "block": {
                              "type": "variables_get",
                              "id": "1t_:rW!9S7DSw,5=hnjo",
                              "fields": {
                               "VAR": {
                                "id": "$Ve7-I`(oHPCl`S(w0,X"
                               }
                              }
                             }
                            }
                           }
                          }
                         },
                         "ADD": {
                          "shadow": {
                           "type": "math_number",
                           "id": "E=HlP0v)YX*)zxS?uz`w",
                           "fields": {
                            "NUM": 0
                           }
                          }
                         }
                        }
                       }
                      },
                      "POS": {
                       "block": {
                        "type": "Sc_SinOsc",
                        "id": "bGXLX3wU4#?xD-NfjBy,",
                        "inline": true,
                        "inputs": {
                         "FREQ": {
                          "block": {
                           "type": "math_number",
                           "id": "H]Ra9rmrtXP1w0G/Rv2Z",
                           "fields": {
                            "NUM": 0.1
                           }
                          }
                         },
                         "PHASE": {
                          "block": {
                           "type": "variables_get",
                           "id": "3Y28^[qk9yUJ7Ei8)BjY",
                           "fields": {
                            "VAR": {
                             "id": "q5[G:zm3[6Hn]3qCK8`#"
                            }
                           }
                          }
                         },
                         "MUL": {
                          "shadow": {
                           "type": "math_number",
                           "id": "(HC$)k^iU=p:Nu:ow.}X",
                           "fields": {
                            "NUM": 1
                           }
                          }
                         },
                         "ADD": {
                          "shadow": {
                           "type": "math_number",
                           "id": "a6CQ=F.3=k~*R!L*3k4.",
                           "fields": {
                            "NUM": 0
                           }
                          }
                         }
                        }
                       }
                      },
                      "MUL": {
                       "block": {
                        "type": "Sc_BinaryOp",
                        "id": "gV9~l8hEur|Y.nws_?tl",
                        "inline": true,
                        "fields": {
                         "OP": "^"
                        },
                        "inputs": {
                         "LHS": {
                          "block": {
                           "type": "Sc_BinaryOp",
                           "id": "O_{DKB`NPSYRF9[22?5s",
                           "inline": true,
                           "fields": {
                            "OP": "Min"
                           },
                           "inputs": {
                            "LHS": {
                             "block": {
                              "type": "Sc_TLine",
                              "id": "-]z4)f`xTEZe[`x.J_,Y",
                              "inline": true,
                              "inputs": {
                               "START": {
                                "block": {
                                 "type": "math_number",
                                 "id": "q2h|J3E*p5chHPA/@q5O",
                                 "fields": {
                                  "NUM": 0.2
                                 }
                                }
                               },
                               "END": {
                                "block": {
                                 "type": "math_number",
                                 "id": "fvsLNPA(:aqI$w}_w1C)",
                                 "fields": {
                                  "NUM": 0
                                 }
                                }
                               },
                               "DUR": {
                                "block": {
                                 "type": "math_number",
                                 "id": "F^y$c2g?L,s}5mW(eJ?z",
                                 "fields": {
                                  "NUM": 9
                                 }
                                }
                               },
                               "TRIG": {
                                "block": {
                                 "type": "variables_get",
                                 "id": "G`qOGg=z70HK8v%sMU:q",
                                 "fields": {
                                  "VAR": {
                                   "id": "X0VO2k+Y.DXd8S}HM@i,"
                                  }
                                 }
                                }
                               },
                               "MUL": {
                                "shadow": {
                                 "type": "math_number",
                                 "id": "r,_9.iQV$(@Uk$SlL{Vv",
                                 "fields": {
                                  "NUM": 1
                                 }
                                }
                               },
                               "ADD": {
                                "shadow": {
                                 "type": "math_number",
                                 "id": "a41%`gdS1U;f.X7FjUaz",
                                 "fields": {
                                  "NUM": 0
                                 }
                                }
                               }
                              }
                             }
                            },
                            "RHS": {
                             "block": {
                              "type": "math_number",
                              "id": "Z0aCjUpX4Y|G5T{rHJ@-",
                              "fields": {
                               "NUM": 0.6
                              }
                             }
                            }
                           }
                          }
                         },
                         "RHS": {
                          "block": {
                           "type": "math_number",
                           "id": "B#Qq`~KcgBaldo|JJS]0",
                           "fields": {
                            "NUM": 2
                           }
                          }
                         }
                        }
                       }
                      },
                      "ADD": {
                       "shadow": {
                        "type": "math_number",
                        "id": "/,fpr1u9UG8d2~/Q|?/X",
                        "fields": {
                         "NUM": 0
                        }
                       }
                      }
                     }
                    }
                   }
                  }
                 }
                }
               }
              }
             }
            }
           }
          }
         }
        }
       }
      }
     }
    }
   }
  ]
 },
 "variables": [
  {
   "name": "r",
   "id": "X0VO2k+Y.DXd8S}HM@i,"
  },
  {
   "name": "i",
   "id": "q5[G:zm3[6Hn]3qCK8`#"
  },
  {
   "name": "x",
   "id": "%~_nE1Om515?K]2,c$vs"
  },
  {
   "name": "t",
   "id": "$Ve7-I`(oHPCl`S(w0,X"
  },
  {
   "name": "y",
   "id": ",o=z}^2Y1y34z;]hAJK,"
  },
  {
   "name": "f",
   "id": "4J|A;j?!5s7SanC,vLJ,"
  }
 ]
}
