{
 "blocks": {
  "languageVersion": 0,
  "blocks": [
   {
    "type": "Sc_Comment",
    "id": "-b!$,}KNFAx|@u7dwxb%",
    "x": 0,
    "y": 0,
    "fields": {
     "COMMENT": "https://twitter.com/redFrik/status/1519791409921941507 ; F0"
    },
    "next": {
     "block": {
      "type": "variables_set",
      "id": "c}jtqvxW5IhVq^Wi;/X}",
      "fields": {
       "VAR": {
        "id": ".HV,w1*SfsDTj`yP)kNh"
       }
      },
      "inputs": {
       "VALUE": {
        "block": {
         "type": "Sc_Proc1",
         "id": "WOrvCQfS?WKcP`[^^{:V",
         "inline": true,
         "inputs": {
          "VAR": {
           "block": {
            "type": "variables_get",
            "id": "eP}83`%EhGQal?i%S0Q!",
            "fields": {
             "VAR": {
              "id": "}!~g^G|D)6?Nz(=tdgC8"
             }
            }
           }
          },
          "RETURN": {
           "block": {
            "type": "Sc_SinOsc",
            "id": "7nXNCMN2h{UW*Ala3`c6",
            "inline": true,
            "inputs": {
             "FREQ": {
              "block": {
               "type": "variables_get",
               "id": "^!Q{41E,{=b}dh`yQT1g",
               "fields": {
                "VAR": {
                 "id": "}!~g^G|D)6?Nz(=tdgC8"
                }
               }
              }
             },
             "PHASE": {
              "block": {
               "type": "lists_create_with",
               "id": "[*0`G={w5u^JaM$M@}S|",
               "inline": true,
               "extraState": {
                "itemCount": 2
               },
               "inputs": {
                "ADD0": {
                 "block": {
                  "type": "math_number",
                  "id": "dPS*rZ^/zMxHs2rM!yM^",
                  "fields": {
                   "NUM": 0
                  }
                 }
                },
                "ADD1": {
                 "block": {
                  "type": "math_number",
                  "id": "d$pPD!A7Rpi;%-N3fuq1",
                  "fields": {
                   "NUM": 5
                  }
                 }
                }
               }
              }
             },
             "MUL": {
              "shadow": {
               "type": "math_number",
               "id": "nN+_@QMCbtv%8h};~^_/",
               "fields": {
                "NUM": 1
               }
              }
             },
             "ADD": {
              "shadow": {
               "type": "math_number",
               "id": "}v9A?NY}F:_L`v{`0fb}",
               "fields": {
                "NUM": 0
               }
              }
             }
            }
           }
          }
         }
        }
       }
      },
      "next": {
       "block": {
        "type": "variables_set",
        "id": "aWoaL7[o{ERdFV?$35H*",
        "fields": {
         "VAR": {
          "id": "$.oYW#fsX~9SOA$q(Es/"
         }
        },
        "inputs": {
         "VALUE": {
          "block": {
           "type": "Sc_Value1",
           "id": "##t|cZUfy0fnLz%#)zjW",
           "inline": true,
           "inputs": {
            "PROC": {
             "block": {
              "type": "variables_get",
              "id": "~`S#I9TBH!Q:P*hj`=XN",
              "fields": {
               "VAR": {
                "id": ".HV,w1*SfsDTj`yP)kNh"
               }
              }
             }
            },
            "VALUE": {
             "block": {
              "type": "math_number",
              "id": "e%fu.j+_.7hvET1qk+e]",
              "fields": {
               "NUM": 5
              }
             }
            }
           }
          }
         }
        },
        "next": {
         "block": {
          "type": "variables_set",
          "id": "/{lS/f/?oMP(bp!?%wP/",
          "fields": {
           "VAR": {
            "id": "/l8cqTE/yNfi^:P-oulc"
           }
          },
          "inputs": {
           "VALUE": {
            "block": {
             "type": "Sc_BinaryOp",
             "id": "%P,hGp1pw0!9rj6z%@x0",
             "inline": true,
             "fields": {
              "OP": "*"
             },
             "inputs": {
              "LHS": {
               "block": {
                "type": "Sc_BinaryOp",
                "id": "UZrexloMh6!Q!wT[@ew`",
                "inline": true,
                "fields": {
                 "OP": "*"
                },
                "inputs": {
                 "LHS": {
                  "block": {
                   "type": "Sc_BinaryOp",
                   "id": "7$zMqZ6QdWsj[I6SK]qE",
                   "inline": true,
                   "fields": {
                    "OP": "+"
                   },
                   "inputs": {
                    "LHS": {
                     "block": {
                      "type": "Sc_BinaryOp",
                      "id": "@5UED6gRA~ULdD};-b7g",
                      "inline": true,
                      "fields": {
                       "OP": "/"
                      },
                      "inputs": {
                       "LHS": {
                        "block": {
                         "type": "Sc_Value1",
                         "id": "unf]j;Aquk((Nh_Tp@5;",
                         "inline": true,
                         "inputs": {
                          "PROC": {
                           "block": {
                            "type": "variables_get",
                            "id": "k7nafnq~=P`NMOdvIoRQ",
                            "fields": {
                             "VAR": {
                              "id": ".HV,w1*SfsDTj`yP)kNh"
                             }
                            }
                           }
                          },
                          "VALUE": {
                           "block": {
                            "type": "math_number",
                            "id": ".[N;%AoU%99!7O-v!md{",
                            "fields": {
                             "NUM": 0.1
                            }
                           }
                          }
                         }
                        }
                       },
                       "RHS": {
                        "block": {
                         "type": "math_number",
                         "id": "x-w4lKO:(.L}Zt#.Agtb",
                         "fields": {
                          "NUM": 8
                         }
                        }
                       }
                      }
                     }
                    },
                    "RHS": {
                     "block": {
                      "type": "math_number",
                      "id": "e=];z:j`qKxOaCDCKIV9",
                      "fields": {
                       "NUM": 0.5
                      }
                     }
                    }
                   }
                  }
                 },
                 "RHS": {
                  "block": {
                   "type": "Sc_Value1",
                   "id": "qUG84;s!XzvKyulGmt:%",
                   "inline": true,
                   "inputs": {
                    "PROC": {
                     "block": {
                      "type": "variables_get",
                      "id": "aX7(-JnSQ!g=OkVf~=1m",
                      "fields": {
                       "VAR": {
                        "id": ".HV,w1*SfsDTj`yP)kNh"
                       }
                      }
                     }
                    },
                    "VALUE": {
                     "block": {
                      "type": "math_number",
                      "id": "Cd9IW1);G=GsdH2u$u$#",
                      "fields": {
                       "NUM": 252
                      }
                     }
                    }
                   }
                  }
                 }
                }
               }
              },
              "RHS": {
               "block": {
                "type": "variables_get",
                "id": "!%^@-so@pUrJ[t~DF!Xz",
                "fields": {
                 "VAR": {
                  "id": "$.oYW#fsX~9SOA$q(Es/"
                 }
                }
               }
              }
             }
            }
           }
          },
          "next": {
           "block": {
            "type": "variables_set",
            "id": "#OU=}dFZr7.8e{W|ZZnG",
            "fields": {
             "VAR": {
              "id": "6+OYK=L6#1VK;,~o`BLt"
             }
            },
            "inputs": {
             "VALUE": {
              "block": {
               "type": "Sc_BinaryOp",
               "id": "!1h@/V;!:R;r:vPwFhR2",
               "inline": false,
               "fields": {
                "OP": "*"
               },
               "inputs": {
                "LHS": {
                 "block": {
                  "type": "Sc_BinaryOp",
                  "id": "8~nvL9lA)-0vNTYk14)k",
                  "inline": false,
                  "fields": {
                   "OP": "*"
                  },
                  "inputs": {
                   "LHS": {
                    "block": {
                     "type": "Sc_BinaryOp",
                     "id": "9egwpZNHK60!qe4DJRKD",
                     "inline": false,
                     "fields": {
                      "OP": "^"
                     },
                     "inputs": {
                      "LHS": {
                       "block": {
                        "type": "Sc_BinaryOp",
                        "id": "hLE(0{-xbOoP(e`vMoZ8",
                        "inline": true,
                        "fields": {
                         "OP": "/"
                        },
                        "inputs": {
                         "LHS": {
                          "block": {
                           "type": "Sc_UnaryOp",
                           "id": "KRjB!.y5g}zynqD^bEmF",
                           "fields": {
                            "OP": "rounded"
                           },
                           "inputs": {
                            "IN": {
                             "block": {
                              "type": "Sc_BinaryOp",
                              "id": "84`)L)6c@scHRdt,dh`]",
                              "inline": true,
                              "fields": {
                               "OP": "+"
                              },
                              "inputs": {
                               "LHS": {
                                "block": {
                                 "type": "Sc_BinaryOp",
                                 "id": "eFNxIf?0@f:kw@9=X,NA",
                                 "inline": true,
                                 "fields": {
                                  "OP": "/"
                                 },
                                 "inputs": {
                                  "LHS": {
                                   "block": {
                                    "type": "variables_get",
                                    "id": "DmcE{=4NpLPJg,3_zGt~",
                                    "fields": {
                                     "VAR": {
                                      "id": "$.oYW#fsX~9SOA$q(Es/"
                                     }
                                    }
                                   }
                                  },
                                  "RHS": {
                                   "block": {
                                    "type": "math_number",
                                    "id": "y??f4pf`#b:*|:;l.eh;",
                                    "fields": {
                                     "NUM": 2
                                    }
                                   }
                                  }
                                 }
                                }
                               },
                               "RHS": {
                                "block": {
                                 "type": "math_number",
                                 "id": "w2vp9|@+E$X3$5c/7:0J",
                                 "fields": {
                                  "NUM": 1
                                 }
                                }
                               }
                              }
                             }
                            }
                           }
                          }
                         },
                         "RHS": {
                          "block": {
                           "type": "math_number",
                           "id": "G=@^GK`T(KlQpR[i+[Gc",
                           "fields": {
                            "NUM": 9
                           }
                          }
                         }
                        }
                       }
                      },
                      "RHS": {
                       "block": {
                        "type": "Sc_UnaryOp",
                        "id": "Hd`kD7`Qo6x`AOPEDcM)",
                        "fields": {
                         "OP": "rounded"
                        },
                        "inputs": {
                         "IN": {
                          "block": {
                           "type": "Sc_MulAdd",
                           "id": "g+ZSd}AZk!^`rH~}y|g*",
                           "inline": true,
                           "inputs": {
                            "IN": {
                             "shadow": {
                              "type": "math_number",
                              "id": "mr~T2nq,#Re}YoO//PL1",
                              "fields": {
                               "NUM": 0
                              }
                             },
                             "block": {
                              "type": "Sc_Value1",
                              "id": "5wt8|7MX6Astn/64dLf:",
                              "inline": true,
                              "inputs": {
                               "PROC": {
                                "block": {
                                 "type": "variables_get",
                                 "id": "%mBP/{gm(nKnzbksOXq8",
                                 "fields": {
                                  "VAR": {
                                   "id": ".HV,w1*SfsDTj`yP)kNh"
                                  }
                                 }
                                }
                               },
                               "VALUE": {
                                "block": {
                                 "type": "math_number",
                                 "id": "c+Dzb4e%tuk%.~W=*}x4",
                                 "fields": {
                                  "NUM": 1
                                 }
                                }
                               }
                              }
                             }
                            },
                            "MUL": {
                             "shadow": {
                              "type": "math_number",
                              "id": ":pKhPdIK$zRk}|6)w_sa",
                              "fields": {
                               "NUM": 0
                              }
                             },
                             "block": {
                              "type": "Sc_Value1",
                              "id": "cljkF0hCD7lxgE`a,ubi",
                              "inline": true,
                              "inputs": {
                               "PROC": {
                                "block": {
                                 "type": "variables_get",
                                 "id": "BE/6323^#q0k,wpBnR],",
                                 "fields": {
                                  "VAR": {
                                   "id": ".HV,w1*SfsDTj`yP)kNh"
                                  }
                                 }
                                }
                               },
                               "VALUE": {
                                "block": {
                                 "type": "math_number",
                                 "id": "vRI5mSzbXp.sIPEpVy?2",
                                 "fields": {
                                  "NUM": 0.005
                                 }
                                }
                               }
                              }
                             }
                            },
                            "ADD": {
                             "shadow": {
                              "type": "math_number",
                              "id": "Ff.zs8Dh3Va,sYIMD8G$",
                              "fields": {
                               "NUM": 0
                              }
                             },
                             "block": {
                              "type": "math_number",
                              "id": "Nx(c3OAC4,i!$-%kbv$J",
                              "fields": {
                               "NUM": 1.02
                              }
                             }
                            }
                           }
                          }
                         }
                        }
                       }
                      }
                     }
                    }
                   },
                   "RHS": {
                    "block": {
                     "type": "math_number",
                     "id": "%#N=tdJ]A^#U_3{6HCcM",
                     "fields": {
                      "NUM": 30
                     }
                    }
                   }
                  }
                 }
                },
                "RHS": {
                 "block": {
                  "type": "Sc_MulAdd",
                  "id": "hcRqMIQ}]@T,cx+[RPs(",
                  "inline": true,
                  "inputs": {
                   "IN": {
                    "shadow": {
                     "type": "math_number",
                     "id": "R:3l0][srh#~2Dj9AeNr",
                     "fields": {
                      "NUM": 0
                     }
                    },
                    "block": {
                     "type": "variables_get",
                     "id": "7kQr..:C|+=NZA|@UNkh",
                     "fields": {
                      "VAR": {
                       "id": "$.oYW#fsX~9SOA$q(Es/"
                      }
                     }
                    }
                   },
                   "MUL": {
                    "shadow": {
                     "type": "math_number",
                     "id": "t^hkus^(Cl-VwUqHsg|{",
                     "fields": {
                      "NUM": 0
                     }
                    },
                    "block": {
                     "type": "math_number",
                     "id": "cgo75mX]2:V6q_nlXJ54",
                     "fields": {
                      "NUM": 3
                     }
                    }
                   },
                   "ADD": {
                    "shadow": {
                     "type": "math_number",
                     "id": "[PFOlYGn,y?a(Eq;Av34",
                     "fields": {
                      "NUM": 0
                     }
                    },
                    "block": {
                     "type": "math_number",
                     "id": "E|`ra^8|R}TCLdQ]F+%J",
                     "fields": {
                      "NUM": 40
                     }
                    }
                   }
                  }
                 }
                }
               }
              }
             }
            },
            "next": {
             "block": {
              "type": "variables_set",
              "id": "sBn_Tx20v//B.n^}C@z/",
              "fields": {
               "VAR": {
                "id": ".rB,N/EFbvhcg7Pm!8bS"
               }
              },
              "inputs": {
               "VALUE": {
                "block": {
                 "type": "Sc_BLowPass",
                 "id": "+)TX[CZAcYuw+.Ybr[M)",
                 "inline": true,
                 "inputs": {
                  "IN": {
                   "block": {
                    "type": "variables_get",
                    "id": "z{uA8S$s8h9)FGFGH5Ha",
                    "fields": {
                     "VAR": {
                      "id": "/l8cqTE/yNfi^:P-oulc"
                     }
                    }
                   }
                  },
                  "FREQ": {
                   "block": {
                    "type": "variables_get",
                    "id": "Tn%k7K[^I/Uxi$osNf)E",
                    "fields": {
                     "VAR": {
                      "id": "6+OYK=L6#1VK;,~o`BLt"
                     }
                    }
                   }
                  },
                  "RQ": {
                   "block": {
                    "type": "math_number",
                    "id": "9RgRXXfPz]Lb$ff643w1",
                    "fields": {
                     "NUM": 0.05
                    }
                   }
                  },
                  "MUL": {
                   "shadow": {
                    "type": "math_number",
                    "id": "y%4(1R+DL?l4%Ao`!|61",
                    "fields": {
                     "NUM": 1
                    }
                   }
                  },
                  "ADD": {
                   "shadow": {
                    "type": "math_number",
                    "id": "J]IB?pt!6O+AL0HN^b/9",
                    "fields": {
                     "NUM": 0
                    }
                   }
                  }
                 }
                }
               }
              },
              "next": {
               "block": {
                "type": "variables_set",
                "id": "{[nqV(y2;/nK(J}l.XVr",
                "fields": {
                 "VAR": {
                  "id": "hpu(Mm*`irg9nA2z`E:R"
                 }
                },
                "inputs": {
                 "VALUE": {
                  "block": {
                   "type": "Sc_BinaryOp",
                   "id": ".}sW#(01?;u!B_n=.W+g",
                   "inline": false,
                   "fields": {
                    "OP": "/"
                   },
                   "inputs": {
                    "LHS": {
                     "block": {
                      "type": "Sc_BinaryOp",
                      "id": "PJ!O$a?-$NX[Moq{G,l2",
                      "inline": false,
                      "fields": {
                       "OP": "*"
                      },
                      "inputs": {
                       "LHS": {
                        "block": {
                         "type": "Sc_BinaryOp",
                         "id": "IB-9URXha^)}q`|k:r39",
                         "inline": false,
                         "fields": {
                          "OP": "*"
                         },
                         "inputs": {
                          "LHS": {
                           "block": {
                            "type": "Sc_Value1",
                            "id": "Y+.MI*X?Tm;u=M`oV{lS",
                            "inline": true,
                            "inputs": {
                             "PROC": {
                              "block": {
                               "type": "variables_get",
                               "id": "!F0VV5|xX8Gf3+o|.^gJ",
                               "fields": {
                                "VAR": {
                                 "id": ".HV,w1*SfsDTj`yP)kNh"
                                }
                               }
                              }
                             },
                             "VALUE": {
                              "block": {
                               "type": "Sc_BinaryOp",
                               "id": "+BPn7dxp6wwNtkRWRca{",
                               "inline": true,
                               "fields": {
                                "OP": "*"
                               },
                               "inputs": {
                                "LHS": {
                                 "block": {
                                  "type": "Sc_BinaryOp",
                                  "id": "iXH:0!!IQ,/1a)}ffHSx",
                                  "inline": true,
                                  "fields": {
                                   "OP": "*"
                                  },
                                  "inputs": {
                                   "LHS": {
                                    "block": {
                                     "type": "Sc_BinaryOp",
                                     "id": "F;-`C2Va.Yethf}Yw2:S",
                                     "inline": true,
                                     "fields": {
                                      "OP": "+"
                                     },
                                     "inputs": {
                                      "LHS": {
                                       "block": {
                                        "type": "math_number",
                                        "id": "7,Q+9Gk1JwT=We0n6xHG",
                                        "fields": {
                                         "NUM": 25
                                        }
                                       }
                                      },
                                      "RHS": {
                                       "block": {
                                        "type": "Sc_Value1",
                                        "id": "`[q1wedGCB,O)%$Kb0?C",
                                        "inline": true,
                                        "inputs": {
                                         "PROC": {
                                          "block": {
                                           "type": "variables_get",
                                           "id": "K5.31JDM5avE*raoa838",
                                           "fields": {
                                            "VAR": {
                                             "id": ".HV,w1*SfsDTj`yP)kNh"
                                            }
                                           }
                                          }
                                         },
                                         "VALUE": {
                                          "block": {
                                           "type": "math_number",
                                           "id": "g~reu.{KvQQ-a7dH!{R1",
                                           "fields": {
                                            "NUM": 50.01
                                           }
                                          }
                                         }
                                        }
                                       }
                                      }
                                     }
                                    }
                                   },
                                   "RHS": {
                                    "block": {
                                     "type": "variables_get",
                                     "id": ")1+DcGO8N`2zJ[u5,6nQ",
                                     "fields": {
                                      "VAR": {
                                       "id": ".rB,N/EFbvhcg7Pm!8bS"
                                      }
                                     }
                                    }
                                   }
                                  }
                                 }
                                },
                                "RHS": {
                                 "block": {
                                  "type": "math_number",
                                  "id": "OHMPmga[a)($9Xm_#Bd3",
                                  "fields": {
                                   "NUM": 50
                                  }
                                 }
                                }
                               }
                              }
                             }
                            }
                           }
                          },
                          "RHS": {
                           "block": {
                            "type": "Sc_Value1",
                            "id": "]sxV{7jQ6AFCbPpOWb/n",
                            "inline": true,
                            "inputs": {
                             "PROC": {
                              "block": {
                               "type": "variables_get",
                               "id": "@pFItfg3s1IloKV1;^d}",
                               "fields": {
                                "VAR": {
                                 "id": ".HV,w1*SfsDTj`yP)kNh"
                                }
                               }
                              }
                             },
                             "VALUE": {
                              "block": {
                               "type": "Sc_BinaryOp",
                               "id": "r/Z5jS.euNJoEitGgQjp",
                               "inline": true,
                               "fields": {
                                "OP": "+"
                               },
                               "inputs": {
                                "LHS": {
                                 "block": {
                                  "type": "Sc_BinaryOp",
                                  "id": "iVuKx}/FHvI0rm(I-j_{",
                                  "inline": true,
                                  "fields": {
                                   "OP": "/"
                                  },
                                  "inputs": {
                                   "LHS": {
                                    "block": {
                                     "type": "Sc_BinaryOp",
                                     "id": "bja7p)k:*TU?vkqfA5^_",
                                     "inline": true,
                                     "fields": {
                                      "OP": "*"
                                     },
                                     "inputs": {
                                      "LHS": {
                                       "block": {
                                        "type": "math_number",
                                        "id": "xqjNmm21ggJCn2%LR*LV",
                                        "fields": {
                                         "NUM": 50.5
                                        }
                                       }
                                      },
                                      "RHS": {
                                       "block": {
                                        "type": "Sc_Value1",
                                        "id": "~_m^Ym#tt2!I@aspAz5w",
                                        "inline": true,
                                        "inputs": {
                                         "PROC": {
                                          "block": {
                                           "type": "variables_get",
                                           "id": "];](Iirz/U;Np~}2VRso",
                                           "fields": {
                                            "VAR": {
                                             "id": ".HV,w1*SfsDTj`yP)kNh"
                                            }
                                           }
                                          }
                                         },
                                         "VALUE": {
                                          "block": {
                                           "type": "math_number",
                                           "id": "5_q^!A%rE#n#,fS?3(OY",
                                           "fields": {
                                            "NUM": 50
                                           }
                                          }
                                         }
                                        }
                                       }
                                      }
                                     }
                                    }
                                   },
                                   "RHS": {
                                    "block": {
                                     "type": "math_number",
                                     "id": "$L=Z44E.W=!7qmtEYSjV",
                                     "fields": {
                                      "NUM": 5
                                     }
                                    }
                                   }
                                  }
                                 }
                                },
                                "RHS": {
                                 "block": {
                                  "type": "math_number",
                                  "id": "[@0]k8)v24w;G~e9D^Hf",
                                  "fields": {
                                   "NUM": 0.5
                                  }
                                 }
                                }
                               }
                              }
                             }
                            }
                           }
                          }
                         }
                        }
                       },
                       "RHS": {
                        "block": {
                         "type": "Sc_Value1",
                         "id": "SsX9|s-%pD0bu8hTA:Rv",
                         "inline": true,
                         "inputs": {
                          "PROC": {
                           "block": {
                            "type": "variables_get",
                            "id": "V$YY[if5a$Ej5EO]6LJF",
                            "fields": {
                             "VAR": {
                              "id": ".HV,w1*SfsDTj`yP)kNh"
                             }
                            }
                           }
                          },
                          "VALUE": {
                           "block": {
                            "type": "math_number",
                            "id": "ZNw;A)RxY.@q!oTGXBqJ",
                            "fields": {
                             "NUM": 0.505
                            }
                           }
                          }
                         }
                        }
                       }
                      }
                     }
                    },
                    "RHS": {
                     "block": {
                      "type": "math_number",
                      "id": "R,eF8)Cfyd2Q8s.0|)ic",
                      "fields": {
                       "NUM": 5
                      }
                     }
                    }
                   }
                  }
                 }
                },
                "next": {
                 "block": {
                  "type": "Sc_Play",
                  "id": "|DdFP[W}nz}:T}0+=Jn^",
                  "inputs": {
                   "CODE": {
                    "block": {
                     "type": "Sc_BinaryOp",
                     "id": "HV0KfbO{C^7/e/N?9D)o",
                     "inline": false,
                     "fields": {
                      "OP": "+"
                     },
                     "inputs": {
                      "LHS": {
                       "block": {
                        "type": "Sc_PitchShift",
                        "id": "mlv`GMFk};_s~`?gj{8Q",
                        "inline": true,
                        "inputs": {
                         "IN": {
                          "block": {
                           "type": "variables_get",
                           "id": "i(Z=@GjcvllRs@b.P,?0",
                           "fields": {
                            "VAR": {
                             "id": "hpu(Mm*`irg9nA2z`E:R"
                            }
                           }
                          }
                         },
                         "WINDOWSIZE": {
                          "block": {
                           "type": "math_number",
                           "id": "=6eR7*tHbR{su|qe5g?*",
                           "fields": {
                            "NUM": 0.5
                           }
                          }
                         },
                         "PITCHRATIO": {
                          "block": {
                           "type": "math_number",
                           "id": "qO@CM6`c312n]Jh,^p/W",
                           "fields": {
                            "NUM": 0.5
                           }
                          }
                         },
                         "PITCHDISPERSION": {
                          "block": {
                           "type": "math_number",
                           "id": "rU9I6GE~zKXN%*7D{Da?",
                           "fields": {
                            "NUM": 0
                           }
                          }
                         },
                         "TIMEDISPERSION": {
                          "block": {
                           "type": "math_number",
                           "id": "hJC]0JC5ijpKK9Er]nN}",
                           "fields": {
                            "NUM": 0.5
                           }
                          }
                         },
                         "MUL": {
                          "shadow": {
                           "type": "math_number",
                           "id": "%4F/cgpJA1|_6J}onkf]",
                           "fields": {
                            "NUM": 1
                           }
                          }
                         },
                         "ADD": {
                          "shadow": {
                           "type": "math_number",
                           "id": "gDvR:Z-O/_tGkwb9z$x`",
                           "fields": {
                            "NUM": 0
                           }
                          },
                          "block": {
                           "type": "variables_get",
                           "id": "ZyypZ-.{iZs/:_^VK`l8",
                           "fields": {
                            "VAR": {
                             "id": "hpu(Mm*`irg9nA2z`E:R"
                            }
                           }
                          }
                         }
                        }
                       }
                      },
                      "RHS": {
                       "block": {
                        "type": "Sc_PitchShift",
                        "id": "q#I:]L}`8t2cqqU)u5C*",
                        "inline": true,
                        "inputs": {
                         "IN": {
                          "block": {
                           "type": "variables_get",
                           "id": "W9OzxY#nU/5RRCN+af9?",
                           "fields": {
                            "VAR": {
                             "id": "hpu(Mm*`irg9nA2z`E:R"
                            }
                           }
                          }
                         },
                         "WINDOWSIZE": {
                          "block": {
                           "type": "math_number",
                           "id": "2!x5ElLk+)My~3jDg?|=",
                           "fields": {
                            "NUM": 0.5
                           }
                          }
                         },
                         "PITCHRATIO": {
                          "block": {
                           "type": "Sc_UnaryOp",
                           "id": "cueg=/@zw3`krAt!HZ-h",
                           "fields": {
                            "OP": "rounded"
                           },
                           "inputs": {
                            "IN": {
                             "block": {
                              "type": "Sc_BinaryOp",
                              "id": "+FgKb,@roVYLn`:m3T}|",
                              "inline": true,
                              "fields": {
                               "OP": "^"
                              },
                              "inputs": {
                               "LHS": {
                                "block": {
                                 "type": "math_number",
                                 "id": "[;1afS^eoDAs5,h).o`.",
                                 "fields": {
                                  "NUM": 5
                                 }
                                }
                               },
                               "RHS": {
                                "block": {
                                 "type": "Sc_Value1",
                                 "id": ",!dkiIj8)jzY?Ce.Gp:O",
                                 "inline": true,
                                 "inputs": {
                                  "PROC": {
                                   "block": {
                                    "type": "variables_get",
                                    "id": "QE?A,+.2!_[Jyaod[y|)",
                                    "fields": {
                                     "VAR": {
                                      "id": ".HV,w1*SfsDTj`yP)kNh"
                                     }
                                    }
                                   }
                                  },
                                  "VALUE": {
                                   "block": {
                                    "type": "math_number",
                                    "id": "zm!5DQ+]pXhIN)W2pvF.",
                                    "fields": {
                                     "NUM": 0.005
                                    }
                                   }
                                  }
                                 }
                                }
                               }
                              }
                             }
                            }
                           }
                          }
                         },
                         "PITCHDISPERSION": {
                          "block": {
                           "type": "math_number",
                           "id": "+C1ME8_0@{R(~%s9ulQ7",
                           "fields": {
                            "NUM": 0.05
                           }
                          }
                         },
                         "TIMEDISPERSION": {
                          "block": {
                           "type": "math_number",
                           "id": "A=X[gqwV4a7]e[?Qy[~E",
                           "fields": {
                            "NUM": 0.05
                           }
                          }
                         },
                         "MUL": {
                          "shadow": {
                           "type": "math_number",
                           "id": "q!vEnvQ9]lP}g5$V!Kw]",
                           "fields": {
                            "NUM": 1
                           }
                          }
                         },
                         "ADD": {
                          "shadow": {
                           "type": "math_number",
                           "id": "G5Jx2g73E6~42I3f`t,c",
                           "fields": {
                            "NUM": 0
                           }
                          }
                         }
                        }
                       }
                      }
                     }
                    }
                   }
                  }
                 }
                }
               }
              }
             }
            }
           }
          }
         }
        }
       }
      }
     }
    }
   }
  ]
 },
 "variables": [
  {
   "name": "f",
   "id": ".HV,w1*SfsDTj`yP)kNh"
  },
  {
   "name": "g",
   "id": "$.oYW#fsX~9SOA$q(Es/"
  },
  {
   "name": "freq",
   "id": "}!~g^G|D)6?Nz(=tdgC8"
  },
  {
   "name": "i",
   "id": "/l8cqTE/yNfi^:P-oulc"
  },
  {
   "name": "j",
   "id": "6+OYK=L6#1VK;,~o`BLt"
  },
  {
   "name": "h",
   "id": ".rB,N/EFbvhcg7Pm!8bS"
  },
  {
   "name": "c",
   "id": "hpu(Mm*`irg9nA2z`E:R"
  }
 ]
}
