{
 "blocks": {
  "languageVersion": 0,
  "blocks": [
   {
    "type": "Sc_Comment",
    "id": "y_A]myiVRB}o5]s0!-av",
    "x": 0,
    "y": 0,
    "fields": {
     "COMMENT": "Pulsing bottles (Jmcc) #2"
    },
    "next": {
     "block": {
      "type": "variables_set",
      "id": "7;RUy2(#KiG2xS.`BZPF",
      "fields": {
       "VAR": {
        "id": "^p?27Qq[sY!vftO)!.xb"
       }
      },
      "inputs": {
       "VALUE": {
        "block": {
         "type": "math_number",
         "id": "`oFLOxn]!Sbr7#F54y%(",
         "fields": {
          "NUM": 6
         }
        }
       }
      },
      "next": {
       "block": {
        "type": "variables_set",
        "id": "zOqqBcnG0QIC3F5KlMFS",
        "fields": {
         "VAR": {
          "id": "K0i/^ez`|:v`U8Xjn+Me"
         }
        },
        "inputs": {
         "VALUE": {
          "block": {
           "type": "Sc_Proc0Stm",
           "id": "};LHK(19nj@4o-P|JzlW",
           "inputs": {
            "STATEMENTS": {
             "block": {
              "type": "variables_set",
              "id": ":s)caKDqymt(sD4`8A;b",
              "fields": {
               "VAR": {
                "id": "IPQXI5e=IY6x*uokyZLR"
               }
              },
              "inputs": {
               "VALUE": {
                "block": {
                 "type": "Sc_BinaryOp",
                 "id": "*leQ167JWSnfju@kDwSy",
                 "inline": false,
                 "fields": {
                  "OP": "/"
                 },
                 "inputs": {
                  "LHS": {
                   "block": {
                    "type": "Sc_LFPulse",
                    "id": "Da+3Uv1/)x[5f|wDMPIz",
                    "inline": false,
                    "inputs": {
                     "FREQ": {
                      "block": {
                       "type": "Sc_Rand",
                       "id": "H1|~.:ty39:!CxEGp{/s",
                       "inline": true,
                       "inputs": {
                        "LO": {
                         "block": {
                          "type": "math_number",
                          "id": "l/mzmA@[y:$MC5*KPS=D",
                          "fields": {
                           "NUM": 0
                          }
                         }
                        },
                        "HI": {
                         "block": {
                          "type": "math_number",
                          "id": "TN7R+Jx(CDy)*I,CEIrV",
                          "fields": {
                           "NUM": 10
                          }
                         }
                        },
                        "MUL": {
                         "shadow": {
                          "type": "math_number",
                          "id": "k94u4QmuvwKc9XiJW/DY",
                          "fields": {
                           "NUM": 1
                          }
                         }
                        },
                        "ADD": {
                         "shadow": {
                          "type": "math_number",
                          "id": "oi?izHcug(G~*QSOu_OI",
                          "fields": {
                           "NUM": 0
                          }
                         },
                         "block": {
                          "type": "math_number",
                          "id": "8dwQ=Uz2lC^+vrbgD7O:",
                          "fields": {
                           "NUM": 4
                          }
                         }
                        }
                       }
                      }
                     },
                     "IPHASE": {
                      "block": {
                       "type": "math_number",
                       "id": "!Pvkz-i`V5LQo(5S6Oej",
                       "fields": {
                        "NUM": 0
                       }
                      }
                     },
                     "WIDTH": {
                      "block": {
                       "type": "Sc_Rand",
                       "id": "=8$R41mCx`a]8V[=X9@[",
                       "inline": true,
                       "inputs": {
                        "LO": {
                         "block": {
                          "type": "math_number",
                          "id": "{|:-jct9)4aitw3zzROK",
                          "fields": {
                           "NUM": 0
                          }
                         }
                        },
                        "HI": {
                         "block": {
                          "type": "math_number",
                          "id": "`zk=+.._XnXmF(PmWRhh",
                          "fields": {
                           "NUM": 0.7
                          }
                         }
                        },
                        "MUL": {
                         "shadow": {
                          "type": "math_number",
                          "id": "#q#E/jOLpy1q7DI14o!G",
                          "fields": {
                           "NUM": 1
                          }
                         }
                        },
                        "ADD": {
                         "shadow": {
                          "type": "math_number",
                          "id": "|=lh]V12@ugQT2ZyeEdV",
                          "fields": {
                           "NUM": 0
                          }
                         }
                        }
                       }
                      }
                     },
                     "MUL": {
                      "shadow": {
                       "type": "math_number",
                       "id": "Z{yfMmO*K;3XL[:=vE./",
                       "fields": {
                        "NUM": 1
                       }
                      },
                      "block": {
                       "type": "math_number",
                       "id": "38d@s;/IqOr.q8q^U|#d",
                       "fields": {
                        "NUM": 0.8
                       }
                      }
                     },
                     "ADD": {
                      "shadow": {
                       "type": "math_number",
                       "id": "`!S]~NCwpry@5lB/L5x2",
                       "fields": {
                        "NUM": 0
                       }
                      }
                     }
                    }
                   }
                  },
                  "RHS": {
                   "block": {
                    "type": "variables_get",
                    "id": "4~o{)u7O}~nPl8*{5e4n",
                    "fields": {
                     "VAR": {
                      "id": "^p?27Qq[sY!vftO)!.xb"
                     }
                    }
                   }
                  }
                 }
                }
               }
              },
              "next": {
               "block": {
                "type": "variables_set",
                "id": "LEi:?E,kh|(z0G{qsboN",
                "fields": {
                 "VAR": {
                  "id": "T}eFi|}`Hr$_(7qR)UkT"
                 }
                },
                "inputs": {
                 "VALUE": {
                  "block": {
                   "type": "Sc_SinOsc",
                   "id": "D1)Q!_N]%t!%%JOPQ^!1",
                   "inline": false,
                   "inputs": {
                    "FREQ": {
                     "block": {
                      "type": "Sc_Rand",
                      "id": "u}Ajiz|e]VMO1n@J#cR_",
                      "inline": true,
                      "inputs": {
                       "LO": {
                        "block": {
                         "type": "math_number",
                         "id": "p0]QxoAGBNR30VaV^p#X",
                         "fields": {
                          "NUM": 0
                         }
                        }
                       },
                       "HI": {
                        "block": {
                         "type": "math_number",
                         "id": "X+J,)}DQAou-gZ#sp#%4",
                         "fields": {
                          "NUM": 0.4
                         }
                        }
                       },
                       "MUL": {
                        "shadow": {
                         "type": "math_number",
                         "id": "kpmuku4hrEVggQcEm!7`",
                         "fields": {
                          "NUM": 1
                         }
                        }
                       },
                       "ADD": {
                        "shadow": {
                         "type": "math_number",
                         "id": "p[0Q=mj7BM9sj)=/M5:E",
                         "fields": {
                          "NUM": 0
                         }
                        },
                        "block": {
                         "type": "math_number",
                         "id": "cc,cX#w]aiYu5R+E?5$s",
                         "fields": {
                          "NUM": 0.1
                         }
                        }
                       }
                      }
                     }
                    },
                    "PHASE": {
                     "block": {
                      "type": "Sc_Rand",
                      "id": "WcvLwqz))dpQfN,yM=As",
                      "inline": true,
                      "inputs": {
                       "LO": {
                        "block": {
                         "type": "math_number",
                         "id": "g-1?4%0XYxN9jVA_#X~*",
                         "fields": {
                          "NUM": 0
                         }
                        }
                       },
                       "HI": {
                        "block": {
                         "type": "Sc_Constant",
                         "id": "E!h{/WRlrW{MHa@lL``V",
                         "fields": {
                          "CONST": "twoPi"
                         }
                        }
                       },
                       "MUL": {
                        "shadow": {
                         "type": "math_number",
                         "id": "=R{pna/XA;`=tFJ)nA{B",
                         "fields": {
                          "NUM": 1
                         }
                        }
                       },
                       "ADD": {
                        "shadow": {
                         "type": "math_number",
                         "id": "|7Sz,V.P]tt9f3%w`5kf",
                         "fields": {
                          "NUM": 0
                         }
                        }
                       }
                      }
                     }
                    },
                    "MUL": {
                     "shadow": {
                      "type": "math_number",
                      "id": "j(wSM[zay;lSv:*]jn~^",
                      "fields": {
                       "NUM": 1
                      }
                     }
                    },
                    "ADD": {
                     "shadow": {
                      "type": "math_number",
                      "id": "07!/-%6uvCt?*p`v~2?8",
                      "fields": {
                       "NUM": 0
                      }
                     }
                    }
                   }
                  }
                 }
                }
               }
              }
             }
            },
            "RETURN": {
             "block": {
              "type": "Sc_Pan2",
              "id": "_MIQ*YU7)BOA-zsj`:N+",
              "inline": false,
              "inputs": {
               "IN": {
                "block": {
                 "type": "Sc_Resonz",
                 "id": "A(-D+Gpk3B?GR$#8O{7#",
                 "inline": false,
                 "inputs": {
                  "IN": {
                   "block": {
                    "type": "Sc_WhiteNoise",
                    "id": "7WHQZ!i[}PlPUHiAWVD8",
                    "inline": true,
                    "inputs": {
                     "MUL": {
                      "shadow": {
                       "type": "math_number",
                       "id": "ENGo;0s#):04WQMz9c2e",
                       "fields": {
                        "NUM": 1
                       }
                      }
                     },
                     "ADD": {
                      "shadow": {
                       "type": "math_number",
                       "id": "dPc-C:|3$G5A-n5F27_^",
                       "fields": {
                        "NUM": 0
                       }
                      }
                     }
                    }
                   }
                  },
                  "FREQ": {
                   "block": {
                    "type": "Sc_LinRand",
                    "id": "IY=^Y85%i~4](KH^E]tW",
                    "inline": true,
                    "inputs": {
                     "LO": {
                      "block": {
                       "type": "math_number",
                       "id": "X0oNysH(cNnF)#pN+beX",
                       "fields": {
                        "NUM": 0
                       }
                      }
                     },
                     "HI": {
                      "block": {
                       "type": "math_number",
                       "id": "czt8iJFvb{)@Z1j0heo%",
                       "fields": {
                        "NUM": 7000
                       }
                      }
                     },
                     "MINMAX": {
                      "block": {
                       "type": "math_number",
                       "id": "/=U#G0*F?(K^s;?ne*lJ",
                       "fields": {
                        "NUM": 0
                       }
                      }
                     },
                     "MUL": {
                      "shadow": {
                       "type": "math_number",
                       "id": "c4ct3tu^zG*N]6+FK=WV",
                       "fields": {
                        "NUM": 1
                       }
                      }
                     },
                     "ADD": {
                      "shadow": {
                       "type": "math_number",
                       "id": "fgmK6FCQ6V/!TFe89jro",
                       "fields": {
                        "NUM": 0
                       }
                      },
                      "block": {
                       "type": "math_number",
                       "id": "u8?$([_#)OkrZl5vOv*8",
                       "fields": {
                        "NUM": 400
                       }
                      }
                     }
                    }
                   }
                  },
                  "BWR": {
                   "block": {
                    "type": "math_number",
                    "id": "Rde]xfUXa)Jk*U$2@e}R",
                    "fields": {
                     "NUM": 0.01
                    }
                   }
                  },
                  "MUL": {
                   "shadow": {
                    "type": "math_number",
                    "id": "+TOly#iDn2F:bd[0:F09",
                    "fields": {
                     "NUM": 1
                    }
                   }
                  },
                  "ADD": {
                   "shadow": {
                    "type": "math_number",
                    "id": "*6u^v-fG-L5)x6rDrvee",
                    "fields": {
                     "NUM": 0
                    }
                   }
                  }
                 }
                }
               },
               "POS": {
                "block": {
                 "type": "variables_get",
                 "id": "HJagkRK[aIU7/]O$0ee@",
                 "fields": {
                  "VAR": {
                   "id": "T}eFi|}`Hr$_(7qR)UkT"
                  }
                 }
                }
               },
               "LEVEL": {
                "block": {
                 "type": "variables_get",
                 "id": "J-ALV|zr-U}$5{BI~Qj/",
                 "fields": {
                  "VAR": {
                   "id": "IPQXI5e=IY6x*uokyZLR"
                  }
                 }
                }
               },
               "MUL": {
                "shadow": {
                 "type": "math_number",
                 "id": "Z{Kr)FKid%mMtr,*wpGf",
                 "fields": {
                  "NUM": 1
                 }
                }
               },
               "ADD": {
                "shadow": {
                 "type": "math_number",
                 "id": "{K8-.~cmP$6=fvMyI(,Y",
                 "fields": {
                  "NUM": 0
                 }
                }
               }
              }
             }
            }
           }
          }
         }
        },
        "next": {
         "block": {
          "type": "Sc_Play",
          "id": "c*JkAoWW~u95cz8?dYR3",
          "inputs": {
           "CODE": {
            "block": {
             "type": "Sc_ArrayProc1",
             "id": "IY$n/XzH#yj#2d,K-eRe",
             "fields": {
              "OP": "sum"
             },
             "inputs": {
              "IN": {
               "block": {
                "type": "Sc_ArrayFill",
                "id": ":qO_)mGNDuov5WJQ5[N;",
                "inline": true,
                "inputs": {
                 "PROC": {
                  "block": {
                   "type": "variables_get",
                   "id": "w|q~}1PMV^JT;XrXa=j3",
                   "fields": {
                    "VAR": {
                     "id": "K0i/^ez`|:v`U8Xjn+Me"
                    }
                   }
                  }
                 },
                 "COUNT": {
                  "block": {
                   "type": "variables_get",
                   "id": "%J,4H=Gp8R]#c7Wd.$8A",
                   "fields": {
                    "VAR": {
                     "id": "^p?27Qq[sY!vftO)!.xb"
                    }
                   }
                  }
                 }
                }
               }
              }
             }
            }
           }
          }
         }
        }
       }
      }
     }
    }
   }
  ]
 },
 "variables": [
  {
   "name": "n",
   "id": "^p?27Qq[sY!vftO)!.xb"
  },
  {
   "name": "f",
   "id": "K0i/^ez`|:v`U8Xjn+Me"
  },
  {
   "name": "a",
   "id": "IPQXI5e=IY6x*uokyZLR"
  },
  {
   "name": "l",
   "id": "T}eFi|}`Hr$_(7qR)UkT"
  }
 ]
}
