{
 "blocks": {
  "languageVersion": 0,
  "blocks": [
   {
    "type": "Sc_Comment",
    "id": "_*v{,iGRrQ9j~M40s)P!",
    "x": 0,
    "y": 0,
    "fields": {
     "COMMENT": "Spe (Jmcc)"
    },
    "next": {
     "block": {
      "type": "variables_set",
      "id": "AywiZz]$*,#.qI[+3.W!",
      "fields": {
       "VAR": {
        "id": "mfVkzAeDon$JVaAn|Eo/"
       }
      },
      "inputs": {
       "VALUE": {
        "block": {
         "type": "Sc_Impulse",
         "id": "D$/B6xkGe+{=[Gc[AqM{",
         "inline": true,
         "inputs": {
          "FREQ": {
           "block": {
            "type": "math_number",
            "id": "8F*V;%2V+FW#$%ITQg4B",
            "fields": {
             "NUM": 9
            }
           }
          },
          "PHASE": {
           "block": {
            "type": "math_number",
            "id": "CQKU(fk3KBcP1I,qsFBt",
            "fields": {
             "NUM": 0
            }
           }
          },
          "MUL": {
           "shadow": {
            "type": "math_number",
            "id": "dZLCR-_RLa0gK|7U@jo_",
            "fields": {
             "NUM": 1
            }
           }
          },
          "ADD": {
           "shadow": {
            "type": "math_number",
            "id": "+[FR4UbBZt$1snySmI2[",
            "fields": {
             "NUM": 0
            }
           }
          }
         }
        }
       }
      },
      "next": {
       "block": {
        "type": "variables_set",
        "id": "{2F;q.%YABDlaG|h9@Gk",
        "fields": {
         "VAR": {
          "id": "lonNI[mhv|$q|.~iK)Re"
         }
        },
        "inputs": {
         "VALUE": {
          "block": {
           "type": "lists_create_with",
           "id": "Yo={sH@U,A%Cf0#HC6Xy",
           "inline": true,
           "extraState": {
            "itemCount": 12
           },
           "inputs": {
            "ADD0": {
             "block": {
              "type": "math_number",
              "id": "dD[jwIzBEgUf:]fKOfH1",
              "fields": {
               "NUM": 0
              }
             }
            },
            "ADD1": {
             "block": {
              "type": "math_number",
              "id": "L0;TKh~y@KUxD$4{*W7/",
              "fields": {
               "NUM": 3
              }
             }
            },
            "ADD2": {
             "block": {
              "type": "math_number",
              "id": "l`CXk_6u|E}.Agx-`owu",
              "fields": {
               "NUM": 2
              }
             }
            },
            "ADD3": {
             "block": {
              "type": "math_number",
              "id": "!q19o`+9=WCzQ*|bGMY%",
              "fields": {
               "NUM": 7
              }
             }
            },
            "ADD4": {
             "block": {
              "type": "math_number",
              "id": "+bPemDaG4d/CjYHRh.{A",
              "fields": {
               "NUM": 8
              }
             }
            },
            "ADD5": {
             "block": {
              "type": "math_number",
              "id": "wb?e7M#:lG#0VzHRGQuw",
              "fields": {
               "NUM": 32
              }
             }
            },
            "ADD6": {
             "block": {
              "type": "math_number",
              "id": ".Q?XEsu3dG@u=v?_wMTC",
              "fields": {
               "NUM": 16
              }
             }
            },
            "ADD7": {
             "block": {
              "type": "math_number",
              "id": "%[Nn_l$9d@hLYy4p%~xI",
              "fields": {
               "NUM": 18
              }
             }
            },
            "ADD8": {
             "block": {
              "type": "math_number",
              "id": "zM+mBB??k#UT8qv=,yG|",
              "fields": {
               "NUM": 0
              }
             }
            },
            "ADD9": {
             "block": {
              "type": "math_number",
              "id": "k_wMS6L?T!pgQHMqEI`^",
              "fields": {
               "NUM": 12
              }
             }
            },
            "ADD10": {
             "block": {
              "type": "math_number",
              "id": ".,E%HqR4bfzz^?dG?;Q2",
              "fields": {
               "NUM": 24
              }
             }
            },
            "ADD11": {
             "block": {
              "type": "math_number",
              "id": "W-.RC-!r%:4bQt}:J,r!",
              "fields": {
               "NUM": 32
              }
             }
            }
           }
          }
         }
        },
        "next": {
         "block": {
          "type": "variables_set",
          "id": "^Md8-h9!?=IT9x/b$[@?",
          "fields": {
           "VAR": {
            "id": "99si(#TWF9W3,p5WX`gC"
           }
          },
          "inputs": {
           "VALUE": {
            "block": {
             "type": "Sc_UnaryOp",
             "id": "+((5u0e18`Nmc+-ZP?#u",
             "fields": {
              "OP": "MidiCps"
             },
             "inputs": {
              "IN": {
               "block": {
                "type": "Sc_Demand",
                "id": "c*ZYSaVc@H^~ptAk{k_w",
                "inline": true,
                "inputs": {
                 "TRIG": {
                  "block": {
                   "type": "variables_get",
                   "id": "GqBx8RK7;;|g.63aJ*h$",
                   "fields": {
                    "VAR": {
                     "id": "mfVkzAeDon$JVaAn|Eo/"
                    }
                   }
                  }
                 },
                 "RESET": {
                  "block": {
                   "type": "math_number",
                   "id": "{TN!f//gKY/p9U43vhVA",
                   "fields": {
                    "NUM": 0
                   }
                  }
                 },
                 "DEMANDUGENS": {
                  "block": {
                   "type": "Sc_Dseq",
                   "id": "h2vQ9MN1gn#):e|Qb8U$",
                   "inline": true,
                   "inputs": {
                    "REPEATS": {
                     "block": {
                      "type": "Sc_Constant",
                      "id": "t`zfKZ7FaY7zk1Fj3ea5",
                      "fields": {
                       "CONST": "Infinity"
                      }
                     }
                    },
                    "ARRAY": {
                     "block": {
                      "type": "variables_get",
                      "id": "l)4k;L#9*6%gRh23vDG4",
                      "fields": {
                       "VAR": {
                        "id": "lonNI[mhv|$q|.~iK)Re"
                       }
                      }
                     }
                    },
                    "MUL": {
                     "shadow": {
                      "type": "math_number",
                      "id": "XKp;6X;;3rofs1-z^n;0",
                      "fields": {
                       "NUM": 1
                      }
                     }
                    },
                    "ADD": {
                     "shadow": {
                      "type": "math_number",
                      "id": "QH`y^3L)WwZ#jlT#VibG",
                      "fields": {
                       "NUM": 0
                      }
                     }
                    }
                   }
                  }
                 },
                 "MUL": {
                  "shadow": {
                   "type": "math_number",
                   "id": "u-++a%ac$Nj6vV8N%ggM",
                   "fields": {
                    "NUM": 1
                   }
                  }
                 },
                 "ADD": {
                  "shadow": {
                   "type": "math_number",
                   "id": "KXC;IH/?43^D%l5=PYo0",
                   "fields": {
                    "NUM": 0
                   }
                  },
                  "block": {
                   "type": "math_number",
                   "id": "{1e[+Q6to8)zL@2b@5Sb",
                   "fields": {
                    "NUM": 32
                   }
                  }
                 }
                }
               }
              }
             }
            }
           }
          },
          "next": {
           "block": {
            "type": "variables_set",
            "id": "_Q$*|vO)cClMmcOlw.[/",
            "fields": {
             "VAR": {
              "id": "*;$b#?L{bV_ncO=nG?LO"
             }
            },
            "inputs": {
             "VALUE": {
              "block": {
               "type": "Sc_Decay2",
               "id": "|Xn2w@5XQ-ZD^w)iaL_G",
               "inline": true,
               "inputs": {
                "IN": {
                 "block": {
                  "type": "variables_get",
                  "id": "55jFixw^br8,z$GLGL1o",
                  "fields": {
                   "VAR": {
                    "id": "mfVkzAeDon$JVaAn|Eo/"
                   }
                  }
                 }
                },
                "ATTACKTIME": {
                 "block": {
                  "type": "math_number",
                  "id": "8WBOsS9?Dz+7hYd2[.Gr",
                  "fields": {
                   "NUM": 0.05
                  }
                 }
                },
                "DECAYTIME": {
                 "block": {
                  "type": "math_number",
                  "id": "DlCkFx?jGLs%kj^PE+Ck",
                  "fields": {
                   "NUM": 1
                  }
                 }
                },
                "MUL": {
                 "shadow": {
                  "type": "math_number",
                  "id": "yCGPBBI^7l`Lty#XV-[K",
                  "fields": {
                   "NUM": 1
                  }
                 },
                 "block": {
                  "type": "math_number",
                  "id": "cW/Qg/@:i=K5#*sSh+:M",
                  "fields": {
                   "NUM": 0.1
                  }
                 }
                },
                "ADD": {
                 "shadow": {
                  "type": "math_number",
                  "id": "XrwW7mHnj]Q#vSt8`8V}",
                  "fields": {
                   "NUM": 0
                  }
                 }
                }
               }
              }
             }
            },
            "next": {
             "block": {
              "type": "variables_set",
              "id": "oRmJS!kkrBI7;r~P,|Y+",
              "fields": {
               "VAR": {
                "id": "3)YeUZk-wqqTbXHzUxy:"
               }
              },
              "inputs": {
               "VALUE": {
                "block": {
                 "type": "Sc_RLPF",
                 "id": ".$RNylBWIVIgIT-[A{}K",
                 "inline": false,
                 "inputs": {
                  "IN": {
                   "block": {
                    "type": "Sc_LFSaw",
                    "id": "NK%6z%04gMVk/D]DEn7J",
                    "inline": true,
                    "inputs": {
                     "FREQ": {
                      "block": {
                       "type": "variables_get",
                       "id": "cH~B.Zk(ff({)neAeXms",
                       "fields": {
                        "VAR": {
                         "id": "99si(#TWF9W3,p5WX`gC"
                        }
                       }
                      }
                     },
                     "IPHASE": {
                      "block": {
                       "type": "math_number",
                       "id": "a(cu-JPY:hq)?|{fLabV",
                       "fields": {
                        "NUM": 0
                       }
                      }
                     },
                     "MUL": {
                      "shadow": {
                       "type": "math_number",
                       "id": "!(_h`^7tO-|S];);6?zH",
                       "fields": {
                        "NUM": 1
                       }
                      },
                      "block": {
                       "type": "variables_get",
                       "id": "%fAT}s%mG3~?suqPH_?R",
                       "fields": {
                        "VAR": {
                         "id": "*;$b#?L{bV_ncO=nG?LO"
                        }
                       }
                      }
                     },
                     "ADD": {
                      "shadow": {
                       "type": "math_number",
                       "id": "C.Qi_9Qm6rKNKGu8*T2o",
                       "fields": {
                        "NUM": 0
                       }
                      }
                     }
                    }
                   }
                  },
                  "FREQ": {
                   "block": {
                    "type": "Sc_UnaryOp",
                    "id": "5U#!/!VjWc5U4D/G`b6S",
                    "fields": {
                     "OP": "MidiCps"
                    },
                    "inputs": {
                     "IN": {
                      "block": {
                       "type": "Sc_LFNoise1",
                       "id": "!7YXIhe:9cjI+?6`|0fh",
                       "inline": true,
                       "inputs": {
                        "FREQ": {
                         "block": {
                          "type": "math_number",
                          "id": "j3:1dx__At%65J/MTiRq",
                          "fields": {
                           "NUM": 1
                          }
                         }
                        },
                        "MUL": {
                         "shadow": {
                          "type": "math_number",
                          "id": ":r9ss`bv4hg1@Ju?$#`d",
                          "fields": {
                           "NUM": 1
                          }
                         },
                         "block": {
                          "type": "math_number",
                          "id": ".Zkz]`Sw74@cG~EJhml_",
                          "fields": {
                           "NUM": 36
                          }
                         }
                        },
                        "ADD": {
                         "shadow": {
                          "type": "math_number",
                          "id": "U#*-_hz27S)/x#EMBzI/",
                          "fields": {
                           "NUM": 0
                          }
                         },
                         "block": {
                          "type": "math_number",
                          "id": "R1S9~7$j2EhYqHOh7OH1",
                          "fields": {
                           "NUM": 110
                          }
                         }
                        }
                       }
                      }
                     }
                    }
                   }
                  },
                  "RQ": {
                   "block": {
                    "type": "math_number",
                    "id": "uP4F7X4;!r1vtS6].4g@",
                    "fields": {
                     "NUM": 0.1
                    }
                   }
                  },
                  "MUL": {
                   "shadow": {
                    "type": "math_number",
                    "id": "+|@bxSMvr_Sz5HlzIl5@",
                    "fields": {
                     "NUM": 1
                    }
                   }
                  },
                  "ADD": {
                   "shadow": {
                    "type": "math_number",
                    "id": "2nO7WB:zoe#e9C9d(ozL",
                    "fields": {
                     "NUM": 0
                    }
                   }
                  }
                 }
                }
               }
              },
              "next": {
               "block": {
                "type": "Sc_TimesRepeat",
                "id": "ErbpV*T*_|C3y?bI~nk4",
                "inputs": {
                 "COUNT": {
                  "block": {
                   "type": "math_number",
                   "id": "Y?Ep{a[@2*-(QG@?ykSK",
                   "fields": {
                    "NUM": 4
                   }
                  }
                 },
                 "PROC": {
                  "block": {
                   "type": "Sc_Proc0Stm",
                   "id": "MG{.9zr(W4$a_E8^i#Wi",
                   "inputs": {
                    "STATEMENTS": {
                     "block": {
                      "type": "variables_set",
                      "id": "Xpgx$RBar^=*U_${sVYE",
                      "fields": {
                       "VAR": {
                        "id": "3)YeUZk-wqqTbXHzUxy:"
                       }
                      },
                      "inputs": {
                       "VALUE": {
                        "block": {
                         "type": "Sc_AllpassC",
                         "id": "wfjWX.aVhtAzK4hu!s?O",
                         "inline": false,
                         "inputs": {
                          "IN": {
                           "block": {
                            "type": "variables_get",
                            "id": "io?P0:P@0ayS*S`phAIN",
                            "fields": {
                             "VAR": {
                              "id": "3)YeUZk-wqqTbXHzUxy:"
                             }
                            }
                           }
                          },
                          "MAXDELAYTIME": {
                           "block": {
                            "type": "math_number",
                            "id": "s{OBoBqBP5.k)3roTai_",
                            "fields": {
                             "NUM": 0.05
                            }
                           }
                          },
                          "DELAYTIME": {
                           "block": {
                            "type": "Sc_ArrayFill",
                            "id": ".}b56Qa8M59%dhf@l,=p",
                            "inline": true,
                            "inputs": {
                             "PROC": {
                              "block": {
                               "type": "Sc_Proc0",
                               "id": "q8SQw9de!!nP[?$K|pX_",
                               "inline": true,
                               "inputs": {
                                "RETURN": {
                                 "block": {
                                  "type": "Sc_Rand",
                                  "id": ",lG+q#[QMP#h`jzj:i)m",
                                  "inline": true,
                                  "inputs": {
                                   "LO": {
                                    "block": {
                                     "type": "math_number",
                                     "id": "s6iLnlT[VrzSudEe]56x",
                                     "fields": {
                                      "NUM": 0
                                     }
                                    }
                                   },
                                   "HI": {
                                    "block": {
                                     "type": "math_number",
                                     "id": "La*^d)p|Z{1ldTR2M.tz",
                                     "fields": {
                                      "NUM": 0.05
                                     }
                                    }
                                   },
                                   "MUL": {
                                    "shadow": {
                                     "type": "math_number",
                                     "id": "s9L.MmHF-g*#rA+GMXE%",
                                     "fields": {
                                      "NUM": 1
                                     }
                                    }
                                   },
                                   "ADD": {
                                    "shadow": {
                                     "type": "math_number",
                                     "id": "!Q^xwpU.k_wiVZ%Hl]qr",
                                     "fields": {
                                      "NUM": 0
                                     }
                                    }
                                   }
                                  }
                                 }
                                }
                               }
                              }
                             },
                             "COUNT": {
                              "block": {
                               "type": "math_number",
                               "id": "}#;h;|!Y618$pF@%gvm;",
                               "fields": {
                                "NUM": 2
                               }
                              }
                             }
                            }
                           }
                          },
                          "DECAYTIME": {
                           "block": {
                            "type": "math_number",
                            "id": "hq[*gFNw4VIYEli$bmbh",
                            "fields": {
                             "NUM": 4
                            }
                           }
                          },
                          "MUL": {
                           "shadow": {
                            "type": "math_number",
                            "id": ".KAoi`).zxMj,[TG?01q",
                            "fields": {
                             "NUM": 1
                            }
                           }
                          },
                          "ADD": {
                           "shadow": {
                            "type": "math_number",
                            "id": "sXq#:%8v^XXY4,-}%esa",
                            "fields": {
                             "NUM": 0
                            }
                           }
                          }
                         }
                        }
                       }
                      }
                     }
                    },
                    "RETURN": {}
                   }
                  }
                 }
                },
                "next": {
                 "block": {
                  "type": "Sc_Play",
                  "id": "rXHa6TK3CO)R[7u@~b_o",
                  "inputs": {
                   "CODE": {
                    "block": {
                     "type": "Sc_BinaryOp",
                     "id": "TYK^P;$?_R~#D.@aacux",
                     "inline": true,
                     "fields": {
                      "OP": "*"
                     },
                     "inputs": {
                      "LHS": {
                       "block": {
                        "type": "variables_get",
                        "id": "U^|VGPJCKUhxvmXhi7,_",
                        "fields": {
                         "VAR": {
                          "id": "3)YeUZk-wqqTbXHzUxy:"
                         }
                        }
                       }
                      },
                      "RHS": {
                       "block": {
                        "type": "math_number",
                        "id": "8A|t@ck:gEVv#P8HHZYt",
                        "fields": {
                         "NUM": 0.25
                        }
                       }
                      }
                     }
                    }
                   }
                  }
                 }
                }
               }
              }
             }
            }
           }
          }
         }
        }
       }
      }
     }
    }
   }
  ]
 },
 "variables": [
  {
   "name": "t",
   "id": "mfVkzAeDon$JVaAn|Eo/"
  },
  {
   "name": "s",
   "id": "lonNI[mhv|$q|.~iK)Re"
  },
  {
   "name": "f",
   "id": "99si(#TWF9W3,p5WX`gC"
  },
  {
   "name": "e",
   "id": "*;$b#?L{bV_ncO=nG?LO"
  },
  {
   "name": "z",
   "id": "3)YeUZk-wqqTbXHzUxy:"
  }
 ]
}
