{
 "blocks": {
  "languageVersion": 0,
  "blocks": [
   {
    "type": "Sc_Comment",
    "id": "+V2m-2KPadE9$lJ6/6Nh",
    "x": 0,
    "y": 0,
    "fields": {
     "COMMENT": "Cymbalism accellerando ; Jmcc #2 ; Graph rewrite"
    },
    "next": {
     "block": {
      "type": "variables_set",
      "id": "1l@=]G,/5]o.2u-7~8pz",
      "fields": {
       "VAR": {
        "id": "I5n3WhQS2a|suhGQjV5E"
       }
      },
      "inputs": {
       "VALUE": {
        "block": {
         "type": "math_number",
         "id": "xv~V{eSY9G^r7B@RxCuF",
         "fields": {
          "NUM": 15
         }
        }
       }
      },
      "next": {
       "block": {
        "type": "Sc_Play",
        "id": "}YkA|hTBiNeB,f91d]s-",
        "inputs": {
         "CODE": {
          "block": {
           "type": "Sc_ArrayProc1",
           "id": "eXZ_WEbH!ScQ/6nje:H|",
           "fields": {
            "OP": "sum"
           },
           "inputs": {
            "IN": {
             "block": {
              "type": "Sc_OverlapTexture",
              "id": "CF;TetJnrYQULv(B%eV4",
              "inline": false,
              "inputs": {
               "PROC": {
                "block": {
                 "type": "Sc_Proc1Stm",
                 "id": "4huh;o}{|ISQyO2l*z}a",
                 "inputs": {
                  "VAR": {
                   "block": {
                    "type": "variables_get",
                    "id": "qhp%xXOpTd=OeKy+@g|*",
                    "fields": {
                     "VAR": {
                      "id": "wMUa~FHf:d0t8]kw?Pwb"
                     }
                    }
                   }
                  },
                  "STATEMENTS": {
                   "block": {
                    "type": "variables_set",
                    "id": "f@TQXfhQfBxagH^lSYRM",
                    "fields": {
                     "VAR": {
                      "id": "z=6~1yLfdZw^@u?~8,A9"
                     }
                    },
                    "inputs": {
                     "VALUE": {
                      "block": {
                       "type": "Sc_Impulse",
                       "id": "z-XUeIr-:Gi:f1!6+6$(",
                       "inline": false,
                       "inputs": {
                        "FREQ": {
                         "block": {
                          "type": "Sc_TxLine",
                          "id": "UY7A~F,h#{JRc~:N@bL/",
                          "inline": false,
                          "inputs": {
                           "START": {
                            "block": {
                             "type": "Sc_TRand",
                             "id": ")88wk`EKMbO^7IGSPvx(",
                             "inline": true,
                             "inputs": {
                              "LO": {
                               "block": {
                                "type": "math_number",
                                "id": ";cB:UTxEYusOax1Oj)pH",
                                "fields": {
                                 "NUM": 0
                                }
                               }
                              },
                              "HI": {
                               "block": {
                                "type": "math_number",
                                "id": "aOz2!oyFZR0bZ*5BhB:4",
                                "fields": {
                                 "NUM": 4
                                }
                               }
                              },
                              "TRIG": {
                               "block": {
                                "type": "variables_get",
                                "id": "^)x9Q;,xr6+~3tYImi`.",
                                "fields": {
                                 "VAR": {
                                  "id": "wMUa~FHf:d0t8]kw?Pwb"
                                 }
                                }
                               }
                              },
                              "MUL": {
                               "shadow": {
                                "type": "math_number",
                                "id": "Fi;@?VRK}%yAqS9yBwHo",
                                "fields": {
                                 "NUM": 1
                                }
                               }
                              },
                              "ADD": {
                               "shadow": {
                                "type": "math_number",
                                "id": ":sal@=^,@,2YJD|t=ajk",
                                "fields": {
                                 "NUM": 0
                                }
                               },
                               "block": {
                                "type": "math_number",
                                "id": "%~U,d8wj@ra9SZisiWb(",
                                "fields": {
                                 "NUM": 0.5
                                }
                               }
                              }
                             }
                            }
                           },
                           "END": {
                            "block": {
                             "type": "Sc_TRand",
                             "id": "V)zG)I+-`tOi7K6qeUts",
                             "inline": true,
                             "inputs": {
                              "LO": {
                               "block": {
                                "type": "math_number",
                                "id": "_!?wKD}f-2QF:@+a_c!,",
                                "fields": {
                                 "NUM": 0
                                }
                               }
                              },
                              "HI": {
                               "block": {
                                "type": "math_number",
                                "id": "]zG?~))Qj7fUOPANH^Gh",
                                "fields": {
                                 "NUM": 35
                                }
                               }
                              },
                              "TRIG": {
                               "block": {
                                "type": "variables_get",
                                "id": "m_qGwsd-c![5gS}H4-rS",
                                "fields": {
                                 "VAR": {
                                  "id": "wMUa~FHf:d0t8]kw?Pwb"
                                 }
                                }
                               }
                              },
                              "MUL": {
                               "shadow": {
                                "type": "math_number",
                                "id": "CMjB5~qowOal9/3D~5v_",
                                "fields": {
                                 "NUM": 1
                                }
                               }
                              },
                              "ADD": {
                               "shadow": {
                                "type": "math_number",
                                "id": "I0YZ%c.,$2Wb:;]K?B)?",
                                "fields": {
                                 "NUM": 0
                                }
                               },
                               "block": {
                                "type": "math_number",
                                "id": "$d??t{C%i$r/b}Ga{]+u",
                                "fields": {
                                 "NUM": 0.5
                                }
                               }
                              }
                             }
                            }
                           },
                           "DUR": {
                            "block": {
                             "type": "math_number",
                             "id": "ZBj)R,_kGc;:LI9PvpxC",
                             "fields": {
                              "NUM": 12
                             }
                            }
                           },
                           "TRIG": {
                            "block": {
                             "type": "variables_get",
                             "id": "k*)*3fSg-CLYW}B1(AK3",
                             "fields": {
                              "VAR": {
                               "id": "wMUa~FHf:d0t8]kw?Pwb"
                              }
                             }
                            }
                           },
                           "MUL": {
                            "shadow": {
                             "type": "math_number",
                             "id": "h;GNK~+{K:8|h@c%%Q3!",
                             "fields": {
                              "NUM": 1
                             }
                            }
                           },
                           "ADD": {
                            "shadow": {
                             "type": "math_number",
                             "id": "`Nwz=f,4P;d;G-h=VbPB",
                             "fields": {
                              "NUM": 0
                             }
                            }
                           }
                          }
                         }
                        },
                        "PHASE": {
                         "block": {
                          "type": "math_number",
                          "id": ".|3fJnPT@+{|L!877){B",
                          "fields": {
                           "NUM": 0
                          }
                         }
                        },
                        "MUL": {
                         "shadow": {
                          "type": "math_number",
                          "id": "AYGmH[$X5c$H#*Iu){%i",
                          "fields": {
                           "NUM": 1
                          }
                         }
                        },
                        "ADD": {
                         "shadow": {
                          "type": "math_number",
                          "id": "d^cK%H/`AiE,xvK^-h-o",
                          "fields": {
                           "NUM": 0
                          }
                         }
                        }
                       }
                      }
                     }
                    },
                    "next": {
                     "block": {
                      "type": "variables_set",
                      "id": "fU5YwXx;|:%v0T!70~uM",
                      "fields": {
                       "VAR": {
                        "id": "dZm/6F6Qo^y(Vi)cB%2Y"
                       }
                      },
                      "inputs": {
                       "VALUE": {
                        "block": {
                         "type": "Sc_Decay",
                         "id": "|+bctIbOH5Eqt/$Oh@3}",
                         "inline": true,
                         "inputs": {
                          "IN": {
                           "block": {
                            "type": "variables_get",
                            "id": "i_;weaCsbcs,`txbY#f)",
                            "fields": {
                             "VAR": {
                              "id": "z=6~1yLfdZw^@u?~8,A9"
                             }
                            }
                           }
                          },
                          "DECAYTIME": {
                           "block": {
                            "type": "math_number",
                            "id": "oh@V%2tB@EzBHZI4HQ2]",
                            "fields": {
                             "NUM": 0.004
                            }
                           }
                          },
                          "MUL": {
                           "shadow": {
                            "type": "math_number",
                            "id": "A[c4z^7A#44`)Ts2SvR.",
                            "fields": {
                             "NUM": 1
                            }
                           },
                           "block": {
                            "type": "Sc_WhiteNoise",
                            "id": "I#FurbaJgv-9UIMdp5z8",
                            "inline": true,
                            "inputs": {
                             "MUL": {
                              "shadow": {
                               "type": "math_number",
                               "id": "KOtP$IJd2K{Rhug^zxr;",
                               "fields": {
                                "NUM": 1
                               }
                              },
                              "block": {
                               "type": "math_number",
                               "id": "dRDog!?j6k(OLpLpaUj7",
                               "fields": {
                                "NUM": 0.03
                               }
                              }
                             },
                             "ADD": {
                              "shadow": {
                               "type": "math_number",
                               "id": "~-l_kkXy$R{=w}?g?S1B",
                               "fields": {
                                "NUM": 0
                               }
                              }
                             }
                            }
                           }
                          },
                          "ADD": {
                           "shadow": {
                            "type": "math_number",
                            "id": "p;6P9BKMz#1awm6uR/kE",
                            "fields": {
                             "NUM": 0
                            }
                           }
                          }
                         }
                        }
                       }
                      },
                      "next": {
                       "block": {
                        "type": "variables_set",
                        "id": "vcGxD`jtz:J!apN4obh[",
                        "fields": {
                         "VAR": {
                          "id": ";3qi)aW]}HQ{Ro:773%^"
                         }
                        },
                        "inputs": {
                         "VALUE": {
                          "block": {
                           "type": "Sc_TRand",
                           "id": "?B^.bL90Ybs[NuwH@!q^",
                           "inline": true,
                           "inputs": {
                            "LO": {
                             "block": {
                              "type": "math_number",
                              "id": "D%M7M[m`{iQd#bWK#UNd",
                              "fields": {
                               "NUM": 500
                              }
                             }
                            },
                            "HI": {
                             "block": {
                              "type": "math_number",
                              "id": "L!vSp%ZIuB}1ixeFl4g1",
                              "fields": {
                               "NUM": 2500
                              }
                             }
                            },
                            "TRIG": {
                             "block": {
                              "type": "variables_get",
                              "id": "g^/6;AgfF$T=cJZY-YgZ",
                              "fields": {
                               "VAR": {
                                "id": "wMUa~FHf:d0t8]kw?Pwb"
                               }
                              }
                             }
                            },
                            "MUL": {
                             "shadow": {
                              "type": "math_number",
                              "id": "=I4TbTB=xL89$FwIK|WM",
                              "fields": {
                               "NUM": 1
                              }
                             }
                            },
                            "ADD": {
                             "shadow": {
                              "type": "math_number",
                              "id": "^%BU.XA56uV)0AO$Pn:]",
                              "fields": {
                               "NUM": 0
                              }
                             }
                            }
                           }
                          }
                         }
                        },
                        "next": {
                         "block": {
                          "type": "variables_set",
                          "id": "]RR`o8Zd[p^MtA/tum,6",
                          "fields": {
                           "VAR": {
                            "id": "JNZ{Lm`HXgcVQDSUco.A"
                           }
                          },
                          "inputs": {
                           "VALUE": {
                            "block": {
                             "type": "Sc_TRand",
                             "id": "NODVx9Y(q/Ug}`7Ry-Nk",
                             "inline": true,
                             "inputs": {
                              "LO": {
                               "block": {
                                "type": "math_number",
                                "id": "ov:,VD{JEjv70}j+E*%o",
                                "fields": {
                                 "NUM": 0
                                }
                               }
                              },
                              "HI": {
                               "block": {
                                "type": "math_number",
                                "id": "TsN*Ac|AP*3EE9cp[8O]",
                                "fields": {
                                 "NUM": 8000
                                }
                               }
                              },
                              "TRIG": {
                               "block": {
                                "type": "variables_get",
                                "id": "l1$Gg0Ty#wzu*{E[=O11",
                                "fields": {
                                 "VAR": {
                                  "id": "wMUa~FHf:d0t8]kw?Pwb"
                                 }
                                }
                               }
                              },
                              "MUL": {
                               "shadow": {
                                "type": "math_number",
                                "id": "B/xJH2,TE0dcA2ET3}s!",
                                "fields": {
                                 "NUM": 1
                                }
                               }
                              },
                              "ADD": {
                               "shadow": {
                                "type": "math_number",
                                "id": "vlU;-d=%CmcB81LirrJP",
                                "fields": {
                                 "NUM": 0
                                }
                               }
                              }
                             }
                            }
                           }
                          }
                         }
                        }
                       }
                      }
                     }
                    }
                   }
                  },
                  "RETURN": {
                   "block": {
                    "type": "Sc_ArrayFill",
                    "id": "-nFuad@IWFU{(80|vaM?",
                    "inline": false,
                    "inputs": {
                     "PROC": {
                      "block": {
                       "type": "Sc_Proc0",
                       "id": "C{d@ctQ-uwhr,v5vfsLW",
                       "inline": false,
                       "inputs": {
                        "RETURN": {
                         "block": {
                          "type": "Sc_ArrayProc1",
                          "id": "Q^%r_GvSJzUPl?XN,X6~",
                          "fields": {
                           "OP": "sum"
                          },
                          "inputs": {
                           "IN": {
                            "block": {
                             "type": "Sc_ArrayFill",
                             "id": "@plWnd(5.d+g;p5Qf8wW",
                             "inline": false,
                             "inputs": {
                              "PROC": {
                               "block": {
                                "type": "Sc_Proc0",
                                "id": ":#sC[e+;uf8xS7n!uM.T",
                                "inline": false,
                                "inputs": {
                                 "RETURN": {
                                  "block": {
                                   "type": "Sc_Ringz",
                                   "id": "%_)_v#6AO)kVUt09fP,T",
                                   "inline": false,
                                   "inputs": {
                                    "IN": {
                                     "block": {
                                      "type": "variables_get",
                                      "id": "nb|j524v!-,h(L$wX|e/",
                                      "fields": {
                                       "VAR": {
                                        "id": "dZm/6F6Qo^y(Vi)cB%2Y"
                                       }
                                      }
                                     }
                                    },
                                    "FREQ": {
                                     "block": {
                                      "type": "Sc_BinaryOp",
                                      "id": "i|*hGqTROZqk@+iN2HwB",
                                      "inline": true,
                                      "fields": {
                                       "OP": "+"
                                      },
                                      "inputs": {
                                       "LHS": {
                                        "block": {
                                         "type": "variables_get",
                                         "id": "E)=!{T)gz0`=JWP%oRv:",
                                         "fields": {
                                          "VAR": {
                                           "id": ";3qi)aW]}HQ{Ro:773%^"
                                          }
                                         }
                                        }
                                       },
                                       "RHS": {
                                        "block": {
                                         "type": "Sc_TRand",
                                         "id": "uK@mS-WqH)?Uh9:k^^mm",
                                         "inline": true,
                                         "inputs": {
                                          "LO": {
                                           "block": {
                                            "type": "math_number",
                                            "id": "Qb]Hf:ZpSxQ(CchI212y",
                                            "fields": {
                                             "NUM": 0
                                            }
                                           }
                                          },
                                          "HI": {
                                           "block": {
                                            "type": "variables_get",
                                            "id": "nR;s!!htP?l3:gp6gcE5",
                                            "fields": {
                                             "VAR": {
                                              "id": "JNZ{Lm`HXgcVQDSUco.A"
                                             }
                                            }
                                           }
                                          },
                                          "TRIG": {
                                           "block": {
                                            "type": "variables_get",
                                            "id": ":);~[P5M=-0j8}mz.rr7",
                                            "fields": {
                                             "VAR": {
                                              "id": "wMUa~FHf:d0t8]kw?Pwb"
                                             }
                                            }
                                           }
                                          },
                                          "MUL": {
                                           "shadow": {
                                            "type": "math_number",
                                            "id": "51)B[6+9A{Oua6Zo:F++",
                                            "fields": {
                                             "NUM": 1
                                            }
                                           }
                                          },
                                          "ADD": {
                                           "shadow": {
                                            "type": "math_number",
                                            "id": "ln8kk5ocifye9(|AWV_?",
                                            "fields": {
                                             "NUM": 0
                                            }
                                           }
                                          }
                                         }
                                        }
                                       }
                                      }
                                     }
                                    },
                                    "DECAYTIME": {
                                     "block": {
                                      "type": "Sc_TRand",
                                      "id": "a6fWhBw;Cd),zDjZbb6U",
                                      "inline": true,
                                      "inputs": {
                                       "LO": {
                                        "block": {
                                         "type": "math_number",
                                         "id": "sR`;51f%nHL)$$3*_LP7",
                                         "fields": {
                                          "NUM": 1
                                         }
                                        }
                                       },
                                       "HI": {
                                        "block": {
                                         "type": "math_number",
                                         "id": "vf7=-4)rl%BLNPuZaU-k",
                                         "fields": {
                                          "NUM": 5
                                         }
                                        }
                                       },
                                       "TRIG": {
                                        "block": {
                                         "type": "variables_get",
                                         "id": "!$VNHJcHp@}{IGksA,uZ",
                                         "fields": {
                                          "VAR": {
                                           "id": "wMUa~FHf:d0t8]kw?Pwb"
                                          }
                                         }
                                        }
                                       },
                                       "MUL": {
                                        "shadow": {
                                         "type": "math_number",
                                         "id": "q44+~7mKEB93.;um~RD0",
                                         "fields": {
                                          "NUM": 1
                                         }
                                        }
                                       },
                                       "ADD": {
                                        "shadow": {
                                         "type": "math_number",
                                         "id": "+kx%EiD81z(f6(`ise?n",
                                         "fields": {
                                          "NUM": 0
                                         }
                                        }
                                       }
                                      }
                                     }
                                    },
                                    "MUL": {
                                     "shadow": {
                                      "type": "math_number",
                                      "id": "`#f?GDO*4ot~,}J8sa~8",
                                      "fields": {
                                       "NUM": 1
                                      }
                                     },
                                     "block": {
                                      "type": "math_number",
                                      "id": "E4,?BedbEQNxkwwC~3L6",
                                      "fields": {
                                       "NUM": 0.1
                                      }
                                     }
                                    },
                                    "ADD": {
                                     "shadow": {
                                      "type": "math_number",
                                      "id": "]:)*U(NMNzSgcNcsYbbm",
                                      "fields": {
                                       "NUM": 0
                                      }
                                     }
                                    }
                                   }
                                  }
                                 }
                                }
                               }
                              },
                              "COUNT": {
                               "block": {
                                "type": "variables_get",
                                "id": "|2wByFY73]`sGJq5!3jF",
                                "fields": {
                                 "VAR": {
                                  "id": "I5n3WhQS2a|suhGQjV5E"
                                 }
                                }
                               }
                              }
                             }
                            }
                           }
                          }
                         }
                        }
                       }
                      }
                     },
                     "COUNT": {
                      "block": {
                       "type": "math_number",
                       "id": "4SB8=it_W|jtnk(kxx!J",
                       "fields": {
                        "NUM": 2
                       }
                      }
                     }
                    }
                   }
                  }
                 }
                }
               },
               "SUSTAINTIME": {
                "block": {
                 "type": "math_number",
                 "id": "DeQC-4gWe%t?~^]j[upN",
                 "fields": {
                  "NUM": 4
                 }
                }
               },
               "TRANSITIONTIME": {
                "block": {
                 "type": "math_number",
                 "id": "oQm,+Jr`sVdtv=_sEJVx",
                 "fields": {
                  "NUM": 4
                 }
                }
               },
               "OVERLAP": {
                "block": {
                 "type": "math_number",
                 "id": "SyPOGFfB*_90$f:{E_(C",
                 "fields": {
                  "NUM": 3
                 }
                }
               }
              }
             }
            }
           }
          }
         }
        }
       }
      }
     }
    }
   }
  ]
 },
 "variables": [
  {
   "name": "p",
   "id": "I5n3WhQS2a|suhGQjV5E"
  },
  {
   "name": "tr",
   "id": "wMUa~FHf:d0t8]kw?Pwb"
  },
  {
   "name": "i",
   "id": "z=6~1yLfdZw^@u?~8,A9"
  },
  {
   "name": "s",
   "id": "dZm/6F6Qo^y(Vi)cB%2Y"
  },
  {
   "name": "f1",
   "id": ";3qi)aW]}HQ{Ro:773%^"
  },
  {
   "name": "f2",
   "id": "JNZ{Lm`HXgcVQDSUco.A"
  }
 ]
}
