{
 "blocks": {
  "languageVersion": 0,
  "blocks": [
   {
    "type": "Sc_Comment",
    "id": "t]A|/tL64qXJ]gF6~WMO",
    "x": -1495,
    "y": -307,
    "fields": {
     "COMMENT": "Pond life (Jmcc)"
    },
    "next": {
     "block": {
      "type": "variables_set",
      "id": "-?tH)PKbx5TX]RYD[as{",
      "fields": {
       "VAR": {
        "id": "Y[llT(fmi0sMha)EUYG}"
       }
      },
      "inputs": {
       "VALUE": {
        "block": {
         "type": "Sc_SinOsc",
         "id": "}/Y]?.*z;@G`Y$79g[W5",
         "inline": false,
         "inputs": {
          "FREQ": {
           "block": {
            "type": "Sc_Rand",
            "id": "qpUk_$vRrsDVG$IQ*xPU",
            "inline": true,
            "inputs": {
             "LO": {
              "block": {
               "type": "math_number",
               "id": "1BZ;(XvCiM4cGrre6qTB",
               "fields": {
                "NUM": 20
               }
              }
             },
             "HI": {
              "block": {
               "type": "math_number",
               "id": "tQ*t3ZTvdn@;fwC0Yk~A",
               "fields": {
                "NUM": 50
               }
              }
             },
             "MUL": {
              "block": {
               "type": "math_number",
               "id": "ps+/(qpP+hR)]K6QrhS`",
               "fields": {
                "NUM": 1
               }
              }
             },
             "ADD": {
              "block": {
               "type": "math_number",
               "id": "96|^b%Rp;u:Ik?4(yrYT",
               "fields": {
                "NUM": 0
               }
              }
             }
            }
           }
          },
          "PHASE": {
           "block": {
            "type": "math_number",
            "id": "KW$G:p3GiG?Q2Cioj8D?",
            "fields": {
             "NUM": 0
            }
           }
          },
          "MUL": {
           "block": {
            "type": "Sc_Rand",
            "id": ",W=(/NAZ*ab9v32Icm%a",
            "inline": true,
            "inputs": {
             "LO": {
              "block": {
               "type": "math_number",
               "id": "A@r7H9XTG6BN|$_-db9L",
               "fields": {
                "NUM": 100
               }
              }
             },
             "HI": {
              "block": {
               "type": "math_number",
               "id": "!h_E{a1?(nr-y,CB.ItC",
               "fields": {
                "NUM": 400
               }
              }
             },
             "MUL": {
              "block": {
               "type": "math_number",
               "id": "k?w2XU#j`~F7c%`=jH@Y",
               "fields": {
                "NUM": 1
               }
              }
             },
             "ADD": {
              "block": {
               "type": "math_number",
               "id": "Ka?6yu7dgwB!a;Qj|6X+",
               "fields": {
                "NUM": 0
               }
              }
             }
            }
           }
          },
          "ADD": {
           "block": {
            "type": "Sc_LinRand",
            "id": "B/l-DJl_s!sIa|tBWNn+",
            "inline": true,
            "inputs": {
             "LO": {
              "block": {
               "type": "math_number",
               "id": "~AHdMcp8Zb1sl):xn{O=",
               "fields": {
                "NUM": 500
               }
              }
             },
             "HI": {
              "block": {
               "type": "math_number",
               "id": "W/cz;Be%Gqan92GX!:+d",
               "fields": {
                "NUM": 2500
               }
              }
             },
             "MINMAX": {
              "block": {
               "type": "math_number",
               "id": "xiM::x2Ozy7]4`c6Ep$R",
               "fields": {
                "NUM": 0
               }
              }
             },
             "MUL": {
              "block": {
               "type": "math_number",
               "id": "3TEVa/,JWMwntYv]o[;B",
               "fields": {
                "NUM": 1
               }
              }
             },
             "ADD": {
              "block": {
               "type": "math_number",
               "id": "a~0)MdycssWgLHyK4VI:",
               "fields": {
                "NUM": 0
               }
              }
             }
            }
           }
          }
         }
        }
       }
      },
      "next": {
       "block": {
        "type": "variables_set",
        "id": "RZ.6ya`U-gxI.SeWRe.8",
        "fields": {
         "VAR": {
          "id": "Z(v+]00jgXrF*d3vp]38"
         }
        },
        "inputs": {
         "VALUE": {
          "block": {
           "type": "Sc_SinOsc",
           "id": "TWNG;63R*8tpx#TBI?|+",
           "inline": false,
           "inputs": {
            "FREQ": {
             "block": {
              "type": "variables_get",
              "id": "v|X}D7eb=8g3LK[Kltu/",
              "fields": {
               "VAR": {
                "id": "Y[llT(fmi0sMha)EUYG}"
               }
              }
             }
            },
            "PHASE": {
             "block": {
              "type": "math_number",
              "id": "1o8,t=)Dk-Xfw?871X0}",
              "fields": {
               "NUM": 0
              }
             }
            },
            "MUL": {
             "block": {
              "type": "Sc_LFPulse",
              "id": "(h4VzZzACD~byn8.0Ct|",
              "inline": false,
              "inputs": {
               "FREQ": {
                "block": {
                 "type": "Sc_Rand",
                 "id": ")dnXV|!;Y/8O|A+XkWl3",
                 "inline": true,
                 "inputs": {
                  "LO": {
                   "block": {
                    "type": "math_number",
                    "id": "}N]E$MJPvNDSIjj3jp7:",
                    "fields": {
                     "NUM": 1
                    }
                   }
                  },
                  "HI": {
                   "block": {
                    "type": "math_number",
                    "id": "cIQezjOcFl5*od{rO91@",
                    "fields": {
                     "NUM": 9
                    }
                   }
                  },
                  "MUL": {
                   "block": {
                    "type": "math_number",
                    "id": "Kc-]A3ZgQLErXSYs#0QZ",
                    "fields": {
                     "NUM": 0.33
                    }
                   }
                  },
                  "ADD": {
                   "block": {
                    "type": "math_number",
                    "id": "X,=R#_5C9]}gJ49?u+Or",
                    "fields": {
                     "NUM": 0
                    }
                   }
                  }
                 }
                }
               },
               "IPHASE": {
                "block": {
                 "type": "math_number",
                 "id": "Q.Z6+tgWtaJw:g~o+5_M",
                 "fields": {
                  "NUM": 0
                 }
                }
               },
               "WIDTH": {
                "block": {
                 "type": "Sc_Rand",
                 "id": "~RA`wgqeIJkP8Ih*d]iv",
                 "inline": true,
                 "inputs": {
                  "LO": {
                   "block": {
                    "type": "math_number",
                    "id": ".4hXyW!:?amC=9AlBc^S",
                    "fields": {
                     "NUM": 0.2
                    }
                   }
                  },
                  "HI": {
                   "block": {
                    "type": "math_number",
                    "id": "CXCdI{Q142fd~6}:eryY",
                    "fields": {
                     "NUM": 0.5
                    }
                   }
                  },
                  "MUL": {
                   "block": {
                    "type": "math_number",
                    "id": "b!Z/#.C:2h;I.a4usTn+",
                    "fields": {
                     "NUM": 1
                    }
                   }
                  },
                  "ADD": {
                   "block": {
                    "type": "math_number",
                    "id": "U7F@GFvq{^2F5-hK~z]y",
                    "fields": {
                     "NUM": 0
                    }
                   }
                  }
                 }
                }
               },
               "MUL": {
                "block": {
                 "type": "math_number",
                 "id": "R%Y7(`|?I2dw*)t40WA5",
                 "fields": {
                  "NUM": 0.04
                 }
                }
               },
               "ADD": {
                "block": {
                 "type": "math_number",
                 "id": "0SIn|JZCKTCer--a@RDk",
                 "fields": {
                  "NUM": 0
                 }
                }
               }
              }
             }
            },
            "ADD": {
             "block": {
              "type": "math_number",
              "id": "PNwO@Pq8),MF#6*bcu5d",
              "fields": {
               "NUM": 0
              }
             }
            }
           }
          }
         }
        },
        "next": {
         "block": {
          "type": "Sc_Play",
          "id": "9/Z%=ZzE]1clDz5Th{Ks",
          "inputs": {
           "CODE": {
            "block": {
             "type": "Sc_Pan2",
             "id": "6zxfg2NKvP;YVut.zL7Y",
             "inline": true,
             "inputs": {
              "IN": {
               "block": {
                "type": "variables_get",
                "id": "@cBya5cw5wl-K;*?|[Em",
                "fields": {
                 "VAR": {
                  "id": "Z(v+]00jgXrF*d3vp]38"
                 }
                }
               }
              },
              "POS": {
               "block": {
                "type": "Sc_Rand",
                "id": "6MtYn?44O)P_4)#,aNx=",
                "inline": true,
                "inputs": {
                 "LO": {
                  "block": {
                   "type": "math_number",
                   "id": "52?u@bL6x}@|;Ks8C@](",
                   "fields": {
                    "NUM": -1
                   }
                  }
                 },
                 "HI": {
                  "block": {
                   "type": "math_number",
                   "id": "iGv/=bNwE]jYgSgk[b@d",
                   "fields": {
                    "NUM": 1
                   }
                  }
                 },
                 "MUL": {
                  "block": {
                   "type": "math_number",
                   "id": "/7mdOUhEf?s8yyI#dI?{",
                   "fields": {
                    "NUM": 1
                   }
                  }
                 },
                 "ADD": {
                  "block": {
                   "type": "math_number",
                   "id": "*wkg8h[eYYXpXgTJzA{%",
                   "fields": {
                    "NUM": 0
                   }
                  }
                 }
                }
               }
              },
              "LEVEL": {
               "block": {
                "type": "math_number",
                "id": ":Tr%nzvhuvU;]Q#!}8dw",
                "fields": {
                 "NUM": 1
                }
               }
              },
              "MUL": {
               "block": {
                "type": "math_number",
                "id": "@;t!c}p.9b:-o*k%b0Lh",
                "fields": {
                 "NUM": 1
                }
               }
              },
              "ADD": {
               "block": {
                "type": "math_number",
                "id": "H59D6KqOK(/:xJ.aY@qh",
                "fields": {
                 "NUM": 0
                }
               }
              }
             }
            }
           }
          }
         }
        }
       }
      }
     }
    }
   }
  ]
 },
 "variables": [
  {
   "name": "f",
   "id": "Y[llT(fmi0sMha)EUYG}"
  },
  {
   "name": "o",
   "id": "Z(v+]00jgXrF*d3vp]38"
  }
 ]
}
