{
 "blocks": {
  "languageVersion": 0,
  "blocks": [
   {
    "type": "Sc_Comment",
    "id": "p`kfB5#Mu+D8.|~Ri-}3",
    "x": 0,
    "y": 0,
    "fields": {
     "COMMENT": "Clipped inharmonic warbulence ; Jmcc"
    },
    "next": {
     "block": {
      "type": "variables_set",
      "id": "hTpw,w~*zF)m=/yU%CjK",
      "fields": {
       "VAR": {
        "id": "|ll%#t+,a}VK,VTy%nc%"
       }
      },
      "inputs": {
       "VALUE": {
        "block": {
         "type": "Sc_Mix",
         "id": "OZapsZ+1Ug#CT3A`S%bz",
         "inline": false,
         "inputs": {
          "INARRAY": {
           "shadow": {
            "type": "math_number",
            "id": "C)3Ug_+@;8_Jk14i=:l|",
            "fields": {
             "NUM": 0
            }
           },
           "block": {
            "type": "Sc_OverlapTexture",
            "id": "ht~y9#W3VkZ6+C[?|Mj}",
            "inline": false,
            "inputs": {
             "PROC": {
              "block": {
               "type": "Sc_Proc1Stm",
               "id": "xgB@B}y1+v2K(XB?fL!f",
               "inputs": {
                "VAR": {
                 "block": {
                  "type": "variables_get",
                  "id": "Q_`XxCa{J#Z5S,{*!9k$",
                  "fields": {
                   "VAR": {
                    "id": "eorq9~NWH.LG3}wr^/^:"
                   }
                  }
                 }
                },
                "STATEMENTS": {
                 "block": {
                  "type": "variables_set",
                  "id": "Bw:EJ]xq=gv?=U3krwG{",
                  "fields": {
                   "VAR": {
                    "id": "s:4^EJq)c=aJn9e{fL1?"
                   }
                  },
                  "inputs": {
                   "VALUE": {
                    "block": {
                     "type": "Sc_LinExp",
                     "id": "0i{K{gK(e$Lc)hvDX^dn",
                     "inline": true,
                     "inputs": {
                      "IN": {
                       "block": {
                        "type": "Sc_LFNoise1",
                        "id": "d`/o)Kj*kZ3m6kpKB^,j",
                        "inline": true,
                        "inputs": {
                         "FREQ": {
                          "block": {
                           "type": "Sc_BinaryOp",
                           "id": ")GG77JUzN3PsH%ls/:wB",
                           "inline": true,
                           "fields": {
                            "OP": "/"
                           },
                           "inputs": {
                            "LHS": {
                             "block": {
                              "type": "math_number",
                              "id": "mrbR2`kxURSg(Qj|drz6",
                              "fields": {
                               "NUM": 1
                              }
                             }
                            },
                            "RHS": {
                             "block": {
                              "type": "math_number",
                              "id": "2c9An=HH@ucNX0jc*8Vp",
                              "fields": {
                               "NUM": 16
                              }
                             }
                            }
                           }
                          }
                         },
                         "MUL": {
                          "shadow": {
                           "type": "math_number",
                           "id": "]}`M^pyCOE~dn7-g*.1z",
                           "fields": {
                            "NUM": 1
                           }
                          }
                         },
                         "ADD": {
                          "shadow": {
                           "type": "math_number",
                           "id": ")1R.~_b9kkUmf5m*V-$y",
                           "fields": {
                            "NUM": 0
                           }
                          }
                         }
                        }
                       }
                      },
                      "SRCLO": {
                       "block": {
                        "type": "math_number",
                        "id": "Slb:CgIiLNb6BofggXOG",
                        "fields": {
                         "NUM": -1
                        }
                       }
                      },
                      "SRCHI": {
                       "block": {
                        "type": "math_number",
                        "id": "/$~[B2Yb0k;@w)QfoHId",
                        "fields": {
                         "NUM": 1
                        }
                       }
                      },
                      "DSTLO": {
                       "block": {
                        "type": "math_number",
                        "id": "oAX1=u}KvNTig$Wcsp$o",
                        "fields": {
                         "NUM": 0.1
                        }
                       }
                      },
                      "DSTHI": {
                       "block": {
                        "type": "math_number",
                        "id": "BNeK4-?[`qW`EX.#NaQ0",
                        "fields": {
                         "NUM": 20
                        }
                       }
                      },
                      "MUL": {
                       "shadow": {
                        "type": "math_number",
                        "id": "s*[%=QFWES8Ujw{co5Ol",
                        "fields": {
                         "NUM": 1
                        }
                       }
                      },
                      "ADD": {
                       "shadow": {
                        "type": "math_number",
                        "id": "0Od2c)ObBt%S#zEv`q4s",
                        "fields": {
                         "NUM": 0
                        }
                       }
                      }
                     }
                    }
                   }
                  },
                  "next": {
                   "block": {
                    "type": "variables_set",
                    "id": "2vl_FK=XbhGR%d_Vu#n?",
                    "fields": {
                     "VAR": {
                      "id": ",KKHL*4tM2AUok)++R^v"
                     }
                    },
                    "inputs": {
                     "VALUE": {
                      "block": {
                       "type": "Sc_UnaryOp",
                       "id": "9*1~O*xR[*;h{=U08x{u",
                       "fields": {
                        "OP": "MidiCps"
                       },
                       "inputs": {
                        "IN": {
                         "block": {
                          "type": "Sc_TRand",
                          "id": "c0)O{Vxn`nDPB7sy?RIv",
                          "inline": true,
                          "inputs": {
                           "LO": {
                            "block": {
                             "type": "math_number",
                             "id": "|-#rs(/Zc$hI[99d*D7b",
                             "fields": {
                              "NUM": 24
                             }
                            }
                           },
                           "HI": {
                            "block": {
                             "type": "math_number",
                             "id": "{%|UpG7}:#Ii~]lx#=:4",
                             "fields": {
                              "NUM": 96
                             }
                            }
                           },
                           "TRIG": {
                            "block": {
                             "type": "variables_get",
                             "id": "}BTz$1%[CzF~k|{C/`-T",
                             "fields": {
                              "VAR": {
                               "id": "eorq9~NWH.LG3}wr^/^:"
                              }
                             }
                            }
                           },
                           "MUL": {
                            "shadow": {
                             "type": "math_number",
                             "id": "42qRgU!c|*ZaqNBw`c#Y",
                             "fields": {
                              "NUM": 1
                             }
                            }
                           },
                           "ADD": {
                            "shadow": {
                             "type": "math_number",
                             "id": "O_T]@i!;DZ!s3a7HFCFu",
                             "fields": {
                              "NUM": 0
                             }
                            }
                           }
                          }
                         }
                        }
                       }
                      }
                     }
                    },
                    "next": {
                     "block": {
                      "type": "variables_set",
                      "id": "uFrHG@w-/~n.Q;k%ASJb",
                      "fields": {
                       "VAR": {
                        "id": "M8pQRb7(%hXeBk*X;adh"
                       }
                      },
                      "inputs": {
                       "VALUE": {
                        "block": {
                         "type": "Sc_BinaryOp",
                         "id": "9IS1BE.Ao=Wn5T6??=Hx",
                         "inline": true,
                         "fields": {
                          "OP": "Min"
                         },
                         "inputs": {
                          "LHS": {
                           "block": {
                            "type": "Sc_BinaryOp",
                            "id": "YY^L[JQDjatK(^4rj%?!",
                            "inline": true,
                            "fields": {
                             "OP": "/"
                            },
                            "inputs": {
                             "LHS": {
                              "block": {
                               "type": "math_number",
                               "id": "(~0;jv$Vc^MW]Bjp_Zb7",
                               "fields": {
                                "NUM": 500
                               }
                              }
                             },
                             "RHS": {
                              "block": {
                               "type": "variables_get",
                               "id": "pVo`U8~qDGToPIHpIiRp",
                               "fields": {
                                "VAR": {
                                 "id": ",KKHL*4tM2AUok)++R^v"
                                }
                               }
                              }
                             }
                            }
                           }
                          },
                          "RHS": {
                           "block": {
                            "type": "math_number",
                            "id": "t~371wUml|!;H;sX?I$a",
                            "fields": {
                             "NUM": 1
                            }
                           }
                          }
                         }
                        }
                       }
                      },
                      "next": {
                       "block": {
                        "type": "variables_set",
                        "id": "m`#ULXmLdh[q8;kJX:}5",
                        "fields": {
                         "VAR": {
                          "id": "KQ3]pv3G{GDh[YBw6*r|"
                         }
                        },
                        "inputs": {
                         "VALUE": {
                          "block": {
                           "type": "math_number",
                           "id": "t]~ZC]rIw|-8hR2Pj76F",
                           "fields": {
                            "NUM": 12
                           }
                          }
                         }
                        }
                       }
                      }
                     }
                    }
                   }
                  }
                 }
                },
                "RETURN": {
                 "block": {
                  "type": "Sc_BinaryOp",
                  "id": "tq2@|lSx@dU6mZ{R0Da|",
                  "inline": false,
                  "fields": {
                   "OP": "*"
                  },
                  "inputs": {
                   "LHS": {
                    "block": {
                     "type": "variables_get",
                     "id": "0sD.(RfsT6QTj%26H))q",
                     "fields": {
                      "VAR": {
                       "id": "M8pQRb7(%hXeBk*X;adh"
                      }
                     }
                    }
                   },
                   "RHS": {
                    "block": {
                     "type": "Sc_ArrayProc1",
                     "id": "T8YKlb;Qe73tdv8`j,,O",
                     "fields": {
                      "OP": "sum"
                     },
                     "inputs": {
                      "IN": {
                       "block": {
                        "type": "Sc_ArrayProc2",
                        "id": "b{-|s[e;xv{X0HI%8j;X",
                        "inline": false,
                        "fields": {
                         "OP": "collect"
                        },
                        "inputs": {
                         "LHS": {
                          "block": {
                           "type": "Sc_ArrayFromTo",
                           "id": "bRe(htDGRL}iJ{3rX.HS",
                           "inline": true,
                           "inputs": {
                            "FROM": {
                             "block": {
                              "type": "math_number",
                              "id": "@n)9AGV7BWfbbL[o3JMW",
                              "fields": {
                               "NUM": 1
                              }
                             }
                            },
                            "TO": {
                             "block": {
                              "type": "variables_get",
                              "id": "c]lbd.HVLsRt{O=fugVG",
                              "fields": {
                               "VAR": {
                                "id": "KQ3]pv3G{GDh[YBw6*r|"
                               }
                              }
                             }
                            }
                           }
                          }
                         },
                         "RHS": {
                          "block": {
                           "type": "Sc_Proc1Stm",
                           "id": "W^KF9;k*{O2ZdH.MsRQY",
                           "inputs": {
                            "VAR": {
                             "block": {
                              "type": "variables_get",
                              "id": "HyTL.-Uky!XD!J;8uid0",
                              "fields": {
                               "VAR": {
                                "id": "$*:^3umtj}Ld0]FRV:2v"
                               }
                              }
                             }
                            },
                            "STATEMENTS": {
                             "block": {
                              "type": "variables_set",
                              "id": "}NHyGmI-F];49Cn9!DMf",
                              "fields": {
                               "VAR": {
                                "id": "GzVs^Sb9C(2|X^1/)$u3"
                               }
                              },
                              "inputs": {
                               "VALUE": {
                                "block": {
                                 "type": "Sc_BinaryOp",
                                 "id": "LsA[w2[Ht`a.|+R)pcw@",
                                 "inline": true,
                                 "fields": {
                                  "OP": "+"
                                 },
                                 "inputs": {
                                  "LHS": {
                                   "block": {
                                    "type": "Sc_TRand",
                                    "id": "NLL.{QMIAsL%KH-zjSa4",
                                    "inline": true,
                                    "inputs": {
                                     "LO": {
                                      "block": {
                                       "type": "math_number",
                                       "id": "Jz}5cfD?N3:+lIcmK+~*",
                                       "fields": {
                                        "NUM": 0
                                       }
                                      }
                                     },
                                     "HI": {
                                      "block": {
                                       "type": "variables_get",
                                       "id": "0TxBR4Ih]B(H_Q~rD]^4",
                                       "fields": {
                                        "VAR": {
                                         "id": "KQ3]pv3G{GDh[YBw6*r|"
                                        }
                                       }
                                      }
                                     },
                                     "TRIG": {
                                      "block": {
                                       "type": "variables_get",
                                       "id": "7[?pD%q{2`.](@.@-wx~",
                                       "fields": {
                                        "VAR": {
                                         "id": "eorq9~NWH.LG3}wr^/^:"
                                        }
                                       }
                                      }
                                     },
                                     "MUL": {
                                      "shadow": {
                                       "type": "math_number",
                                       "id": "`*71HMOL]-jbc$C~yL(7",
                                       "fields": {
                                        "NUM": 1
                                       }
                                      }
                                     },
                                     "ADD": {
                                      "shadow": {
                                       "type": "math_number",
                                       "id": "1lDBslz^fJIcjFy1BRj}",
                                       "fields": {
                                        "NUM": 0
                                       }
                                      }
                                     }
                                    }
                                   }
                                  },
                                  "RHS": {
                                   "block": {
                                    "type": "math_number",
                                    "id": "~!538hfzY]FgoN?PQ~^p",
                                    "fields": {
                                     "NUM": 1
                                    }
                                   }
                                  }
                                 }
                                }
                               }
                              },
                              "next": {
                               "block": {
                                "type": "variables_set",
                                "id": "wg,M%:W092R$p74zxmk0",
                                "fields": {
                                 "VAR": {
                                  "id": "Cfl|C344GrnR1r^ryH4T"
                                 }
                                },
                                "inputs": {
                                 "VALUE": {
                                  "block": {
                                   "type": "Sc_BinaryOp",
                                   "id": "l_yUmqASLy2s3q6rCNJ9",
                                   "inline": false,
                                   "fields": {
                                    "OP": "Max"
                                   },
                                   "inputs": {
                                    "LHS": {
                                     "block": {
                                      "type": "Sc_SinOsc",
                                      "id": "Tr6,]t?zU?!750FBxDF=",
                                      "inline": false,
                                      "inputs": {
                                       "FREQ": {
                                        "block": {
                                         "type": "Sc_BinaryOp",
                                         "id": "7(4AH~}LFp0D{Q~{|T)a",
                                         "inline": true,
                                         "fields": {
                                          "OP": "*"
                                         },
                                         "inputs": {
                                          "LHS": {
                                           "block": {
                                            "type": "variables_get",
                                            "id": "IaD1ZRoTEuAX4:tP^MPI",
                                            "fields": {
                                             "VAR": {
                                              "id": ",KKHL*4tM2AUok)++R^v"
                                             }
                                            }
                                           }
                                          },
                                          "RHS": {
                                           "block": {
                                            "type": "variables_get",
                                            "id": "+:NdX..+X^xsp6o`5c[8",
                                            "fields": {
                                             "VAR": {
                                              "id": "GzVs^Sb9C(2|X^1/)$u3"
                                             }
                                            }
                                           }
                                          }
                                         }
                                        }
                                       },
                                       "PHASE": {
                                        "block": {
                                         "type": "math_number",
                                         "id": "C/!B@hQMPU+xMo4S/@CP",
                                         "fields": {
                                          "NUM": 0
                                         }
                                        }
                                       },
                                       "MUL": {
                                        "shadow": {
                                         "type": "math_number",
                                         "id": "W{gg(/U2|$-`zq?ZOOqT",
                                         "fields": {
                                          "NUM": 1
                                         }
                                        },
                                        "block": {
                                         "type": "Sc_BinaryOp",
                                         "id": ")+CGKSlebigNEwCBC_{U",
                                         "inline": false,
                                         "fields": {
                                          "OP": "Max"
                                         },
                                         "inputs": {
                                          "LHS": {
                                           "block": {
                                            "type": "Sc_SinOsc",
                                            "id": "4I9LI@Q6SyFWk+gH-=7s",
                                            "inline": false,
                                            "inputs": {
                                             "FREQ": {
                                              "block": {
                                               "type": "Sc_BinaryOp",
                                               "id": "/f(sv_ngF+9aS*W?2,Gh",
                                               "inline": true,
                                               "fields": {
                                                "OP": "*"
                                               },
                                               "inputs": {
                                                "LHS": {
                                                 "block": {
                                                  "type": "variables_get",
                                                  "id": "pNXEk/OmL}Clyf6W;wJ]",
                                                  "fields": {
                                                   "VAR": {
                                                    "id": "s:4^EJq)c=aJn9e{fL1?"
                                                   }
                                                  }
                                                 }
                                                },
                                                "RHS": {
                                                 "block": {
                                                  "type": "Sc_TRand",
                                                  "id": "t*4{p]+NTYz|!7Iv{~;Z",
                                                  "inline": true,
                                                  "inputs": {
                                                   "LO": {
                                                    "block": {
                                                     "type": "math_number",
                                                     "id": "r1*|6z9xQ.CFEB1fA-.8",
                                                     "fields": {
                                                      "NUM": 0.9
                                                     }
                                                    }
                                                   },
                                                   "HI": {
                                                    "block": {
                                                     "type": "math_number",
                                                     "id": "H[(35AX1V+K9fK+!F^.F",
                                                     "fields": {
                                                      "NUM": 1.1
                                                     }
                                                    }
                                                   },
                                                   "TRIG": {
                                                    "block": {
                                                     "type": "variables_get",
                                                     "id": "=981;z0h6d31Z~t-{2M6",
                                                     "fields": {
                                                      "VAR": {
                                                       "id": "eorq9~NWH.LG3}wr^/^:"
                                                      }
                                                     }
                                                    }
                                                   },
                                                   "MUL": {
                                                    "shadow": {
                                                     "type": "math_number",
                                                     "id": "LX12.!wFUhBx?[J)o)S,",
                                                     "fields": {
                                                      "NUM": 1
                                                     }
                                                    }
                                                   },
                                                   "ADD": {
                                                    "shadow": {
                                                     "type": "math_number",
                                                     "id": "+#2Z0*;+wPKN%vCAU-;b",
                                                     "fields": {
                                                      "NUM": 0
                                                     }
                                                    }
                                                   }
                                                  }
                                                 }
                                                }
                                               }
                                              }
                                             },
                                             "PHASE": {
                                              "block": {
                                               "type": "Sc_TRand",
                                               "id": "SkJ6g%!53E`)|WI^3+mF",
                                               "inline": true,
                                               "inputs": {
                                                "LO": {
                                                 "block": {
                                                  "type": "math_number",
                                                  "id": "PI}iLKEdRm,^X|$@$]2{",
                                                  "fields": {
                                                   "NUM": 0
                                                  }
                                                 }
                                                },
                                                "HI": {
                                                 "block": {
                                                  "type": "Sc_Constant",
                                                  "id": "){R~dh$9~iv~q8kGFtVv",
                                                  "fields": {
                                                   "CONST": "twoPi"
                                                  }
                                                 }
                                                },
                                                "TRIG": {
                                                 "block": {
                                                  "type": "variables_get",
                                                  "id": "0b}{zCSZK{4yiqDXaXSb",
                                                  "fields": {
                                                   "VAR": {
                                                    "id": "eorq9~NWH.LG3}wr^/^:"
                                                   }
                                                  }
                                                 }
                                                },
                                                "MUL": {
                                                 "shadow": {
                                                  "type": "math_number",
                                                  "id": "IkDfb#ibdKQ6}8hqU+?;",
                                                  "fields": {
                                                   "NUM": 1
                                                  }
                                                 }
                                                },
                                                "ADD": {
                                                 "shadow": {
                                                  "type": "math_number",
                                                  "id": "dz[uz[gA4{_~IG%RmlK|",
                                                  "fields": {
                                                   "NUM": 0
                                                  }
                                                 }
                                                }
                                               }
                                              }
                                             },
                                             "MUL": {
                                              "shadow": {
                                               "type": "math_number",
                                               "id": "UHrdGU;ktm|Dvr;:s^M:",
                                               "fields": {
                                                "NUM": 1
                                               }
                                              },
                                              "block": {
                                               "type": "math_number",
                                               "id": "65DeBA!H2czmPm~u/Sx1",
                                               "fields": {
                                                "NUM": 0.08
                                               }
                                              }
                                             },
                                             "ADD": {
                                              "shadow": {
                                               "type": "math_number",
                                               "id": "1N2qZL=xKJb$4n_Ofx^o",
                                               "fields": {
                                                "NUM": 0
                                               }
                                              },
                                              "block": {
                                               "type": "math_number",
                                               "id": "lA/6HN8MaDp[JHH;PJUX",
                                               "fields": {
                                                "NUM": -0.04
                                               }
                                              }
                                             }
                                            }
                                           }
                                          },
                                          "RHS": {
                                           "block": {
                                            "type": "math_number",
                                            "id": "qPD8!.hcJBxrK1]uDr_D",
                                            "fields": {
                                             "NUM": 0
                                            }
                                           }
                                          }
                                         }
                                        }
                                       },
                                       "ADD": {
                                        "shadow": {
                                         "type": "math_number",
                                         "id": "l4@1^oxSq)VMW~Qzo:7%",
                                         "fields": {
                                          "NUM": 0
                                         }
                                        }
                                       }
                                      }
                                     }
                                    },
                                    "RHS": {
                                     "block": {
                                      "type": "math_number",
                                      "id": "Z$EdNk1e$K8;j!pF-9($",
                                      "fields": {
                                       "NUM": 0
                                      }
                                     }
                                    }
                                   }
                                  }
                                 }
                                }
                               }
                              }
                             }
                            },
                            "RETURN": {
                             "block": {
                              "type": "Sc_Pan2",
                              "id": "F!Sh31fj~JNXOcRP$@fy",
                              "inline": true,
                              "inputs": {
                               "IN": {
                                "block": {
                                 "type": "variables_get",
                                 "id": "56OOZ,`~lqL3HlZHgQ$r",
                                 "fields": {
                                  "VAR": {
                                   "id": "Cfl|C344GrnR1r^ryH4T"
                                  }
                                 }
                                }
                               },
                               "POS": {
                                "block": {
                                 "type": "Sc_TRand",
                                 "id": "rJTS9592iL-tTyH*rePN",
                                 "inline": true,
                                 "inputs": {
                                  "LO": {
                                   "block": {
                                    "type": "math_number",
                                    "id": "?ggb!{rRkbN;Z#4v2%30",
                                    "fields": {
                                     "NUM": -1
                                    }
                                   }
                                  },
                                  "HI": {
                                   "block": {
                                    "type": "math_number",
                                    "id": ";omakDr~,WcnPt2/+mnj",
                                    "fields": {
                                     "NUM": 1
                                    }
                                   }
                                  },
                                  "TRIG": {
                                   "block": {
                                    "type": "variables_get",
                                    "id": "nKzG(;~kifVNT#Ec7f!9",
                                    "fields": {
                                     "VAR": {
                                      "id": "eorq9~NWH.LG3}wr^/^:"
                                     }
                                    }
                                   }
                                  },
                                  "MUL": {
                                   "shadow": {
                                    "type": "math_number",
                                    "id": "dwaWmZNDgH:t;UR|ZZQ`",
                                    "fields": {
                                     "NUM": 1
                                    }
                                   }
                                  },
                                  "ADD": {
                                   "shadow": {
                                    "type": "math_number",
                                    "id": "mH:_@|Li.E$4f;?3=%a9",
                                    "fields": {
                                     "NUM": 0
                                    }
                                   }
                                  }
                                 }
                                }
                               },
                               "LEVEL": {
                                "block": {
                                 "type": "Sc_BinaryOp",
                                 "id": "#AoO;uZDL!e+%-(5a%+J",
                                 "inline": true,
                                 "fields": {
                                  "OP": "/"
                                 },
                                 "inputs": {
                                  "LHS": {
                                   "block": {
                                    "type": "math_number",
                                    "id": "t.2$02_pfNOvoZI)vws.",
                                    "fields": {
                                     "NUM": 2
                                    }
                                   }
                                  },
                                  "RHS": {
                                   "block": {
                                    "type": "variables_get",
                                    "id": "^h0XEk#|`y?5:=S]U2Xh",
                                    "fields": {
                                     "VAR": {
                                      "id": "GzVs^Sb9C(2|X^1/)$u3"
                                     }
                                    }
                                   }
                                  }
                                 }
                                }
                               },
                               "MUL": {
                                "shadow": {
                                 "type": "math_number",
                                 "id": "@h!4_@TDamyt3BGL*Kw]",
                                 "fields": {
                                  "NUM": 1
                                 }
                                }
                               },
                               "ADD": {
                                "shadow": {
                                 "type": "math_number",
                                 "id": "U%glg-6A%0d4NwpbsN:)",
                                 "fields": {
                                  "NUM": 0
                                 }
                                }
                               }
                              }
                             }
                            }
                           }
                          }
                         }
                        }
                       }
                      }
                     }
                    }
                   }
                  }
                 }
                }
               }
              }
             },
             "SUSTAINTIME": {
              "block": {
               "type": "math_number",
               "id": "C}keafHhSQW!:c2lc07L",
               "fields": {
                "NUM": 12.8
               }
              }
             },
             "TRANSITIONTIME": {
              "block": {
               "type": "math_number",
               "id": "`$fL*=s/fArdQi81r[--",
               "fields": {
                "NUM": 6.4
               }
              }
             },
             "OVERLAP": {
              "block": {
               "type": "math_number",
               "id": "DcP377*Qzr]+4XtwhrLk",
               "fields": {
                "NUM": 6
               }
              }
             }
            }
           }
          }
         }
        }
       }
      },
      "next": {
       "block": {
        "type": "variables_set",
        "id": "Hr=jH5jzBf1H:|GoT7b=",
        "fields": {
         "VAR": {
          "id": "|ll%#t+,a}VK,VTy%nc%"
         }
        },
        "inputs": {
         "VALUE": {
          "block": {
           "type": "Sc_LeakDC",
           "id": "]oPxacpg$YOTd_ajt0uB",
           "inline": true,
           "inputs": {
            "IN": {
             "block": {
              "type": "variables_get",
              "id": "a*mcD5m},?7{obV`LWz0",
              "fields": {
               "VAR": {
                "id": "|ll%#t+,a}VK,VTy%nc%"
               }
              }
             }
            },
            "COEF": {
             "block": {
              "type": "math_number",
              "id": "kpkq$Q]WtNWk6L*{0Xx(",
              "fields": {
               "NUM": 0.995
              }
             }
            },
            "MUL": {
             "shadow": {
              "type": "math_number",
              "id": "9?`YDD34.|btf*@}]2`b",
              "fields": {
               "NUM": 1
              }
             }
            },
            "ADD": {
             "shadow": {
              "type": "math_number",
              "id": "^$6;aFP{%Z*OY*v5{Ci9",
              "fields": {
               "NUM": 0
              }
             }
            }
           }
          }
         }
        },
        "next": {
         "block": {
          "type": "Sc_Play",
          "id": "IoLS7mX[3-vx%h`5txat",
          "inputs": {
           "CODE": {
            "block": {
             "type": "Sc_BinaryOp",
             "id": "Kep``+_5([hc2:FQ0xrU",
             "inline": true,
             "fields": {
              "OP": "*"
             },
             "inputs": {
              "LHS": {
               "block": {
                "type": "Sc_ArrayProc1",
                "id": "e~.MXey]7:J:,L/-H`.~",
                "fields": {
                 "OP": "sum"
                },
                "inputs": {
                 "IN": {
                  "block": {
                   "type": "Sc_ArrayFill",
                   "id": "$1{*I8U7dF*Nx(-IheqU",
                   "inline": true,
                   "inputs": {
                    "PROC": {
                     "block": {
                      "type": "Sc_Proc0",
                      "id": "m[P{]tAaSrWEbVOZkaX}",
                      "inline": true,
                      "inputs": {
                       "RETURN": {
                        "block": {
                         "type": "Sc_CombC",
                         "id": "GEd]KP)S;hBn=GskoTjA",
                         "inline": true,
                         "inputs": {
                          "IN": {
                           "block": {
                            "type": "variables_get",
                            "id": "-{7F/Tlh,3Yba]pV9%Cj",
                            "fields": {
                             "VAR": {
                              "id": "|ll%#t+,a}VK,VTy%nc%"
                             }
                            }
                           }
                          },
                          "MAXDELAYTIME": {
                           "block": {
                            "type": "math_number",
                            "id": "CK%(_9zoml4NMr9}F:Eb",
                            "fields": {
                             "NUM": 0.3
                            }
                           }
                          },
                          "DELAYTIME": {
                           "block": {
                            "type": "Sc_ArrayFill",
                            "id": "J4BpJSh3Z:YGu7q!NJg9",
                            "inline": true,
                            "inputs": {
                             "PROC": {
                              "block": {
                               "type": "Sc_Proc0",
                               "id": "a?!|kni8FtnW4%$i%G/7",
                               "inline": true,
                               "inputs": {
                                "RETURN": {
                                 "block": {
                                  "type": "Sc_Rand",
                                  "id": "@+Np|][t2Yz3Ul9~rl/8",
                                  "inline": true,
                                  "inputs": {
                                   "LO": {
                                    "block": {
                                     "type": "math_number",
                                     "id": "2T,mn|7^93egxKN_6Rk^",
                                     "fields": {
                                      "NUM": 0.1
                                     }
                                    }
                                   },
                                   "HI": {
                                    "block": {
                                     "type": "math_number",
                                     "id": "iE_VWAi9q5};mT@$mvXA",
                                     "fields": {
                                      "NUM": 0.3
                                     }
                                    }
                                   },
                                   "MUL": {
                                    "shadow": {
                                     "type": "math_number",
                                     "id": "E*E=OCXr0JI.;{6XvgS@",
                                     "fields": {
                                      "NUM": 1
                                     }
                                    }
                                   },
                                   "ADD": {
                                    "shadow": {
                                     "type": "math_number",
                                     "id": "}1i*)A]AO{}0{sq@}77y",
                                     "fields": {
                                      "NUM": 0
                                     }
                                    }
                                   }
                                  }
                                 }
                                }
                               }
                              }
                             },
                             "COUNT": {
                              "block": {
                               "type": "math_number",
                               "id": "$y[hXTUm4![*Tzu%THv0",
                               "fields": {
                                "NUM": 2
                               }
                              }
                             }
                            }
                           }
                          },
                          "DECAYTIME": {
                           "block": {
                            "type": "math_number",
                            "id": "vUxJ9]Usum,(58E:U`~p",
                            "fields": {
                             "NUM": 20
                            }
                           }
                          },
                          "MUL": {
                           "shadow": {
                            "type": "math_number",
                            "id": "HThhqdx]OR78|PUtIzoh",
                            "fields": {
                             "NUM": 1
                            }
                           }
                          },
                          "ADD": {
                           "shadow": {
                            "type": "math_number",
                            "id": "xP:aVRV]o{^iw:[b?l,B",
                            "fields": {
                             "NUM": 0
                            }
                           }
                          }
                         }
                        }
                       }
                      }
                     }
                    },
                    "COUNT": {
                     "block": {
                      "type": "math_number",
                      "id": "U2epg.w_q=lL_NZcS(eW",
                      "fields": {
                       "NUM": 8
                      }
                     }
                    }
                   }
                  }
                 }
                }
               }
              },
              "RHS": {
               "block": {
                "type": "math_number",
                "id": "/(7YI%2zOhp|gxc4@]l7",
                "fields": {
                 "NUM": 0.2
                }
               }
              }
             }
            }
           }
          }
         }
        }
       }
      }
     }
    }
   }
  ]
 },
 "variables": [
  {
   "name": "z",
   "id": "|ll%#t+,a}VK,VTy%nc%"
  },
  {
   "name": "tr",
   "id": "eorq9~NWH.LG3}wr^/^:"
  },
  {
   "name": "r",
   "id": "s:4^EJq)c=aJn9e{fL1?"
  },
  {
   "name": "f",
   "id": ",KKHL*4tM2AUok)++R^v"
  },
  {
   "name": "a",
   "id": "M8pQRb7(%hXeBk*X;adh"
  },
  {
   "name": "n",
   "id": "KQ3]pv3G{GDh[YBw6*r|"
  },
  {
   "name": "i",
   "id": "$*:^3umtj}Ld0]FRV:2v"
  },
  {
   "name": "g",
   "id": "GzVs^Sb9C(2|X^1/)$u3"
  },
  {
   "name": "o",
   "id": "Cfl|C344GrnR1r^ryH4T"
  }
 ]
}
