{
 "blocks": {
  "languageVersion": 0,
  "blocks": [
   {
    "type": "Sc_Comment",
    "id": "gnZN@^xBu*ehVWI4Z`X6",
    "x": -98,
    "y": 42,
    "fields": {
     "COMMENT": "Coolant (Jmcc) ; Partial"
    },
    "next": {
     "block": {
      "type": "Sc_Play",
      "id": "G~WXyz1Hj2dhC%O#pBJ)",
      "inputs": {
       "CODE": {
        "block": {
         "type": "Sc_ArrayFill",
         "id": "lEfH~|ZfZ;g$l]:_H=,f",
         "inputs": {
          "PROC": {
           "block": {
            "type": "Sc_Proc0",
            "id": "MHt5*bS8sF`Q-Vfparc}",
            "inputs": {
             "RETURN": {
              "block": {
               "type": "Sc_RingzBank",
               "id": "a^f6_eq59Wl?0+OX]tc{",
               "inputs": {
                "INPUT": {
                 "block": {
                  "type": "Sc_OnePole",
                  "id": ")DIZex^SJMNp,Oi|e#!j",
                  "inline": true,
                  "inputs": {
                   "IN": {
                    "block": {
                     "type": "Sc_BrownNoise",
                     "id": "z|uI0Jv3C;+]q;_(/{pj",
                     "inline": true,
                     "inputs": {
                      "MUL": {
                       "shadow": {
                        "type": "math_number",
                        "id": "IQlyoHjtQXtb);1OoInm",
                        "fields": {
                         "NUM": 1
                        }
                       },
                       "block": {
                        "type": "math_number",
                        "id": "eYJ6J3~~3Gj-$Zbxv[L.",
                        "fields": {
                         "NUM": 0.002
                        }
                       }
                      },
                      "ADD": {
                       "shadow": {
                        "type": "math_number",
                        "id": "%P-6`2}R7F|TmBk`Fyp!",
                        "fields": {
                         "NUM": 0
                        }
                       }
                      }
                     }
                    }
                   },
                   "COEF": {
                    "block": {
                     "type": "math_number",
                     "id": ";Ny3g?R*q4aXspiZ0H1l",
                     "fields": {
                      "NUM": 0.95
                     }
                    }
                   },
                   "MUL": {
                    "shadow": {
                     "type": "math_number",
                     "id": "036{*5UY?dK[d8uLD,M_",
                     "fields": {
                      "NUM": 1
                     }
                    }
                   },
                   "ADD": {
                    "shadow": {
                     "type": "math_number",
                     "id": "g9QM:klN-`MSA)UXKbh7",
                     "fields": {
                      "NUM": 0
                     }
                    }
                   }
                  }
                 }
                },
                "FREQ": {
                 "block": {
                  "type": "Sc_ArrayFill",
                  "id": "qu;.vT%l1)vQj_)e|4]x",
                  "inline": false,
                  "inputs": {
                   "PROC": {
                    "block": {
                     "type": "Sc_Proc0",
                     "id": "[j1aJG]D%1:J%qda`-p*",
                     "inputs": {
                      "RETURN": {
                       "block": {
                        "type": "Sc_Rand",
                        "id": "e;M(#H;^|8jiVi1aRCP^",
                        "inline": true,
                        "inputs": {
                         "LO": {
                          "block": {
                           "type": "math_number",
                           "id": "1^xnb[saKj.M/hro)Ic;",
                           "fields": {
                            "NUM": 40
                           }
                          }
                         },
                         "HI": {
                          "block": {
                           "type": "math_number",
                           "id": "kSRh(Oo0eJ+bF2uAL=E?",
                           "fields": {
                            "NUM": 2040
                           }
                          }
                         },
                         "MUL": {
                          "shadow": {
                           "type": "math_number",
                           "id": "pGgA.Zq^5PTY7,l%z_4~",
                           "fields": {
                            "NUM": 1
                           }
                          }
                         },
                         "ADD": {
                          "shadow": {
                           "type": "math_number",
                           "id": "8aq-]k0,c#L[~[M7xwu1",
                           "fields": {
                            "NUM": 0
                           }
                          }
                         }
                        }
                       }
                      }
                     }
                    }
                   },
                   "COUNT": {
                    "block": {
                     "type": "math_number",
                     "id": "/j,x?b0|fSC*IAX%g+9*",
                     "fields": {
                      "NUM": 10
                     }
                    }
                   }
                  }
                 }
                },
                "AMP": {
                 "block": {
                  "type": "lists_create_with",
                  "id": "X!P[w5Cc/4$?Z;~{Jb57",
                  "extraState": {
                   "itemCount": 1
                  },
                  "inputs": {
                   "ADD0": {
                    "block": {
                     "type": "math_number",
                     "id": "+z:[Qt67;EO?Fa{f_5`q",
                     "fields": {
                      "NUM": 1
                     }
                    }
                   }
                  }
                 }
                },
                "TIME": {
                 "block": {
                  "type": "lists_create_with",
                  "id": "ipSZ_Ai/*FjG6+;Y4u0h",
                  "extraState": {
                   "itemCount": 1
                  },
                  "inputs": {
                   "ADD0": {
                    "block": {
                     "type": "math_number",
                     "id": ".TFI+jTIndKx#G(!sS0n",
                     "fields": {
                      "NUM": 0.1
                     }
                    }
                   }
                  }
                 }
                },
                "MUL": {
                 "shadow": {
                  "type": "math_number",
                  "id": "Tj~eR5?2rlNrh%Ni+XrJ",
                  "fields": {
                   "NUM": 1
                  }
                 }
                },
                "ADD": {
                 "shadow": {
                  "type": "math_number",
                  "id": "ZCD;lC~:{[ul}Wm-RO)q",
                  "fields": {
                   "NUM": 0
                  }
                 }
                }
               }
              }
             }
            }
           }
          },
          "COUNT": {
           "block": {
            "type": "math_number",
            "id": "ZEcrbIo_juNx;nU`A![|",
            "fields": {
             "NUM": 2
            }
           }
          }
         }
        }
       }
      }
     }
    }
   }
  ]
 }
}
