{
 "blocks": {
  "languageVersion": 0,
  "blocks": [
   {
    "type": "Sc_Comment",
    "id": "{VyYOjZA7;7lG[3u53UE",
    "x": 0,
    "y": 0,
    "fields": {
     "COMMENT": "Trinkets (Jmcc) ; http://www.iamas.ac.jp/~aka/dspss2004/materials/"
    },
    "next": {
     "block": {
      "type": "variables_set",
      "id": "plo]_+STJgdTSeh|x~S)",
      "fields": {
       "VAR": {
        "id": "-T)tEO;@jo)wl?IR9+tG"
       }
      },
      "inputs": {
       "VALUE": {
        "block": {
         "type": "math_number",
         "id": "E926],OCn1{s}YN4Uc4{",
         "fields": {
          "NUM": 0.2
         }
        }
       }
      },
      "next": {
       "block": {
        "type": "variables_set",
        "id": "DCQpvEif:s,SYK#zpd:f",
        "fields": {
         "VAR": {
          "id": "J_mCcj+@^/f?fn%(p~d}"
         }
        },
        "inputs": {
         "VALUE": {
          "block": {
           "type": "math_number",
           "id": "DfNU;_y,+(C9b?zXYjl1",
           "fields": {
            "NUM": 1
           }
          }
         }
        },
        "next": {
         "block": {
          "type": "variables_set",
          "id": "0mO!omavn`x#A{gXx)~f",
          "fields": {
           "VAR": {
            "id": "w)!U]p/n),vDfi2Verf1"
           }
          },
          "inputs": {
           "VALUE": {
            "block": {
             "type": "math_number",
             "id": "T/-^|EZsa+*-;-:!H/,R",
             "fields": {
              "NUM": 2
             }
            }
           }
          },
          "next": {
           "block": {
            "type": "variables_set",
            "id": "[1ND^z!pIE:p+vo?I6Wb",
            "fields": {
             "VAR": {
              "id": "sY52[`Pz@^SKT=X;NhqC"
             }
            },
            "inputs": {
             "VALUE": {
              "block": {
               "type": "math_number",
               "id": "d44Kv=T*34yK/qWyij/=",
               "fields": {
                "NUM": 0
               }
              }
             }
            },
            "next": {
             "block": {
              "type": "variables_set",
              "id": "tngVxJl-$T$OpZ*M,Xt%",
              "fields": {
               "VAR": {
                "id": "yg%+?20WRMe=*:^_SfQj"
               }
              },
              "inputs": {
               "VALUE": {
                "block": {
                 "type": "math_number",
                 "id": "D]tx$Mbj+i~Ul]}Z/D,P",
                 "fields": {
                  "NUM": 0.1
                 }
                }
               }
              },
              "next": {
               "block": {
                "type": "variables_set",
                "id": "|e5P8[seOAReZ[zh+B:_",
                "fields": {
                 "VAR": {
                  "id": ",w]oSl}3E?^ng`@b@x9J"
                 }
                },
                "inputs": {
                 "VALUE": {
                  "block": {
                   "type": "math_number",
                   "id": "pcR1dgfvfpcl{LJl}Ubt",
                   "fields": {
                    "NUM": 0.2
                   }
                  }
                 }
                },
                "next": {
                 "block": {
                  "type": "variables_set",
                  "id": ";rBo$T|yRd#JUQyxov)V",
                  "fields": {
                   "VAR": {
                    "id": "ltRnyx7xsllGrL_~gC26"
                   }
                  },
                  "inputs": {
                   "VALUE": {
                    "block": {
                     "type": "math_number",
                     "id": "U./0Nz|zrJh^u)L;6k-1",
                     "fields": {
                      "NUM": 0.4
                     }
                    }
                   }
                  },
                  "next": {
                   "block": {
                    "type": "variables_set",
                    "id": "dG$H_j}Qu%|MbN-%Mv(}",
                    "fields": {
                     "VAR": {
                      "id": "j_zEJUGV:|`^DvV@nZbw"
                     }
                    },
                    "inputs": {
                     "VALUE": {
                      "block": {
                       "type": "Sc_Dust",
                       "id": "c#iwoKS7Zxr.]O+WJV}l",
                       "inline": true,
                       "inputs": {
                        "DENSITY": {
                         "block": {
                          "type": "math_number",
                          "id": "j3d-[(EtYHD1o^n6E/%o",
                          "fields": {
                           "NUM": 4
                          }
                         }
                        },
                        "MUL": {
                         "shadow": {
                          "type": "math_number",
                          "id": "PIIPe1DGJFS_#Ls9AmQG",
                          "fields": {
                           "NUM": 1
                          }
                         }
                        },
                        "ADD": {
                         "shadow": {
                          "type": "math_number",
                          "id": "!V!JO-^YrrWi!1xK.kD]",
                          "fields": {
                           "NUM": 0
                          }
                         }
                        }
                       }
                      }
                     }
                    },
                    "next": {
                     "block": {
                      "type": "variables_set",
                      "id": "k`X(^E]Yw/`Pq,yKSs+W",
                      "fields": {
                       "VAR": {
                        "id": "D:A:g|8xZsJ$iQI@E0t*"
                       }
                      },
                      "inputs": {
                       "VALUE": {
                        "block": {
                         "type": "Sc_SinOsc",
                         "id": "EL*[haqSkk=26Xc8)7P?",
                         "inline": false,
                         "inputs": {
                          "FREQ": {
                           "block": {
                            "type": "Sc_TRand",
                            "id": "YsIpNDrM+|rSr7},8hdC",
                            "inline": true,
                            "inputs": {
                             "LO": {
                              "block": {
                               "type": "math_number",
                               "id": "3=g9=GlZ}As`^(;*Z|Nw",
                               "fields": {
                                "NUM": 400
                               }
                              }
                             },
                             "HI": {
                              "block": {
                               "type": "math_number",
                               "id": "0G@M$D.l?AjA|6dr;{Fk",
                               "fields": {
                                "NUM": 12000
                               }
                              }
                             },
                             "TRIG": {
                              "block": {
                               "type": "variables_get",
                               "id": "HJwm=d!/m(PPPyTC}t#?",
                               "fields": {
                                "VAR": {
                                 "id": "j_zEJUGV:|`^DvV@nZbw"
                                }
                               }
                              }
                             },
                             "MUL": {
                              "shadow": {
                               "type": "math_number",
                               "id": "zTNxqd7VJ9PGC+=GR)*(",
                               "fields": {
                                "NUM": 1
                               }
                              }
                             },
                             "ADD": {
                              "shadow": {
                               "type": "math_number",
                               "id": "XlV7_*YyRFS7nEz{zyp(",
                               "fields": {
                                "NUM": 0
                               }
                              }
                             }
                            }
                           }
                          },
                          "PHASE": {
                           "block": {
                            "type": "math_number",
                            "id": "}@Fp)NMiz:!7rl0hUv}~",
                            "fields": {
                             "NUM": 0
                            }
                           }
                          },
                          "MUL": {
                           "shadow": {
                            "type": "math_number",
                            "id": "uAW66e}4%{-jOIG-,KcH",
                            "fields": {
                             "NUM": 1
                            }
                           },
                           "block": {
                            "type": "Sc_Decay2",
                            "id": "XrX)XbR_pyD}_X;tTtv:",
                            "inline": true,
                            "inputs": {
                             "IN": {
                              "block": {
                               "type": "variables_get",
                               "id": "Snk-ok|jnc^baBN=B)JI",
                               "fields": {
                                "VAR": {
                                 "id": "j_zEJUGV:|`^DvV@nZbw"
                                }
                               }
                              }
                             },
                             "ATTACKTIME": {
                              "block": {
                               "type": "math_number",
                               "id": "i@u0v@YyLHv,z}}*VJK{",
                               "fields": {
                                "NUM": 0.002
                               }
                              }
                             },
                             "DECAYTIME": {
                              "block": {
                               "type": "math_number",
                               "id": "$+,,D}uK`PIR-Er_n6!|",
                               "fields": {
                                "NUM": 0.04
                               }
                              }
                             },
                             "MUL": {
                              "shadow": {
                               "type": "math_number",
                               "id": "~EqGwe9`7nEKl[8|~q9#",
                               "fields": {
                                "NUM": 1
                               }
                              }
                             },
                             "ADD": {
                              "shadow": {
                               "type": "math_number",
                               "id": "5EEyk-ef*]sBuY/sjw%-",
                               "fields": {
                                "NUM": 0
                               }
                              }
                             }
                            }
                           }
                          },
                          "ADD": {
                           "shadow": {
                            "type": "math_number",
                            "id": "nCs}[^hZY)m,2rEC=;/T",
                            "fields": {
                             "NUM": 0
                            }
                           }
                          }
                         }
                        }
                       }
                      },
                      "next": {
                       "block": {
                        "type": "variables_set",
                        "id": "xz-*1?3Fe!=r6YY_O(U:",
                        "fields": {
                         "VAR": {
                          "id": "D:A:g|8xZsJ$iQI@E0t*"
                         }
                        },
                        "inputs": {
                         "VALUE": {
                          "block": {
                           "type": "Sc_PanAz",
                           "id": "JU3(PZGY6P5gy@1@4+qN",
                           "inline": true,
                           "inputs": {
                            "NUMCHANNELS": {
                             "block": {
                              "type": "variables_get",
                              "id": "Fn`DAv9pBQlSBPKas`V|",
                              "fields": {
                               "VAR": {
                                "id": "w)!U]p/n),vDfi2Verf1"
                               }
                              }
                             }
                            },
                            "IN": {
                             "block": {
                              "type": "variables_get",
                              "id": "$mGXF6[L#LRX[pB7#[nw",
                              "fields": {
                               "VAR": {
                                "id": "D:A:g|8xZsJ$iQI@E0t*"
                               }
                              }
                             }
                            },
                            "POS": {
                             "block": {
                              "type": "Sc_TRand",
                              "id": "BtSZgBVH?pg,}w/=aCup",
                              "inline": true,
                              "inputs": {
                               "LO": {
                                "block": {
                                 "type": "math_number",
                                 "id": "mO!L1*R17FVxliL8%h*5",
                                 "fields": {
                                  "NUM": -1
                                 }
                                }
                               },
                               "HI": {
                                "block": {
                                 "type": "math_number",
                                 "id": "wl,aOjZ1]l_I6PdEj,rD",
                                 "fields": {
                                  "NUM": 1
                                 }
                                }
                               },
                               "TRIG": {
                                "block": {
                                 "type": "variables_get",
                                 "id": "AR]2!pGVG78%h=~%P.ck",
                                 "fields": {
                                  "VAR": {
                                   "id": "j_zEJUGV:|`^DvV@nZbw"
                                  }
                                 }
                                }
                               },
                               "MUL": {
                                "shadow": {
                                 "type": "math_number",
                                 "id": "tTn1o0*PY|8~ET]iy1R(",
                                 "fields": {
                                  "NUM": 1
                                 }
                                }
                               },
                               "ADD": {
                                "shadow": {
                                 "type": "math_number",
                                 "id": "q!b8b{5CCN_%LNi*rUI0",
                                 "fields": {
                                  "NUM": 0
                                 }
                                }
                               }
                              }
                             }
                            },
                            "LEVEL": {
                             "block": {
                              "type": "math_number",
                              "id": "q124M#lX%JgKDH4uo,PY",
                              "fields": {
                               "NUM": 1
                              }
                             }
                            },
                            "WIDTH": {
                             "block": {
                              "type": "math_number",
                              "id": "J2$z/G=:@20pJ$AA,eFf",
                              "fields": {
                               "NUM": 2
                              }
                             }
                            },
                            "ORIENTATION": {
                             "block": {
                              "type": "math_number",
                              "id": "OO-zo}y[RVYtaMW:=$V%",
                              "fields": {
                               "NUM": 0.5
                              }
                             }
                            },
                            "MUL": {
                             "block": {
                              "type": "math_number",
                              "id": ")kv}5!I`dN0sIIZ4d*qJ",
                              "fields": {
                               "NUM": 1
                              }
                             }
                            },
                            "ADD": {
                             "block": {
                              "type": "math_number",
                              "id": "Z@A/z/TOiO?!Jb*vEINP",
                              "fields": {
                               "NUM": 0
                              }
                             }
                            }
                           }
                          }
                         }
                        },
                        "next": {
                         "block": {
                          "type": "variables_set",
                          "id": "S{ieW/2n,#28sWDZ`37+",
                          "fields": {
                           "VAR": {
                            "id": "D:A:g|8xZsJ$iQI@E0t*"
                           }
                          },
                          "inputs": {
                           "VALUE": {
                            "block": {
                             "type": "Sc_CombC",
                             "id": "RK)]nx*XK,AZT/Dt)p@,",
                             "inline": true,
                             "inputs": {
                              "IN": {
                               "block": {
                                "type": "variables_get",
                                "id": "O[JK^WnrpODKg?l?5MV%",
                                "fields": {
                                 "VAR": {
                                  "id": "D:A:g|8xZsJ$iQI@E0t*"
                                 }
                                }
                               }
                              },
                              "MAXDELAYTIME": {
                               "block": {
                                "type": "math_number",
                                "id": "9E{w34QI3khka4mzGo!d",
                                "fields": {
                                 "NUM": 0.2
                                }
                               }
                              },
                              "DELAYTIME": {
                               "block": {
                                "type": "Sc_ArrayFill",
                                "id": "4j41{@3X=?c371f4w5kX",
                                "inline": true,
                                "inputs": {
                                 "PROC": {
                                  "block": {
                                   "type": "Sc_Proc0",
                                   "id": "5RU4J]N11/I8vxiO|Y.%",
                                   "inline": true,
                                   "inputs": {
                                    "RETURN": {
                                     "block": {
                                      "type": "Sc_Rand",
                                      "id": "W!gO5POw~L%[9;+k+nyL",
                                      "inline": true,
                                      "inputs": {
                                       "LO": {
                                        "block": {
                                         "type": "math_number",
                                         "id": "AY(fBmL6,tY]RTQZ4Doq",
                                         "fields": {
                                          "NUM": 0.04
                                         }
                                        }
                                       },
                                       "HI": {
                                        "block": {
                                         "type": "math_number",
                                         "id": "j7TqQ!^~^}C[!t}m7~|}",
                                         "fields": {
                                          "NUM": 0.2
                                         }
                                        }
                                       },
                                       "MUL": {
                                        "shadow": {
                                         "type": "math_number",
                                         "id": "rWgawFYj7!t9D,GO+xKO",
                                         "fields": {
                                          "NUM": 1
                                         }
                                        }
                                       },
                                       "ADD": {
                                        "shadow": {
                                         "type": "math_number",
                                         "id": "ODvRJ@R(9Pf:}:6flRz}",
                                         "fields": {
                                          "NUM": 0
                                         }
                                        }
                                       }
                                      }
                                     }
                                    }
                                   }
                                  }
                                 },
                                 "COUNT": {
                                  "block": {
                                   "type": "math_number",
                                   "id": "0|Yv/sGFJTg_x9*1B@sE",
                                   "fields": {
                                    "NUM": 4
                                   }
                                  }
                                 }
                                }
                               }
                              },
                              "DECAYTIME": {
                               "block": {
                                "type": "math_number",
                                "id": "d[/PI}0|DTP=$96uUk#*",
                                "fields": {
                                 "NUM": 2
                                }
                               }
                              },
                              "MUL": {
                               "shadow": {
                                "type": "math_number",
                                "id": "pmYOD)BXyGL`FmC?_^I;",
                                "fields": {
                                 "NUM": 1
                                }
                               }
                              },
                              "ADD": {
                               "shadow": {
                                "type": "math_number",
                                "id": "M3SMb?:6#y9fNTp=6rto",
                                "fields": {
                                 "NUM": 0
                                }
                               }
                              }
                             }
                            }
                           }
                          },
                          "next": {
                           "block": {
                            "type": "Sc_Play",
                            "id": "CT?s8!~L?/Ub^h@4bg.+",
                            "inputs": {
                             "CODE": {
                              "block": {
                               "type": "Sc_Linen",
                               "id": "T!L:a];nQ./7d_h?4DGO",
                               "inline": true,
                               "inputs": {
                                "GATE": {
                                 "block": {
                                  "type": "variables_get",
                                  "id": "+?OexrSSsXQJ-9x`B/+@",
                                  "fields": {
                                   "VAR": {
                                    "id": "J_mCcj+@^/f?fn%(p~d}"
                                   }
                                  }
                                 }
                                },
                                "ATTACKTIME": {
                                 "block": {
                                  "type": "math_number",
                                  "id": "BHtaxbk$LYc+d43Vkj|i",
                                  "fields": {
                                   "NUM": 0.1
                                  }
                                 }
                                },
                                "SUSLEVEL": {
                                 "block": {
                                  "type": "variables_get",
                                  "id": "Nvv{sPU0M)lE,%-2hbfZ",
                                  "fields": {
                                   "VAR": {
                                    "id": "-T)tEO;@jo)wl?IR9+tG"
                                   }
                                  }
                                 }
                                },
                                "RELEASETIME": {
                                 "block": {
                                  "type": "math_number",
                                  "id": "9Z@9aEZ+Uk]vn1POJ`Fq",
                                  "fields": {
                                   "NUM": 0.3
                                  }
                                 }
                                },
                                "DONEACTION": {
                                 "block": {
                                  "type": "math_number",
                                  "id": "98`I0K9SJPd0g0=jx)l6",
                                  "fields": {
                                   "NUM": 2
                                  }
                                 }
                                },
                                "MUL": {
                                 "shadow": {
                                  "type": "math_number",
                                  "id": ".G6/R%W=s8*v#zSo0/{X",
                                  "fields": {
                                   "NUM": 1
                                  }
                                 },
                                 "block": {
                                  "type": "variables_get",
                                  "id": "fV6F:WPP5_ju_^+4!L4m",
                                  "fields": {
                                   "VAR": {
                                    "id": "D:A:g|8xZsJ$iQI@E0t*"
                                   }
                                  }
                                 }
                                },
                                "ADD": {
                                 "shadow": {
                                  "type": "math_number",
                                  "id": ")mh[y|RlS4tgcL*qx?`4",
                                  "fields": {
                                   "NUM": 0
                                  }
                                 }
                                }
                               }
                              }
                             }
                            }
                           }
                          }
                         }
                        }
                       }
                      }
                     }
                    }
                   }
                  }
                 }
                }
               }
              }
             }
            }
           }
          }
         }
        }
       }
      }
     }
    }
   }
  ]
 },
 "variables": [
  {
   "name": "amp",
   "id": "-T)tEO;@jo)wl?IR9+tG"
  },
  {
   "name": "gate",
   "id": "J_mCcj+@^/f?fn%(p~d}"
  },
  {
   "name": "nc",
   "id": "w)!U]p/n),vDfi2Verf1"
  },
  {
   "name": "z",
   "id": "sY52[`Pz@^SKT=X;NhqC"
  },
  {
   "name": "a",
   "id": "yg%+?20WRMe=*:^_SfQj"
  },
  {
   "name": "b",
   "id": ",w]oSl}3E?^ng`@b@x9J"
  },
  {
   "name": "c",
   "id": "ltRnyx7xsllGrL_~gC26"
  },
  {
   "name": "clock",
   "id": "j_zEJUGV:|`^DvV@nZbw"
  },
  {
   "name": "x",
   "id": "D:A:g|8xZsJ$iQI@E0t*"
  }
 ]
}
