{
 "blocks": {
  "languageVersion": 0,
  "blocks": [
   {
    "type": "Sc_Comment",
    "id": "_`*l?jwpgEAmpe#y{XYp",
    "x": -306,
    "y": -61,
    "fields": {
     "COMMENT": "Sprinkler (Jmcc)"
    },
    "next": {
     "block": {
      "type": "Sc_Play",
      "id": "Q+Z)+EFaf`:]X]wR?p`1",
      "inputs": {
       "CODE": {
        "block": {
         "type": "Sc_BPZ2",
         "id": "p,3r~|{dM]RtjmxdxUx:",
         "inputs": {
          "IN": {
           "block": {
            "type": "Sc_WhiteNoise",
            "id": "^d7}T@VIxzw3dY}J3pWL",
            "inputs": {
             "MUL": {
              "shadow": {
               "type": "math_number",
               "id": "?TH;C;4b=).r(o]3ws(A",
               "fields": {
                "NUM": 1
               }
              },
              "block": {
               "type": "Sc_LFPulse",
               "id": "_P3Ve]*jFnm@1-sL*LpX",
               "inline": false,
               "inputs": {
                "FREQ": {
                 "block": {
                  "type": "Sc_LFPulse",
                  "id": "2_E~}.~TV.3|a~^leJ78",
                  "inline": false,
                  "inputs": {
                   "FREQ": {
                    "block": {
                     "type": "math_number",
                     "id": "}yO^:LJ=W[iY}z00mNE4",
                     "fields": {
                      "NUM": 0.09
                     }
                    }
                   },
                   "IPHASE": {
                    "block": {
                     "type": "math_number",
                     "id": "NJ,v^4kEC8(/7qy1K^*U",
                     "fields": {
                      "NUM": 0
                     }
                    }
                   },
                   "WIDTH": {
                    "block": {
                     "type": "math_number",
                     "id": "%w|}!.jJ_am6`s7tZB+s",
                     "fields": {
                      "NUM": 0.16
                     }
                    }
                   },
                   "MUL": {
                    "shadow": {
                     "type": "math_number",
                     "id": "G`n7.Y.5?$|4YROc%dQk",
                     "fields": {
                      "NUM": 1
                     }
                    },
                    "block": {
                     "type": "math_number",
                     "id": "aux2}Hz!vlqBQ@7#7y_:",
                     "fields": {
                      "NUM": 10
                     }
                    }
                   },
                   "ADD": {
                    "shadow": {
                     "type": "math_number",
                     "id": "yi*`;bw,]c7`wN9|Ua|%",
                     "fields": {
                      "NUM": 0
                     }
                    },
                    "block": {
                     "type": "math_number",
                     "id": "KCo*YTXO@G!+f](2dVSZ",
                     "fields": {
                      "NUM": 7
                     }
                    }
                   }
                  }
                 }
                },
                "IPHASE": {
                 "block": {
                  "type": "math_number",
                  "id": "|OU24,c5=ew/]pQ@;c0F",
                  "fields": {
                   "NUM": 0
                  }
                 }
                },
                "WIDTH": {
                 "block": {
                  "type": "math_number",
                  "id": "$_fd=]L_^%Xm_meDgtbW",
                  "fields": {
                   "NUM": 0.25
                  }
                 }
                },
                "MUL": {
                 "shadow": {
                  "type": "math_number",
                  "id": ",+40Tvm.iipCVGV-`c84",
                  "fields": {
                   "NUM": 1
                  }
                 },
                 "block": {
                  "type": "math_number",
                  "id": "ma}X`N6BXUdTgNrGgiHA",
                  "fields": {
                   "NUM": 0.1
                  }
                 }
                },
                "ADD": {
                 "shadow": {
                  "type": "math_number",
                  "id": "kzzX^J9-pAay2*ftMk,#",
                  "fields": {
                   "NUM": 0
                  }
                 }
                }
               }
              }
             },
             "ADD": {
              "shadow": {
               "type": "math_number",
               "id": "$cGNQd;@v`P)hJx{xi6p",
               "fields": {
                "NUM": 0
               }
              }
             }
            }
           }
          },
          "MUL": {
           "shadow": {
            "type": "math_number",
            "id": "~Ij3OH.UQ1=Z+8eWF~z[",
            "fields": {
             "NUM": 1
            }
           }
          },
          "ADD": {
           "shadow": {
            "type": "math_number",
            "id": "C$Di-Ux{0MMj~$UbABfC",
            "fields": {
             "NUM": 0
            }
           }
          }
         }
        }
       }
      }
     }
    }
   }
  ]
 }
}
