{
 "blocks": {
  "languageVersion": 0,
  "blocks": [
   {
    "type": "Sc_Comment",
    "id": "Q,!Bi)c].X=x$ef~i!/J",
    "x": 0,
    "y": 0,
    "fields": {
     "COMMENT": "Demanding studies (Jmcc)"
    },
    "next": {
     "block": {
      "type": "variables_set",
      "id": "/^u31VjIo|i9r]%@P)gS",
      "fields": {
       "VAR": {
        "id": "XnL3+R]Jm?t|#dSo$Tic"
       }
      },
      "inputs": {
       "VALUE": {
        "block": {
         "type": "Sc_Drand",
         "id": "1||@Qem,J7^jx39Gw|6N",
         "inline": true,
         "inputs": {
          "REPEATS": {
           "block": {
            "type": "Sc_Constant",
            "id": "R.1|Tn-JtYy|R`YyL|mX",
            "fields": {
             "CONST": "Infinity"
            }
           }
          },
          "ARRAY": {
           "block": {
            "type": "lists_create_with",
            "id": "*-AZdJM0PUcmz}6xrRLs",
            "inline": true,
            "extraState": {
             "itemCount": 4
            },
            "inputs": {
             "ADD0": {
              "block": {
               "type": "math_number",
               "id": "Zm*9Q4pNa|~Z,JQTBohb",
               "fields": {
                "NUM": 72
               }
              }
             },
             "ADD1": {
              "block": {
               "type": "math_number",
               "id": ".e|?{.!m7d4wJm_c!4wY",
               "fields": {
                "NUM": 75
               }
              }
             },
             "ADD2": {
              "block": {
               "type": "math_number",
               "id": "04Y29oXZ%WpmV!B^cj,t",
               "fields": {
                "NUM": 79
               }
              }
             },
             "ADD3": {
              "block": {
               "type": "math_number",
               "id": "O#X7Esy0sETdPJ{R,J4=",
               "fields": {
                "NUM": 82
               }
              }
             }
            }
           }
          },
          "MUL": {
           "shadow": {
            "type": "math_number",
            "id": "$+9Cb*8l*ps@gKN{s;+k",
            "fields": {
             "NUM": 1
            }
           }
          },
          "ADD": {
           "shadow": {
            "type": "math_number",
            "id": "NXe41otn~^[l-s2y3JNN",
            "fields": {
             "NUM": 0
            }
           }
          }
         }
        }
       }
      },
      "next": {
       "block": {
        "type": "variables_set",
        "id": "D,6n!~`FX_Vkw8p0+NX~",
        "fields": {
         "VAR": {
          "id": "^g^LBaPMIcF3lgim83D#"
         }
        },
        "inputs": {
         "VALUE": {
          "block": {
           "type": "Sc_Drand",
           "id": "Vt|=`nCytBQZds[xT@MQ",
           "inline": true,
           "inputs": {
            "REPEATS": {
             "block": {
              "type": "math_number",
              "id": "7/uxn7|x_W?N-Nl9I@Pp",
              "fields": {
               "NUM": 1
              }
             }
            },
            "ARRAY": {
             "block": {
              "type": "lists_create_with",
              "id": "O`:O1S%?%jIX(WVIW%x:",
              "inline": true,
              "extraState": {
               "itemCount": 3
              },
              "inputs": {
               "ADD0": {
                "block": {
                 "type": "math_number",
                 "id": "o?H!+zI?Q[4$Q!8*np#g",
                 "fields": {
                  "NUM": 82
                 }
                }
               },
               "ADD1": {
                "block": {
                 "type": "math_number",
                 "id": "v4VVr)L_3dWc=1+t8[gi",
                 "fields": {
                  "NUM": 84
                 }
                }
               },
               "ADD2": {
                "block": {
                 "type": "math_number",
                 "id": ",HH]W+{/Z9npr%P`C!a!",
                 "fields": {
                  "NUM": 86
                 }
                }
               }
              }
             }
            },
            "MUL": {
             "shadow": {
              "type": "math_number",
              "id": "rU}7i86QR+gjuc1NF2@2",
              "fields": {
               "NUM": 1
              }
             }
            },
            "ADD": {
             "shadow": {
              "type": "math_number",
              "id": "x`2Sms|-i#nOr/-P#Uk`",
              "fields": {
               "NUM": 0
              }
             }
            }
           }
          }
         }
        },
        "next": {
         "block": {
          "type": "variables_set",
          "id": "o0I$rM6s]Limra^^[,AD",
          "fields": {
           "VAR": {
            "id": "/vCZIPatcO.rIg%*qP4r"
           }
          },
          "inputs": {
           "VALUE": {
            "block": {
             "type": "Sc_Dseq",
             "id": "`X4P*L%hqy[xiZ:?)OGT",
             "inline": true,
             "inputs": {
              "REPEATS": {
               "block": {
                "type": "Sc_Constant",
                "id": "v-4e)?DTt_0(u:D$dn=d",
                "fields": {
                 "CONST": "Infinity"
                }
               }
              },
              "ARRAY": {
               "block": {
                "type": "lists_create_with",
                "id": "lES)CS=/9`n70bni*6g*",
                "inline": true,
                "extraState": {
                 "itemCount": 4
                },
                "inputs": {
                 "ADD0": {
                  "block": {
                   "type": "math_number",
                   "id": "H,lgT2t8n2iCf[0d@eN|",
                   "fields": {
                    "NUM": 72
                   }
                  }
                 },
                 "ADD1": {
                  "block": {
                   "type": "math_number",
                   "id": "7RgfOoW5r)48R{zTSJ6r",
                   "fields": {
                    "NUM": 75
                   }
                  }
                 },
                 "ADD2": {
                  "block": {
                   "type": "math_number",
                   "id": "v_eEnM2B3PWcNT1=nA/Z",
                   "fields": {
                    "NUM": 79
                   }
                  }
                 },
                 "ADD3": {
                  "block": {
                   "type": "variables_get",
                   "id": "07^*W|#Kw,Vbre1a%$X[",
                   "fields": {
                    "VAR": {
                     "id": "^g^LBaPMIcF3lgim83D#"
                    }
                   }
                  }
                 }
                }
               }
              },
              "MUL": {
               "shadow": {
                "type": "math_number",
                "id": "!}@@Aj5,%ZULe3!*dMst",
                "fields": {
                 "NUM": 1
                }
               }
              },
              "ADD": {
               "shadow": {
                "type": "math_number",
                "id": "%:UtbSK6{dVBSx1UrL~?",
                "fields": {
                 "NUM": 0
                }
               }
              }
             }
            }
           }
          },
          "next": {
           "block": {
            "type": "variables_set",
            "id": "XBZ$FfA*^A`8(li0d4zx",
            "fields": {
             "VAR": {
              "id": "y*LGvAqAhL|K1O,G(jcl"
             }
            },
            "inputs": {
             "VALUE": {
              "block": {
               "type": "Sc_MouseX",
               "id": "3C]e!c)3]n_TE)4#dqC0",
               "inline": true,
               "inputs": {
                "MINVAL": {
                 "block": {
                  "type": "math_number",
                  "id": "FNrq21LOc!6JvGhqB8Mc",
                  "fields": {
                   "NUM": 5
                  }
                 }
                },
                "MAXVAL": {
                 "block": {
                  "type": "math_number",
                  "id": "Zqq#U$Se$:Qqh5(tH5..",
                  "fields": {
                   "NUM": 13
                  }
                 }
                },
                "WARP": {
                 "block": {
                  "type": "math_number",
                  "id": "jMh~9z$48t^pcGlh1dfm",
                  "fields": {
                   "NUM": 0
                  }
                 }
                },
                "LAG": {
                 "block": {
                  "type": "math_number",
                  "id": "ba/nJu27]fH2^9p1.J)5",
                  "fields": {
                   "NUM": 0.2
                  }
                 }
                },
                "MUL": {
                 "shadow": {
                  "type": "math_number",
                  "id": "(hz:VL{6V4]aRHv#{7HA",
                  "fields": {
                   "NUM": 1
                  }
                 }
                },
                "ADD": {
                 "shadow": {
                  "type": "math_number",
                  "id": "tO+kaZ;Op+z}}z+fi$2P",
                  "fields": {
                   "NUM": 0
                  }
                 }
                }
               }
              }
             }
            },
            "next": {
             "block": {
              "type": "variables_set",
              "id": "iU5Ir]~=Ry#Q4LvpgS]h",
              "fields": {
               "VAR": {
                "id": "Z$I:D]z=dwu|RjZ*,1NT"
               }
              },
              "inputs": {
               "VALUE": {
                "block": {
                 "type": "Sc_Impulse",
                 "id": "^,y(#OFwg(MMIx}R.-95",
                 "inline": true,
                 "inputs": {
                  "FREQ": {
                   "block": {
                    "type": "variables_get",
                    "id": "+X^R#m]y3j9f@@k:zN_0",
                    "fields": {
                     "VAR": {
                      "id": "y*LGvAqAhL|K1O,G(jcl"
                     }
                    }
                   }
                  },
                  "PHASE": {
                   "block": {
                    "type": "math_number",
                    "id": "Ki(_X/jCVSC%[_=[V.x_",
                    "fields": {
                     "NUM": 0
                    }
                   }
                  },
                  "MUL": {
                   "shadow": {
                    "type": "math_number",
                    "id": "2nNRtoxyU;2q6+4He4=m",
                    "fields": {
                     "NUM": 1
                    }
                   }
                  },
                  "ADD": {
                   "shadow": {
                    "type": "math_number",
                    "id": ",7wTe[iWI_A^O|2@}d1(",
                    "fields": {
                     "NUM": 0
                    }
                   }
                  }
                 }
                }
               }
              },
              "next": {
               "block": {
                "type": "variables_set",
                "id": "%?3519O2t!#RL~ATU3_E",
                "fields": {
                 "VAR": {
                  "id": "{F%iIMgQ6aY#QK,kcI@J"
                 }
                },
                "inputs": {
                 "VALUE": {
                  "block": {
                   "type": "Sc_Demand",
                   "id": "uI#UQ!~L+vT$/P}9CcXQ",
                   "inline": true,
                   "inputs": {
                    "TRIG": {
                     "block": {
                      "type": "variables_get",
                      "id": "Ou/iR`gA=;.QkmmZ@aAR",
                      "fields": {
                       "VAR": {
                        "id": "Z$I:D]z=dwu|RjZ*,1NT"
                       }
                      }
                     }
                    },
                    "RESET": {
                     "block": {
                      "type": "math_number",
                      "id": "bT)j@Gg%|,^CwGp0Lf:I",
                      "fields": {
                       "NUM": 0
                      }
                     }
                    },
                    "DEMANDUGENS": {
                     "block": {
                      "type": "Sc_UnaryOp",
                      "id": "3]^zMiRds{Vu?qFKV)c:",
                      "fields": {
                       "OP": "MidiCps"
                      },
                      "inputs": {
                       "IN": {
                        "block": {
                         "type": "lists_create_with",
                         "id": "hV)1AoZb:5U43ax9m-LS",
                         "inline": true,
                         "extraState": {
                          "itemCount": 2
                         },
                         "inputs": {
                          "ADD0": {
                           "block": {
                            "type": "Sc_BinaryOp",
                            "id": ",BHF^p:A,dG8KBos`$=/",
                            "inline": true,
                            "fields": {
                             "OP": "-"
                            },
                            "inputs": {
                             "LHS": {
                              "block": {
                               "type": "variables_get",
                               "id": "?sd+IgD9REx-,)n;eevL",
                               "fields": {
                                "VAR": {
                                 "id": "XnL3+R]Jm?t|#dSo$Tic"
                                }
                               }
                              }
                             },
                             "RHS": {
                              "block": {
                               "type": "math_number",
                               "id": "1]X9`q]xl)0d/]*B9r02",
                               "fields": {
                                "NUM": 12
                               }
                              }
                             }
                            }
                           }
                          },
                          "ADD1": {
                           "block": {
                            "type": "variables_get",
                            "id": "~VsTp:pRPMASqQ,`ov?L",
                            "fields": {
                             "VAR": {
                              "id": "/vCZIPatcO.rIg%*qP4r"
                             }
                            }
                           }
                          }
                         }
                        }
                       }
                      }
                     }
                    },
                    "MUL": {
                     "block": {
                      "type": "math_number",
                      "id": "sR5D$-?x.NGIjuS$M3Ju",
                      "fields": {
                       "NUM": 1
                      }
                     }
                    },
                    "ADD": {
                     "block": {
                      "type": "math_number",
                      "id": "-(GKaNn5G]hqq=ln.q+d",
                      "fields": {
                       "NUM": 0
                      }
                     }
                    }
                   }
                  }
                 }
                },
                "next": {
                 "block": {
                  "type": "variables_set",
                  "id": "x//n%|([*!VV)uBkD[sW",
                  "fields": {
                   "VAR": {
                    "id": "MwJAjnC;b--NmkXvovH+"
                   }
                  },
                  "inputs": {
                   "VALUE": {
                    "block": {
                     "type": "Sc_SinOsc",
                     "id": "[brLyIIOir]1lx]gYc50",
                     "inline": true,
                     "inputs": {
                      "FREQ": {
                       "block": {
                        "type": "Sc_BinaryOp",
                        "id": "$!Wa+OiI-02.b1|),vj:",
                        "inline": true,
                        "fields": {
                         "OP": "+"
                        },
                        "inputs": {
                         "LHS": {
                          "block": {
                           "type": "variables_get",
                           "id": "uzD2@NdN$.@W]O:#rKze",
                           "fields": {
                            "VAR": {
                             "id": "{F%iIMgQ6aY#QK,kcI@J"
                            }
                           }
                          }
                         },
                         "RHS": {
                          "block": {
                           "type": "lists_create_with",
                           "id": "SYY8srbrO!vR9vXzxmbI",
                           "inline": true,
                           "extraState": {
                            "itemCount": 2
                           },
                           "inputs": {
                            "ADD0": {
                             "block": {
                              "type": "math_number",
                              "id": "ZT_(.f=rQ=s*@yH^OXHc",
                              "fields": {
                               "NUM": 0
                              }
                             }
                            },
                            "ADD1": {
                             "block": {
                              "type": "math_number",
                              "id": "Z.BN|^t/=ISg$6y5W^|,",
                              "fields": {
                               "NUM": 0.7
                              }
                             }
                            }
                           }
                          }
                         }
                        }
                       }
                      },
                      "PHASE": {
                       "block": {
                        "type": "math_number",
                        "id": "dpwe39Qpza+-2i^m|a#^",
                        "fields": {
                         "NUM": 0
                        }
                       }
                      },
                      "MUL": {
                       "shadow": {
                        "type": "math_number",
                        "id": "xKSSG5|TUp$g0Dje/U4p",
                        "fields": {
                         "NUM": 1
                        }
                       }
                      },
                      "ADD": {
                       "shadow": {
                        "type": "math_number",
                        "id": "XQ:`IdG~Jyt*ZM:Jj`Ba",
                        "fields": {
                         "NUM": 0
                        }
                       }
                      }
                     }
                    }
                   }
                  },
                  "next": {
                   "block": {
                    "type": "variables_set",
                    "id": "TdmcgtXDqV+^vv{7|{[8",
                    "fields": {
                     "VAR": {
                      "id": "e]:MN+K3PkZJ[+^w/#$#"
                     }
                    },
                    "inputs": {
                     "VALUE": {
                      "block": {
                       "type": "Sc_Saw",
                       "id": "MR20/e7Jp,{9@2jW4V[O",
                       "inline": true,
                       "inputs": {
                        "FREQ": {
                         "block": {
                          "type": "Sc_BinaryOp",
                          "id": ".y=E-nrug1V:-`!%FaDo",
                          "inline": true,
                          "fields": {
                           "OP": "+"
                          },
                          "inputs": {
                           "LHS": {
                            "block": {
                             "type": "variables_get",
                             "id": "K8ktmHJt_xJi#NHF^7[X",
                             "fields": {
                              "VAR": {
                               "id": "{F%iIMgQ6aY#QK,kcI@J"
                              }
                             }
                            }
                           },
                           "RHS": {
                            "block": {
                             "type": "lists_create_with",
                             "id": "Li`*sfweu;eE8BVZ_4Dm",
                             "inline": true,
                             "extraState": {
                              "itemCount": 2
                             },
                             "inputs": {
                              "ADD0": {
                               "block": {
                                "type": "math_number",
                                "id": "a+;m?:2hAy7:_Q9he(Qt",
                                "fields": {
                                 "NUM": 0
                                }
                               }
                              },
                              "ADD1": {
                               "block": {
                                "type": "math_number",
                                "id": "48BnS%OWrn0/j~;)|p$b",
                                "fields": {
                                 "NUM": 0.7
                                }
                               }
                              }
                             }
                            }
                           }
                          }
                         }
                        },
                        "MUL": {
                         "shadow": {
                          "type": "math_number",
                          "id": "P+tR8%MlJr%RS}Pt[JiH",
                          "fields": {
                           "NUM": 1
                          }
                         },
                         "block": {
                          "type": "math_number",
                          "id": "~MG#4iNBX;~hjm/pPhaF",
                          "fields": {
                           "NUM": 0.3
                          }
                         }
                        },
                        "ADD": {
                         "shadow": {
                          "type": "math_number",
                          "id": "x^iJdPE$?loj%$Rj#Hoz",
                          "fields": {
                           "NUM": 0
                          }
                         }
                        }
                       }
                      }
                     }
                    },
                    "next": {
                     "block": {
                      "type": "variables_set",
                      "id": "$5s3X$!c95Y]UlM!P/Ga",
                      "fields": {
                       "VAR": {
                        "id": "Ei?MTjN,L#f#_+a=H:WC"
                       }
                      },
                      "inputs": {
                       "VALUE": {
                        "block": {
                         "type": "Sc_UnaryOp",
                         "id": "Ib`hLzKksJ|bO]30.F4)",
                         "fields": {
                          "OP": "Distort"
                         },
                         "inputs": {
                          "IN": {
                           "block": {
                            "type": "Sc_BinaryOp",
                            "id": "sjU?3fGF?gq?Lu=7Km0^",
                            "inline": true,
                            "fields": {
                             "OP": "+"
                            },
                            "inputs": {
                             "LHS": {
                              "block": {
                               "type": "variables_get",
                               "id": "H/J_q/!Y`6C3eA1QX88z",
                               "fields": {
                                "VAR": {
                                 "id": "MwJAjnC;b--NmkXvovH+"
                                }
                               }
                              }
                             },
                             "RHS": {
                              "block": {
                               "type": "variables_get",
                               "id": "M0Ip]bviAf9H-sTMF.C.",
                               "fields": {
                                "VAR": {
                                 "id": "e]:MN+K3PkZJ[+^w/#$#"
                                }
                               }
                              }
                             }
                            }
                           }
                          }
                         }
                        }
                       }
                      },
                      "next": {
                       "block": {
                        "type": "Sc_Play",
                        "id": "K[Wk{dl2g@~aNJApl)G`",
                        "inputs": {
                         "CODE": {
                          "block": {
                           "type": "Sc_BinaryOp",
                           "id": "lxT=lHT[!X*-6mW1lpXS",
                           "inline": true,
                           "fields": {
                            "OP": "*"
                           },
                           "inputs": {
                            "LHS": {
                             "block": {
                              "type": "variables_get",
                              "id": "a1D6x5nu$tm@^4!#2IC^",
                              "fields": {
                               "VAR": {
                                "id": "Ei?MTjN,L#f#_+a=H:WC"
                               }
                              }
                             }
                            },
                            "RHS": {
                             "block": {
                              "type": "math_number",
                              "id": "|BLkjDTM[^?=kgl;QW]t",
                              "fields": {
                               "NUM": 0.1
                              }
                             }
                            }
                           }
                          }
                         }
                        }
                       }
                      }
                     }
                    }
                   }
                  }
                 }
                }
               }
              }
             }
            }
           }
          }
         }
        }
       }
      }
     }
    }
   }
  ]
 },
 "variables": [
  {
   "name": "s1",
   "id": "XnL3+R]Jm?t|#dSo$Tic"
  },
  {
   "name": "s2",
   "id": "^g^LBaPMIcF3lgim83D#"
  },
  {
   "name": "s3",
   "id": "/vCZIPatcO.rIg%*qP4r"
  },
  {
   "name": "x",
   "id": "y*LGvAqAhL|K1O,G(jcl"
  },
  {
   "name": "tr",
   "id": "Z$I:D]z=dwu|RjZ*,1NT"
  },
  {
   "name": "f",
   "id": "{F%iIMgQ6aY#QK,kcI@J"
  },
  {
   "name": "o1",
   "id": "MwJAjnC;b--NmkXvovH+"
  },
  {
   "name": "o2",
   "id": "e]:MN+K3PkZJ[+^w/#$#"
  },
  {
   "name": "o3",
   "id": "Ei?MTjN,L#f#_+a=H:WC"
  }
 ]
}
