{
 "blocks": {
  "languageVersion": 0,
  "blocks": [
   {
    "type": "Sc_Comment",
    "id": "SKxMqs{bzg%%TfJVG;Xm",
    "x": 0,
    "y": 0,
    "fields": {
     "COMMENT": "Sturmian sequencer 2 (Jrhb)"
    },
    "next": {
     "block": {
      "type": "variables_set",
      "id": "H(PITn:kkt+RPdrBrwNo",
      "fields": {
       "VAR": {
        "id": "O!^IM$hn(SU*tho4Zx#:"
       }
      },
      "inputs": {
       "VALUE": {
        "block": {
         "type": "lists_create_with",
         "id": "v_OeA/:U^h!qd#GLVUAO",
         "inline": true,
         "extraState": {
          "itemCount": 2
         },
         "inputs": {
          "ADD0": {
           "block": {
            "type": "lists_create_with",
            "id": "?L!dMCTj0t`lh4O?9l}c",
            "inline": true,
            "extraState": {
             "itemCount": 2
            },
            "inputs": {
             "ADD0": {
              "block": {
               "type": "math_number",
               "id": "G6hcS^/SjkW;j?*EvkZf",
               "fields": {
                "NUM": 0
               }
              }
             },
             "ADD1": {
              "block": {
               "type": "math_number",
               "id": ",1ENV5BDjZkin)u4K,Uw",
               "fields": {
                "NUM": 1
               }
              }
             }
            }
           }
          },
          "ADD1": {
           "block": {
            "type": "lists_create_with",
            "id": "AtU{nQDJ/2glXkSm3f7e",
            "inline": true,
            "extraState": {
             "itemCount": 1
            },
            "inputs": {
             "ADD0": {
              "block": {
               "type": "math_number",
               "id": "/kG)Qft(z~qzjd9plut1",
               "fields": {
                "NUM": 0
               }
              }
             }
            }
           }
          }
         }
        }
       }
      },
      "next": {
       "block": {
        "type": "variables_set",
        "id": "eBgb7lS6XewyX+:t*k}-",
        "fields": {
         "VAR": {
          "id": "{UC8-Rw^nKbLoxq(psN;"
         }
        },
        "inputs": {
         "VALUE": {
          "block": {
           "type": "Sc_Proc1Stm",
           "id": "qrd@aLsj+|1jnJ!7HM4Q",
           "inputs": {
            "VAR": {
             "block": {
              "type": "variables_get",
              "id": "-^E87YCu%B{|lW5(a]LW",
              "fields": {
               "VAR": {
                "id": "H|4XyT(5^1}gX/x*pP9W"
               }
              }
             }
            },
            "STATEMENTS": {
             "block": {
              "type": "variables_set",
              "id": "K-F4;;E?:dIHyg_+_*#?",
              "fields": {
               "VAR": {
                "id": "@]Vi:U.;f(V$39R[Jb*i"
               }
              },
              "inputs": {
               "VALUE": {
                "block": {
                 "type": "lists_create_with",
                 "id": "^y`cg};;UGgE~m_ANJ~|",
                 "inline": true,
                 "extraState": {
                  "itemCount": 1
                 },
                 "inputs": {
                  "ADD0": {
                   "block": {
                    "type": "math_number",
                    "id": "0)6W08~Mxf{GiB-MLzeK",
                    "fields": {
                     "NUM": 0
                    }
                   }
                  }
                 }
                }
               }
              },
              "next": {
               "block": {
                "type": "Sc_TimesRepeat",
                "id": ",(nosj{jU99hAi+;2ZPK",
                "inline": false,
                "inputs": {
                 "COUNT": {
                  "block": {
                   "type": "variables_get",
                   "id": "7F+`~:9+NPJ.@5x-8IC~",
                   "fields": {
                    "VAR": {
                     "id": "H|4XyT(5^1}gX/x*pP9W"
                    }
                   }
                  }
                 },
                 "PROC": {
                  "block": {
                   "type": "Sc_Proc0Stm",
                   "id": "/I0,w*!N(QCX,S`}UYV_",
                   "inputs": {
                    "STATEMENTS": {
                     "block": {
                      "type": "variables_set",
                      "id": "bS~(]zqZcj/)X3vOoghN",
                      "fields": {
                       "VAR": {
                        "id": "@]Vi:U.;f(V$39R[Jb*i"
                       }
                      },
                      "inputs": {
                       "VALUE": {
                        "block": {
                         "type": "Sc_ArrayProc1",
                         "id": "n-0)XwV^8$V1lif${3$*",
                         "fields": {
                          "OP": "catenate"
                         },
                         "inputs": {
                          "IN": {
                           "block": {
                            "type": "Sc_ArrayProc2",
                            "id": "K$]8/R43w_+E;*Nlf[{f",
                            "inline": true,
                            "fields": {
                             "OP": "collect"
                            },
                            "inputs": {
                             "LHS": {
                              "block": {
                               "type": "variables_get",
                               "id": "dVVTQSKz)Cnc!YOjb`oq",
                               "fields": {
                                "VAR": {
                                 "id": "@]Vi:U.;f(V$39R[Jb*i"
                                }
                               }
                              }
                             },
                             "RHS": {
                              "block": {
                               "type": "Sc_Proc1",
                               "id": "ZhhAogqAZgv0T-2WNIQF",
                               "inline": true,
                               "inputs": {
                                "VAR": {
                                 "block": {
                                  "type": "variables_get",
                                  "id": ";eXDcCt^BlPlwWI=Zr89",
                                  "fields": {
                                   "VAR": {
                                    "id": "l07(o:Sn[y)PIeoKs(hI"
                                   }
                                  }
                                 }
                                },
                                "RETURN": {
                                 "block": {
                                  "type": "Sc_ArrayProc2",
                                  "id": "i{LeRs79]_TWpC/lCXU;",
                                  "inline": true,
                                  "fields": {
                                   "OP": "at"
                                  },
                                  "inputs": {
                                   "LHS": {
                                    "block": {
                                     "type": "variables_get",
                                     "id": "oP-o:r:-kQa-pG8-CD!.",
                                     "fields": {
                                      "VAR": {
                                       "id": "O!^IM$hn(SU*tho4Zx#:"
                                      }
                                     }
                                    }
                                   },
                                   "RHS": {
                                    "block": {
                                     "type": "Sc_BinaryOp",
                                     "id": "dW]l#$=x=~|EGL`tfKYA",
                                     "inline": true,
                                     "fields": {
                                      "OP": "+"
                                     },
                                     "inputs": {
                                      "LHS": {
                                       "block": {
                                        "type": "variables_get",
                                        "id": "J7*5X})h5y:d-1r,0sw]",
                                        "fields": {
                                         "VAR": {
                                          "id": "l07(o:Sn[y)PIeoKs(hI"
                                         }
                                        }
                                       }
                                      },
                                      "RHS": {
                                       "block": {
                                        "type": "math_number",
                                        "id": "[2*PCj4B-|b0|ft)8=VV",
                                        "fields": {
                                         "NUM": 1
                                        }
                                       }
                                      }
                                     }
                                    }
                                   }
                                  }
                                 }
                                }
                               }
                              }
                             }
                            }
                           }
                          }
                         }
                        }
                       }
                      }
                     }
                    }
                   }
                  }
                 }
                }
               }
              }
             }
            },
            "RETURN": {
             "block": {
              "type": "variables_get",
              "id": "%G8oVb]!xPkN;UmR6._y",
              "fields": {
               "VAR": {
                "id": "@]Vi:U.;f(V$39R[Jb*i"
               }
              }
             }
            }
           }
          }
         }
        },
        "next": {
         "block": {
          "type": "variables_set",
          "id": "[436^c{4s2s?q|5Gz+`4",
          "fields": {
           "VAR": {
            "id": ";t)PQs;)k~hgJs-IPwe]"
           }
          },
          "inputs": {
           "VALUE": {
            "block": {
             "type": "math_number",
             "id": "Pl.oh=[XI|WZ7AS`SYm*",
             "fields": {
              "NUM": 7
             }
            }
           }
          },
          "next": {
           "block": {
            "type": "variables_set",
            "id": "o|bZa|!#0y@4co?8Rh`8",
            "fields": {
             "VAR": {
              "id": "LiM1k_42Z]m9dR!vGW^9"
             }
            },
            "inputs": {
             "VALUE": {
              "block": {
               "type": "Sc_Proc1Stm",
               "id": "MG5BwYs[av_3bjvLSi*z",
               "inputs": {
                "VAR": {
                 "block": {
                  "type": "variables_get",
                  "id": "|k@wgRy1?N$NJ*,Z3~l5",
                  "fields": {
                   "VAR": {
                    "id": "|h,KXnwz8{_w%,T#c,mm"
                   }
                  }
                 }
                },
                "STATEMENTS": {
                 "block": {
                  "type": "variables_set",
                  "id": "g5_C[YX+5;I]6D]fyX:}",
                  "fields": {
                   "VAR": {
                    "id": "JO].=7p$_q^)Bg2hUeo8"
                   }
                  },
                  "inputs": {
                   "VALUE": {
                    "block": {
                     "type": "Sc_Value1",
                     "id": "eJ4@E^o@+YxiOHnif{3a",
                     "inline": true,
                     "inputs": {
                      "PROC": {
                       "block": {
                        "type": "variables_get",
                        "id": "`6!rA[h{rY-_[=kX:bqc",
                        "fields": {
                         "VAR": {
                          "id": "{UC8-Rw^nKbLoxq(psN;"
                         }
                        }
                       }
                      },
                      "VALUE": {
                       "block": {
                        "type": "Sc_BinaryOp",
                        "id": "urap(Ihi_NCy]NEHU|hY",
                        "inline": true,
                        "fields": {
                         "OP": "+"
                        },
                        "inputs": {
                         "LHS": {
                          "block": {
                           "type": "variables_get",
                           "id": "1|m=fzMjkYV2!^TNY@4s",
                           "fields": {
                            "VAR": {
                             "id": "|h,KXnwz8{_w%,T#c,mm"
                            }
                           }
                          }
                         },
                         "RHS": {
                          "block": {
                           "type": "math_number",
                           "id": "JmlJG2F?0tEeZ^*^bz/L",
                           "fields": {
                            "NUM": 6
                           }
                          }
                         }
                        }
                       }
                      }
                     }
                    }
                   }
                  },
                  "next": {
                   "block": {
                    "type": "variables_set",
                    "id": "p6x+sJkpr7dd`${rBO$r",
                    "fields": {
                     "VAR": {
                      "id": "IRPW,`oE!Zr6AIq@|V(y"
                     }
                    },
                    "inputs": {
                     "VALUE": {
                      "block": {
                       "type": "Sc_BinaryOp",
                       "id": "U/p^s?EGCR`1=E+S2yAV",
                       "inline": true,
                       "fields": {
                        "OP": "*"
                       },
                       "inputs": {
                        "LHS": {
                         "block": {
                          "type": "Sc_BinaryOp",
                          "id": "IoOaceoAz[z/$%m`L0|a",
                          "inline": true,
                          "fields": {
                           "OP": "^"
                          },
                          "inputs": {
                           "LHS": {
                            "block": {
                             "type": "math_number",
                             "id": "yy2FIo|9-re1Oyp0h(|M",
                             "fields": {
                              "NUM": 2
                             }
                            }
                           },
                           "RHS": {
                            "block": {
                             "type": "Sc_UnaryOp",
                             "id": ".iLEwGl$2Q:Qx*:~1o.]",
                             "fields": {
                              "OP": "Negated"
                             },
                             "inputs": {
                              "IN": {
                               "block": {
                                "type": "Sc_BinaryOp",
                                "id": "AGhi0)zZetW%|.n!o~f1",
                                "inline": true,
                                "fields": {
                                 "OP": "-"
                                },
                                "inputs": {
                                 "LHS": {
                                  "block": {
                                   "type": "variables_get",
                                   "id": "X((K?yG{ZSeU`|xzpcfx",
                                   "fields": {
                                    "VAR": {
                                     "id": ";t)PQs;)k~hgJs-IPwe]"
                                    }
                                   }
                                  }
                                 },
                                 "RHS": {
                                  "block": {
                                   "type": "variables_get",
                                   "id": "5[(2*Xt-cI([SLf)OTsK",
                                   "fields": {
                                    "VAR": {
                                     "id": "|h,KXnwz8{_w%,T#c,mm"
                                    }
                                   }
                                  }
                                 }
                                }
                               }
                              }
                             }
                            }
                           }
                          }
                         }
                        },
                        "RHS": {
                         "block": {
                          "type": "math_number",
                          "id": "eba1y*1SpxxXbz~G5~Al",
                          "fields": {
                           "NUM": 20
                          }
                         }
                        }
                       }
                      }
                     }
                    },
                    "next": {
                     "block": {
                      "type": "variables_set",
                      "id": "XXN7f.I5rDxuc]cJ:*ND",
                      "fields": {
                       "VAR": {
                        "id": "iZYrLOe1yOj?%RKJKhFO"
                       }
                      },
                      "inputs": {
                       "VALUE": {
                        "block": {
                         "type": "Sc_TDuty",
                         "id": "B9.T8DQv==R,48PMG.v=",
                         "inline": true,
                         "inputs": {
                          "DUR": {
                           "block": {
                            "type": "variables_get",
                            "id": ",]jN9YXLc%r^pHi$)?Hu",
                            "fields": {
                             "VAR": {
                              "id": "IRPW,`oE!Zr6AIq@|V(y"
                             }
                            }
                           }
                          },
                          "RESET": {
                           "block": {
                            "type": "math_number",
                            "id": "JYSi;m2]/jM(fz+IT,.f",
                            "fields": {
                             "NUM": 0
                            }
                           }
                          },
                          "LEVEL": {
                           "block": {
                            "type": "Sc_Dseq",
                            "id": "%ZaAM$4]!o`]8zM;+kYM",
                            "inline": true,
                            "inputs": {
                             "REPEATS": {
                              "block": {
                               "type": "math_number",
                               "id": "d%.H[+pTg@i}kjOd~Ir#",
                               "fields": {
                                "NUM": 1
                               }
                              }
                             },
                             "ARRAY": {
                              "block": {
                               "type": "variables_get",
                               "id": "ApIckg{#??n7Wz=xm?pB",
                               "fields": {
                                "VAR": {
                                 "id": "JO].=7p$_q^)Bg2hUeo8"
                                }
                               }
                              }
                             },
                             "MUL": {
                              "shadow": {
                               "type": "math_number",
                               "id": "2k*+yeRjY8LFQ/n5H$sC",
                               "fields": {
                                "NUM": 1
                               }
                              }
                             },
                             "ADD": {
                              "shadow": {
                               "type": "math_number",
                               "id": "VHlc/JZO,Wofrr=3_G]t",
                               "fields": {
                                "NUM": 0
                               }
                              }
                             }
                            }
                           }
                          },
                          "MUL": {
                           "shadow": {
                            "type": "math_number",
                            "id": "e3M:GEUZ3PE-0GOja:E%",
                            "fields": {
                             "NUM": 1
                            }
                           }
                          },
                          "ADD": {
                           "shadow": {
                            "type": "math_number",
                            "id": "S)aFGg7X-j|rJCB),7$0",
                            "fields": {
                             "NUM": 0
                            }
                           }
                          }
                         }
                        }
                       }
                      },
                      "next": {
                       "block": {
                        "type": "variables_set",
                        "id": "SSHcZPEiIJXhD#(!V?6P",
                        "fields": {
                         "VAR": {
                          "id": "KRXlnZL]1799-}SrXVu6"
                         }
                        },
                        "inputs": {
                         "VALUE": {
                          "block": {
                           "type": "Sc_TExpRand",
                           "id": ".QfIp$t.Bgt65(cWKy!g",
                           "inline": true,
                           "inputs": {
                            "LO": {
                             "block": {
                              "type": "math_number",
                              "id": "mzUI;orJA.*+i/#x6~Y^",
                              "fields": {
                               "NUM": 200
                              }
                             }
                            },
                            "HI": {
                             "block": {
                              "type": "Sc_BinaryOp",
                              "id": "q%NK..l_$DrK:bL@J5cT",
                              "inline": true,
                              "fields": {
                               "OP": "*"
                              },
                              "inputs": {
                               "LHS": {
                                "block": {
                                 "type": "Sc_BinaryOp",
                                 "id": "g+q(?44M$}y5~bmInv2!",
                                 "inline": true,
                                 "fields": {
                                  "OP": "/"
                                 },
                                 "inputs": {
                                  "LHS": {
                                   "block": {
                                    "type": "Sc_BinaryOp",
                                    "id": "{w?wwFl;1zz.8T$+.=|W",
                                    "inline": true,
                                    "fields": {
                                     "OP": "-"
                                    },
                                    "inputs": {
                                     "LHS": {
                                      "block": {
                                       "type": "variables_get",
                                       "id": "*2z+M2UA$[4OWZX|Qf!8",
                                       "fields": {
                                        "VAR": {
                                         "id": ";t)PQs;)k~hgJs-IPwe]"
                                        }
                                       }
                                      }
                                     },
                                     "RHS": {
                                      "block": {
                                       "type": "variables_get",
                                       "id": "SYo+IXCX:/EjNO38|:Fx",
                                       "fields": {
                                        "VAR": {
                                         "id": "|h,KXnwz8{_w%,T#c,mm"
                                        }
                                       }
                                      }
                                     }
                                    }
                                   }
                                  },
                                  "RHS": {
                                   "block": {
                                    "type": "variables_get",
                                    "id": "Oi`gguJ9k$A1qbUtoxgO",
                                    "fields": {
                                     "VAR": {
                                      "id": ";t)PQs;)k~hgJs-IPwe]"
                                     }
                                    }
                                   }
                                  }
                                 }
                                }
                               },
                               "RHS": {
                                "block": {
                                 "type": "math_number",
                                 "id": "JW]]NC_0wf{Y@Xe0SV%G",
                                 "fields": {
                                  "NUM": 10100
                                 }
                                }
                               }
                              }
                             }
                            },
                            "TRIG": {
                             "block": {
                              "type": "variables_get",
                              "id": "47L#ic.yEiZGKKUKu?{n",
                              "fields": {
                               "VAR": {
                                "id": "iZYrLOe1yOj?%RKJKhFO"
                               }
                              }
                             }
                            },
                            "MUL": {
                             "shadow": {
                              "type": "math_number",
                              "id": "Sx,IC|vH+|aa9Rj,Us/6",
                              "fields": {
                               "NUM": 1
                              }
                             }
                            },
                            "ADD": {
                             "shadow": {
                              "type": "math_number",
                              "id": "z6{]ZjbLAof#E004BbIA",
                              "fields": {
                               "NUM": 0
                              }
                             }
                            }
                           }
                          }
                         }
                        },
                        "next": {
                         "block": {
                          "type": "variables_set",
                          "id": "wMwv_v9-#@9NCJ/5wXjZ",
                          "fields": {
                           "VAR": {
                            "id": "rdS3;9nFT/c)k.iNR,/b"
                           }
                          },
                          "inputs": {
                           "VALUE": {
                            "block": {
                             "type": "Sc_BPF",
                             "id": "7IXO33(6L8qSr:Y4e7mV",
                             "inline": true,
                             "inputs": {
                              "IN": {
                               "block": {
                                "type": "variables_get",
                                "id": "zmG3|z_//93)4kLkMR;Y",
                                "fields": {
                                 "VAR": {
                                  "id": "iZYrLOe1yOj?%RKJKhFO"
                                 }
                                }
                               }
                              },
                              "FREQ": {
                               "block": {
                                "type": "Sc_BinaryOp",
                                "id": "]|jG:-;w#k!B*N|~I)!9",
                                "inline": true,
                                "fields": {
                                 "OP": "*"
                                },
                                "inputs": {
                                 "LHS": {
                                  "block": {
                                   "type": "Sc_BinaryOp",
                                   "id": "2vd_{/03UG^Ob%!t|7Ah",
                                   "inline": true,
                                   "fields": {
                                    "OP": "+"
                                   },
                                   "inputs": {
                                    "LHS": {
                                     "block": {
                                      "type": "Sc_BinaryOp",
                                      "id": "bku%p9oMc+mi@PYY*!(d",
                                      "inline": true,
                                      "fields": {
                                       "OP": "*"
                                      },
                                      "inputs": {
                                       "LHS": {
                                        "block": {
                                         "type": "Sc_LFNoise2",
                                         "id": "ZsbWtK;U(X@v[u1L8It/",
                                         "inline": true,
                                         "inputs": {
                                          "FREQ": {
                                           "block": {
                                            "type": "math_number",
                                            "id": "rhZ9UD`)Ao%gYC|I:1q*",
                                            "fields": {
                                             "NUM": 0.1
                                            }
                                           }
                                          },
                                          "MUL": {
                                           "shadow": {
                                            "type": "math_number",
                                            "id": "5B]M_6B)lZc}{2iPJZLf",
                                            "fields": {
                                             "NUM": 1
                                            }
                                           }
                                          },
                                          "ADD": {
                                           "shadow": {
                                            "type": "math_number",
                                            "id": "Z-NU#Wn7YuuVWPqq6E_N",
                                            "fields": {
                                             "NUM": 0
                                            }
                                           }
                                          }
                                         }
                                        }
                                       },
                                       "RHS": {
                                        "block": {
                                         "type": "math_number",
                                         "id": "e}vYs^6=.;`$Bgr#hSL/",
                                         "fields": {
                                          "NUM": 0.02
                                         }
                                        }
                                       }
                                      }
                                     }
                                    },
                                    "RHS": {
                                     "block": {
                                      "type": "math_number",
                                      "id": "}FQ710l$CTKjV]Rjp[,f",
                                      "fields": {
                                       "NUM": 1
                                      }
                                     }
                                    }
                                   }
                                  }
                                 },
                                 "RHS": {
                                  "block": {
                                   "type": "variables_get",
                                   "id": "~7{o7%t$s*r.q^Fe1S?O",
                                   "fields": {
                                    "VAR": {
                                     "id": "KRXlnZL]1799-}SrXVu6"
                                    }
                                   }
                                  }
                                 }
                                }
                               }
                              },
                              "RQ": {
                               "block": {
                                "type": "math_number",
                                "id": "v`:f34.WJ0_OQ[j#2L((",
                                "fields": {
                                 "NUM": 0.2
                                }
                               }
                              },
                              "MUL": {
                               "shadow": {
                                "type": "math_number",
                                "id": "vWKNj(9LJq^%`j]~/X13",
                                "fields": {
                                 "NUM": 1
                                }
                               }
                              },
                              "ADD": {
                               "shadow": {
                                "type": "math_number",
                                "id": "j[crK4Dn8T-1So/E=ZeI",
                                "fields": {
                                 "NUM": 0
                                }
                               }
                              }
                             }
                            }
                           }
                          }
                         }
                        }
                       }
                      }
                     }
                    }
                   }
                  }
                 }
                },
                "RETURN": {
                 "block": {
                  "type": "Sc_UnaryOp",
                  "id": "4@^M6f51%-/HzD^E%3CK",
                  "fields": {
                   "OP": "Distort"
                  },
                  "inputs": {
                   "IN": {
                    "block": {
                     "type": "Sc_ArrayProc1",
                     "id": "=;HbO|.?z22L.),=7sjI",
                     "fields": {
                      "OP": "sum"
                     },
                     "inputs": {
                      "IN": {
                       "block": {
                        "type": "Sc_Ringz",
                        "id": "kDyy|ts@uMeX{0adpIr@",
                        "inline": false,
                        "inputs": {
                         "IN": {
                          "block": {
                           "type": "variables_get",
                           "id": "+:fW/N_hyqU=8J,iD4W@",
                           "fields": {
                            "VAR": {
                             "id": "rdS3;9nFT/c)k.iNR,/b"
                            }
                           }
                          }
                         },
                         "FREQ": {
                          "block": {
                           "type": "Sc_BinaryOp",
                           "id": "S=rvf9)[l$Ar!vd@5fF#",
                           "inline": true,
                           "fields": {
                            "OP": "*"
                           },
                           "inputs": {
                            "LHS": {
                             "block": {
                              "type": "variables_get",
                              "id": "w!C=KKwY.G7b[8_,G0gc",
                              "fields": {
                               "VAR": {
                                "id": "KRXlnZL]1799-}SrXVu6"
                               }
                              }
                             }
                            },
                            "RHS": {
                             "block": {
                              "type": "lists_create_with",
                              "id": "^gVy`;)e*?Ib2IlHe#v|",
                              "inline": true,
                              "extraState": {
                               "itemCount": 3
                              },
                              "inputs": {
                               "ADD0": {
                                "block": {
                                 "type": "math_number",
                                 "id": "C.RO(/QLqcp5/{`IA~V=",
                                 "fields": {
                                  "NUM": 1
                                 }
                                }
                               },
                               "ADD1": {
                                "block": {
                                 "type": "math_number",
                                 "id": "?)i{dB/8qe.`JA!njr|W",
                                 "fields": {
                                  "NUM": 1.1
                                 }
                                }
                               },
                               "ADD2": {
                                "block": {
                                 "type": "math_number",
                                 "id": "3,=5zg33];?g%hmtIPY`",
                                 "fields": {
                                  "NUM": 1.2
                                 }
                                }
                               }
                              }
                             }
                            }
                           }
                          }
                         },
                         "DECAYTIME": {
                          "block": {
                           "type": "Sc_ExpRand",
                           "id": "WEU.G;h56^nvu}N.(u/+",
                           "inline": true,
                           "inputs": {
                            "LO": {
                             "block": {
                              "type": "Sc_BinaryOp",
                              "id": "_[`~0vaLG7rk7hfdCIvl",
                              "inline": true,
                              "fields": {
                               "OP": "*"
                              },
                              "inputs": {
                               "LHS": {
                                "block": {
                                 "type": "Sc_BinaryOp",
                                 "id": "r[N_%Q+r__E2J;N6`S7v",
                                 "inline": true,
                                 "fields": {
                                  "OP": "^"
                                 },
                                 "inputs": {
                                  "LHS": {
                                   "block": {
                                    "type": "math_number",
                                    "id": ":Y8XW~A,!!?l^m_j](#.",
                                    "fields": {
                                     "NUM": 2
                                    }
                                   }
                                  },
                                  "RHS": {
                                   "block": {
                                    "type": "Sc_UnaryOp",
                                    "id": ")?(z?MjBz7,xf.:_ykO$",
                                    "fields": {
                                     "OP": "Negated"
                                    },
                                    "inputs": {
                                     "IN": {
                                      "block": {
                                       "type": "variables_get",
                                       "id": "#KJkPkK^z~0XTmwcYCA,",
                                       "fields": {
                                        "VAR": {
                                         "id": "|h,KXnwz8{_w%,T#c,mm"
                                        }
                                       }
                                      }
                                     }
                                    }
                                   }
                                  }
                                 }
                                }
                               },
                               "RHS": {
                                "block": {
                                 "type": "math_number",
                                 "id": "!v/r(5sDwCFtCO!J9)Ln",
                                 "fields": {
                                  "NUM": 0.1
                                 }
                                }
                               }
                              }
                             }
                            },
                            "HI": {
                             "block": {
                              "type": "math_number",
                              "id": "mY1XsS5JEBUD]JqK#X=N",
                              "fields": {
                               "NUM": 0.5
                              }
                             }
                            },
                            "MUL": {
                             "shadow": {
                              "type": "math_number",
                              "id": ".NrK]Ex34^FQ320HL?%f",
                              "fields": {
                               "NUM": 1
                              }
                             }
                            },
                            "ADD": {
                             "shadow": {
                              "type": "math_number",
                              "id": "*cA2S]Zsf%;z-7t8gR3?",
                              "fields": {
                               "NUM": 0
                              }
                             }
                            }
                           }
                          }
                         },
                         "MUL": {
                          "shadow": {
                           "type": "math_number",
                           "id": "L}I4$|!G;5NPqP@2%_T`",
                           "fields": {
                            "NUM": 1
                           }
                          }
                         },
                         "ADD": {
                          "shadow": {
                           "type": "math_number",
                           "id": "EosEec7P@c|END6-CG~{",
                           "fields": {
                            "NUM": 0
                           }
                          }
                         }
                        }
                       }
                      }
                     }
                    }
                   }
                  }
                 }
                }
               }
              }
             }
            },
            "next": {
             "block": {
              "type": "Sc_Play",
              "id": "fa5Ntr[=nE,uyyYtn8wQ",
              "inputs": {
               "CODE": {
                "block": {
                 "type": "Sc_Splay",
                 "id": "l-F*4L|!sF`lhtZV=k#W",
                 "inline": true,
                 "inputs": {
                  "INARRAY": {
                   "shadow": {
                    "type": "math_number",
                    "id": "]l}5HhXN}I93HJS7ZK?B",
                    "fields": {
                     "NUM": 0
                    }
                   },
                   "block": {
                    "type": "Sc_ArrayProc2",
                    "id": "$:=b|)U;`Ua#b?m_W}`w",
                    "inline": true,
                    "fields": {
                     "OP": "collect"
                    },
                    "inputs": {
                     "LHS": {
                      "block": {
                       "type": "Sc_ArrayFromTo",
                       "id": "uySR4cK%m-TbwGj}pP8X",
                       "inline": true,
                       "inputs": {
                        "FROM": {
                         "block": {
                          "type": "math_number",
                          "id": "qMoX(S;CP|mDlbnHq!$u",
                          "fields": {
                           "NUM": 0
                          }
                         }
                        },
                        "TO": {
                         "block": {
                          "type": "Sc_BinaryOp",
                          "id": "^4P+0LoK=Lkzrp3bcAg8",
                          "inline": true,
                          "fields": {
                           "OP": "-"
                          },
                          "inputs": {
                           "LHS": {
                            "block": {
                             "type": "variables_get",
                             "id": "U~3}$TYQN0yYOF3GU4?!",
                             "fields": {
                              "VAR": {
                               "id": ";t)PQs;)k~hgJs-IPwe]"
                              }
                             }
                            }
                           },
                           "RHS": {
                            "block": {
                             "type": "math_number",
                             "id": "lM%i*47J$]kDH#HDASxh",
                             "fields": {
                              "NUM": 1
                             }
                            }
                           }
                          }
                         }
                        }
                       }
                      }
                     },
                     "RHS": {
                      "block": {
                       "type": "variables_get",
                       "id": "b:K@]m@mY7(g;~pjvN~(",
                       "fields": {
                        "VAR": {
                         "id": "LiM1k_42Z]m9dR!vGW^9"
                        }
                       }
                      }
                     }
                    }
                   }
                  },
                  "MUL": {
                   "shadow": {
                    "type": "math_number",
                    "id": "0-`X]}NLNlmkqu[.-+;M",
                    "fields": {
                     "NUM": 1
                    }
                   },
                   "block": {
                    "type": "math_number",
                    "id": "v5^,(_dBt`hR+pix]}8.",
                    "fields": {
                     "NUM": 0.3
                    }
                   }
                  },
                  "ADD": {
                   "shadow": {
                    "type": "math_number",
                    "id": "1VP9q{v^t?0?{+HuqFgk",
                    "fields": {
                     "NUM": 0
                    }
                   }
                  }
                 }
                }
               }
              }
             }
            }
           }
          }
         }
        }
       }
      }
     }
    }
   }
  ]
 },
 "variables": [
  {
   "name": "rules",
   "id": "O!^IM$hn(SU*tho4Zx#:"
  },
  {
   "name": "rewrite",
   "id": "{UC8-Rw^nKbLoxq(psN;"
  },
  {
   "name": "n",
   "id": ";t)PQs;)k~hgJs-IPwe]"
  },
  {
   "name": "m",
   "id": "H|4XyT(5^1}gX/x*pP9W"
  },
  {
   "name": "r",
   "id": "@]Vi:U.;f(V$39R[Jb*i"
  },
  {
   "name": "strFunc",
   "id": "LiM1k_42Z]m9dR!vGW^9"
  },
  {
   "name": "i",
   "id": "|h,KXnwz8{_w%,T#c,mm"
  },
  {
   "name": "str",
   "id": "JO].=7p$_q^)Bg2hUeo8"
  },
  {
   "name": "dt",
   "id": "IRPW,`oE!Zr6AIq@|V(y"
  },
  {
   "name": "trig",
   "id": "iZYrLOe1yOj?%RKJKhFO"
  },
  {
   "name": "freq",
   "id": "KRXlnZL]1799-}SrXVu6"
  },
  {
   "name": "trigFlt",
   "id": "rdS3;9nFT/c)k.iNR,/b"
  },
  {
   "name": "e",
   "id": "l07(o:Sn[y)PIeoKs(hI"
  }
 ]
}
