{
 "blocks": {
  "languageVersion": 0,
  "blocks": [
   {
    "type": "Sc_Comment",
    "id": "$nD,@WS1f{T${ra!@Ed^",
    "x": 0,
    "y": 0,
    "fields": {
     "COMMENT": "Busy forest ; https://w2.mat.ucsb.edu/l.putnam/sc3one/index.html #3"
    },
    "next": {
     "block": {
      "type": "Sc_Play",
      "id": ".4LB4~ThV:o/v8h10S:8",
      "inputs": {
       "CODE": {
        "block": {
         "type": "Sc_CombC",
         "id": "M8j/u~%TR|F+/+r{u.^c",
         "inline": false,
         "inputs": {
          "IN": {
           "block": {
            "type": "Sc_Formant",
            "id": "DvOg:](VNsEAj)VnoCP4",
            "inline": false,
            "inputs": {
             "FUNDFREQ": {
              "block": {
               "type": "Sc_LFNoise0",
               "id": "ErKw)3oU6$_xpz5Z%/_{",
               "inline": true,
               "inputs": {
                "FREQ": {
                 "block": {
                  "type": "lists_create_with",
                  "id": "b(xrlDIrcVgL|)Ihldvs",
                  "inline": true,
                  "extraState": {
                   "itemCount": 2
                  },
                  "inputs": {
                   "ADD0": {
                    "block": {
                     "type": "math_number",
                     "id": ")eF*ox%@p3]uonOvRex|",
                     "fields": {
                      "NUM": 1
                     }
                    }
                   },
                   "ADD1": {
                    "block": {
                     "type": "math_number",
                     "id": "2pcgf9x?Gw9j@ikc{x**",
                     "fields": {
                      "NUM": 0.7
                     }
                    }
                   }
                  }
                 }
                },
                "MUL": {
                 "shadow": {
                  "type": "math_number",
                  "id": "AYPJ{BqariCm5[j?:96N",
                  "fields": {
                   "NUM": 1
                  }
                 },
                 "block": {
                  "type": "math_number",
                  "id": "H%h7|-@O2~#^=t/MMBn1",
                  "fields": {
                   "NUM": 8
                  }
                 }
                },
                "ADD": {
                 "shadow": {
                  "type": "math_number",
                  "id": "5:d$nvbIIn)_XMofw-$L",
                  "fields": {
                   "NUM": 0
                  }
                 },
                 "block": {
                  "type": "math_number",
                  "id": ",82.oO!dYn-[m^q=HRh}",
                  "fields": {
                   "NUM": 9
                  }
                 }
                }
               }
              }
             },
             "FORMFREQ": {
              "block": {
               "type": "Sc_LFNoise0",
               "id": "4hnb)GERZ@TVW$o?o,,8",
               "inline": true,
               "inputs": {
                "FREQ": {
                 "block": {
                  "type": "lists_create_with",
                  "id": "VFcVt@otWOx^z?xifaVI",
                  "inline": true,
                  "extraState": {
                   "itemCount": 2
                  },
                  "inputs": {
                   "ADD0": {
                    "block": {
                     "type": "math_number",
                     "id": "E;8N)2*DG6$]vL+z8*SQ",
                     "fields": {
                      "NUM": 1
                     }
                    }
                   },
                   "ADD1": {
                    "block": {
                     "type": "math_number",
                     "id": "r3fMrn;RO$FG~)+,aros",
                     "fields": {
                      "NUM": 0.7
                     }
                    }
                   }
                  }
                 }
                },
                "MUL": {
                 "shadow": {
                  "type": "math_number",
                  "id": "KX_W^CPVWt}HQN!bH|9@",
                  "fields": {
                   "NUM": 1
                  }
                 },
                 "block": {
                  "type": "math_number",
                  "id": "1]6QEvkS=Zo*Corpe|cX",
                  "fields": {
                   "NUM": 4000
                  }
                 }
                },
                "ADD": {
                 "shadow": {
                  "type": "math_number",
                  "id": "6@oL2;gWGa^/!c8rAlSd",
                  "fields": {
                   "NUM": 0
                  }
                 },
                 "block": {
                  "type": "math_number",
                  "id": "p1K9m%[VT7}7200cgGkS",
                  "fields": {
                   "NUM": 4000
                  }
                 }
                }
               }
              }
             },
             "BWFREQ": {
              "block": {
               "type": "math_number",
               "id": "!,t;?B1dqnMW%S?S9!xv",
               "fields": {
                "NUM": 200
               }
              }
             },
             "MUL": {
              "shadow": {
               "type": "math_number",
               "id": "(jVE1=OEy20pjM#Bdq]b",
               "fields": {
                "NUM": 1
               }
              },
              "block": {
               "type": "math_number",
               "id": ")HE7HM7iGZ6T9_g/_:gZ",
               "fields": {
                "NUM": 0.3
               }
              }
             },
             "ADD": {
              "shadow": {
               "type": "math_number",
               "id": "8wr=bHD@Z[ErCFm}%iN+",
               "fields": {
                "NUM": 0
               }
              }
             }
            }
           }
          },
          "MAXDELAYTIME": {
           "block": {
            "type": "math_number",
            "id": "@VVMYk_.j2uZ/3Tc-xGC",
            "fields": {
             "NUM": 0.2
            }
           }
          },
          "DELAYTIME": {
           "block": {
            "type": "math_number",
            "id": "D%qMR4C;#UqIO,aMLAGO",
            "fields": {
             "NUM": 0.2
            }
           }
          },
          "DECAYTIME": {
           "block": {
            "type": "math_number",
            "id": "+7}Vt(!c+f}dB3gP~+v5",
            "fields": {
             "NUM": 1
            }
           }
          },
          "MUL": {
           "shadow": {
            "type": "math_number",
            "id": "yB[y;E,-F93Kr(hY+(w+",
            "fields": {
             "NUM": 1
            }
           }
          },
          "ADD": {
           "shadow": {
            "type": "math_number",
            "id": "QixmTXC?b$WtrT0BAH2z",
            "fields": {
             "NUM": 0
            }
           }
          }
         }
        }
       }
      }
     }
    }
   }
  ]
 }
}
