{
 "blocks": {
  "languageVersion": 0,
  "blocks": [
   {
    "type": "Sc_Comment",
    "id": "r-S*zgGoHQhzxa*cmsus",
    "x": 0,
    "y": 0,
    "fields": {
     "COMMENT": "Trills ; https://w2.mat.ucsb.edu/l.putnam/sc3one/index.html #13e"
    },
    "next": {
     "block": {
      "type": "variables_set",
      "id": "u1W*;,{uXG)_|p$[j0[h",
      "fields": {
       "VAR": {
        "id": "L8s3ORP$k?9ELCdkv^8U"
       }
      },
      "inputs": {
       "VALUE": {
        "block": {
         "type": "Sc_BinaryOp",
         "id": "{DocKqFl:e3nNN-@|TF8",
         "inline": true,
         "fields": {
          "OP": "+"
         },
         "inputs": {
          "LHS": {
           "block": {
            "type": "lists_create_with",
            "id": "Rz9Mfx#EYgJTk(4hl(|j",
            "inline": true,
            "extraState": {
             "itemCount": 2
            },
            "inputs": {
             "ADD0": {
              "block": {
               "type": "math_number",
               "id": "bz7MaJXih9n#XKbti9mO",
               "fields": {
                "NUM": 1
               }
              }
             },
             "ADD1": {
              "block": {
               "type": "math_number",
               "id": "YMm_P$%7islJP|Dazn-p",
               "fields": {
                "NUM": 4
               }
              }
             }
            }
           }
          },
          "RHS": {
           "block": {
            "type": "math_number",
            "id": "#TaePGPt2i3l54P1CZ(6",
            "fields": {
             "NUM": 0.01
            }
           }
          }
         }
        }
       }
      },
      "next": {
       "block": {
        "type": "Sc_Play",
        "id": "jxL*Dh%!RQk;KKGF@h6R",
        "inputs": {
         "CODE": {
          "block": {
           "type": "Sc_EqPan2",
           "id": "6AJ~;:1t0`v*X,0nby~X",
           "inline": false,
           "inputs": {
            "IN": {
             "block": {
              "type": "Sc_SinOsc",
              "id": "1/tekWMBE^iex6hC4B?[",
              "inline": false,
              "inputs": {
               "FREQ": {
                "block": {
                 "type": "Sc_BinaryOp",
                 "id": "MALha]ulS@kskzGKf@,3",
                 "inline": false,
                 "fields": {
                  "OP": "*"
                 },
                 "inputs": {
                  "LHS": {
                   "block": {
                    "type": "math_number",
                    "id": "P91n0g;^3F=xQ$=F$R$[",
                    "fields": {
                     "NUM": 1400
                    }
                   }
                  },
                  "RHS": {
                   "block": {
                    "type": "Sc_ArrayProc1",
                    "id": "q-$sadwk0X3~R@ockqeB",
                    "fields": {
                     "OP": "sum"
                    },
                    "inputs": {
                     "IN": {
                      "block": {
                       "type": "Sc_Lag",
                       "id": ",9p1EcdiFF`Wa!t3|IP9",
                       "inline": false,
                       "inputs": {
                        "IN": {
                         "block": {
                          "type": "Sc_BinaryOp",
                          "id": "{-kiku!B`vcT!*IrFs*s",
                          "inline": false,
                          "fields": {
                           "OP": "RoundTo"
                          },
                          "inputs": {
                           "LHS": {
                            "block": {
                             "type": "Sc_BinaryOp",
                             "id": "OV?p7NwLfaVx1JGuvXx;",
                             "inline": false,
                             "fields": {
                              "OP": "/"
                             },
                             "inputs": {
                              "LHS": {
                               "block": {
                                "type": "Sc_LFTri",
                                "id": "G-]mMpX3M6$HD--u#)Fj",
                                "inline": true,
                                "inputs": {
                                 "FREQ": {
                                  "block": {
                                   "type": "Sc_BinaryOp",
                                   "id": "H$R=te#,MnQHY]OoC4),",
                                   "inline": true,
                                   "fields": {
                                    "OP": "*"
                                   },
                                   "inputs": {
                                    "LHS": {
                                     "block": {
                                      "type": "variables_get",
                                      "id": "p#+lLAk5u+K#RbP_E$ch",
                                      "fields": {
                                       "VAR": {
                                        "id": "L8s3ORP$k?9ELCdkv^8U"
                                       }
                                      }
                                     }
                                    },
                                    "RHS": {
                                     "block": {
                                      "type": "math_number",
                                      "id": "2arQEd,a|~HOlW%W[9%n",
                                      "fields": {
                                       "NUM": 0.2
                                      }
                                     }
                                    }
                                   }
                                  }
                                 },
                                 "IPHASE": {
                                  "block": {
                                   "type": "math_number",
                                   "id": "O9XBejT{@$ubo9WLwa}7",
                                   "fields": {
                                    "NUM": 0
                                   }
                                  }
                                 },
                                 "MUL": {
                                  "shadow": {
                                   "type": "math_number",
                                   "id": "~Z*:gJV^_-ghdra@!#(m",
                                   "fields": {
                                    "NUM": 1
                                   }
                                  }
                                 },
                                 "ADD": {
                                  "shadow": {
                                   "type": "math_number",
                                   "id": "g06Xk@@1]Gz|R#xGd!86",
                                   "fields": {
                                    "NUM": 0
                                   }
                                  }
                                 }
                                }
                               }
                              },
                              "RHS": {
                               "block": {
                                "type": "variables_get",
                                "id": ":kvQEz4iBb6-x,[BKN.j",
                                "fields": {
                                 "VAR": {
                                  "id": "L8s3ORP$k?9ELCdkv^8U"
                                 }
                                }
                               }
                              }
                             }
                            }
                           },
                           "RHS": {
                            "block": {
                             "type": "Sc_BinaryOp",
                             "id": "a;-d7*0Qy;4AvAj!HGMN",
                             "inline": true,
                             "fields": {
                              "OP": "/"
                             },
                             "inputs": {
                              "LHS": {
                               "block": {
                                "type": "math_number",
                                "id": "[q6s=_GIc00_u?4SyicA",
                                "fields": {
                                 "NUM": 1
                                }
                               }
                              },
                              "RHS": {
                               "block": {
                                "type": "math_number",
                                "id": "7V!~5B4AL%{YL8]eNUV4",
                                "fields": {
                                 "NUM": 8
                                }
                               }
                              }
                             }
                            }
                           }
                          }
                         }
                        },
                        "LAGTIME": {
                         "block": {
                          "type": "math_number",
                          "id": "=eGg6MB%B{3e0jxeE.E-",
                          "fields": {
                           "NUM": 0.002
                          }
                         }
                        },
                        "MUL": {
                         "shadow": {
                          "type": "math_number",
                          "id": "s{pEo-V5=XjU|P=GrH-z",
                          "fields": {
                           "NUM": 1
                          }
                         }
                        },
                        "ADD": {
                         "shadow": {
                          "type": "math_number",
                          "id": "sTW_zLq]jz]he-zPEXY`",
                          "fields": {
                           "NUM": 0
                          }
                         }
                        }
                       }
                      }
                     }
                    }
                   }
                  }
                 }
                }
               },
               "PHASE": {
                "block": {
                 "type": "math_number",
                 "id": "G+(T50=*Z8+O5=8L@iSr",
                 "fields": {
                  "NUM": 0
                 }
                }
               },
               "MUL": {
                "shadow": {
                 "type": "math_number",
                 "id": "9zY090~gTJ+Equd3Nqm+",
                 "fields": {
                  "NUM": 1
                 }
                }
               },
               "ADD": {
                "shadow": {
                 "type": "math_number",
                 "id": "ph:dMpB?HR3L2y};(*q,",
                 "fields": {
                  "NUM": 0
                 }
                }
               }
              }
             }
            },
            "POS": {
             "block": {
              "type": "math_number",
              "id": "P,Xqa^t@(xym-!qOD2nU",
              "fields": {
               "NUM": 0
              }
             }
            },
            "MUL": {
             "block": {
              "type": "math_number",
              "id": "PZw|HDr/v@hoy@hT?Q:=",
              "fields": {
               "NUM": 0.2
              }
             }
            },
            "ADD": {
             "shadow": {
              "type": "math_number",
              "id": ".dL-(rrFFM|65X1[L`LH",
              "fields": {
               "NUM": 0
              }
             }
            }
           }
          }
         }
        }
       }
      }
     }
    }
   }
  ]
 },
 "variables": [
  {
   "name": "p",
   "id": "L8s3ORP$k?9ELCdkv^8U"
  }
 ]
}
