{
 "blocks": {
  "languageVersion": 0,
  "blocks": [
   {
    "type": "Sc_Comment",
    "id": ";?7=^f}P7m:9ZE[A-A29",
    "x": 0,
    "y": 0,
    "fields": {
     "COMMENT": "https://schollz.com/blog/phasedistortion/ (zs)"
    },
    "next": {
     "block": {
      "type": "Sc_Play",
      "id": "G9?;QKNnE:s8dEhyZ7cY",
      "inputs": {
       "CODE": {
        "block": {
         "type": "Sc_ArrayProc1",
         "id": "yTJ036Ea^GW(:nyr:EE3",
         "fields": {
          "OP": "sum"
         },
         "inputs": {
          "IN": {
           "block": {
            "type": "Sc_Voicer",
            "id": "@%7w0Q#x-{pnU`B6/t4k",
            "inline": false,
            "inputs": {
             "COUNT": {
              "block": {
               "type": "math_number",
               "id": "}9%TZdAsL*x8ewSr|mfM",
               "fields": {
                "NUM": 16
               }
              }
             },
             "PROC": {
              "block": {
               "type": "Sc_Proc1Stm",
               "id": "5BXR4n?EEOL+6uxV#UU_",
               "inputs": {
                "VAR": {
                 "block": {
                  "type": "variables_get",
                  "id": "%d@qU,*$-sbNkuq1{DP_",
                  "fields": {
                   "VAR": {
                    "id": "X-|=|*NnjzyUXZ,({/c%"
                   }
                  }
                 }
                },
                "STATEMENTS": {
                 "block": {
                  "type": "variables_set",
                  "id": "WCE]53kFFfn_-kWcoJhN",
                  "fields": {
                   "VAR": {
                    "id": "2L2iEWCJ:mlemztzBzTO"
                   }
                  },
                  "inputs": {
                   "VALUE": {
                    "block": {
                     "type": "Sc_UnaryOp",
                     "id": "+usbLoLEXqw=+OCRrj:_",
                     "fields": {
                      "OP": "MidiCps"
                     },
                     "inputs": {
                      "IN": {
                       "block": {
                        "type": "Sc_BinaryOp",
                        "id": ")T6@lKr(W`D#h=af~Vb~",
                        "inline": true,
                        "fields": {
                         "OP": "+"
                        },
                        "inputs": {
                         "LHS": {
                          "block": {
                           "type": "Sc_BinaryOp",
                           "id": "C~|Sv3duT|S7J9*QI:f[",
                           "inline": true,
                           "fields": {
                            "OP": "*"
                           },
                           "inputs": {
                            "LHS": {
                             "block": {
                              "type": "Sc_EventParam",
                              "id": "(/OHUgj/W_G52Qw}iL;w",
                              "fields": {
                               "PARAM": "x"
                              },
                              "inputs": {
                               "EVENT": {
                                "block": {
                                 "type": "variables_get",
                                 "id": "%qL/*]aE}mQa-s3Mo.vm",
                                 "fields": {
                                  "VAR": {
                                   "id": "X-|=|*NnjzyUXZ,({/c%"
                                  }
                                 }
                                }
                               }
                              }
                             }
                            },
                            "RHS": {
                             "block": {
                              "type": "math_number",
                              "id": "lrQO6S.$nu}ul07}=eh)",
                              "fields": {
                               "NUM": 36
                              }
                             }
                            }
                           }
                          }
                         },
                         "RHS": {
                          "block": {
                           "type": "math_number",
                           "id": "UyrsY(za?(I!|p5,s^YA",
                           "fields": {
                            "NUM": 48
                           }
                          }
                         }
                        }
                       }
                      }
                     }
                    }
                   }
                  },
                  "next": {
                   "block": {
                    "type": "variables_set",
                    "id": "%:!z6AFd!4KzRuz*ylM$",
                    "fields": {
                     "VAR": {
                      "id": "R:r8h`7D@]Efe@[4C,T("
                     }
                    },
                    "inputs": {
                     "VALUE": {
                      "block": {
                       "type": "Sc_EventParam",
                       "id": "]zIi-t~w)YV%*@u^m6Fl",
                       "fields": {
                        "PARAM": "z"
                       },
                       "inputs": {
                        "EVENT": {
                         "block": {
                          "type": "variables_get",
                          "id": "e,I#kEw*UYjLp0YVbroW",
                          "fields": {
                           "VAR": {
                            "id": "X-|=|*NnjzyUXZ,({/c%"
                           }
                          }
                         }
                        }
                       }
                      }
                     }
                    },
                    "next": {
                     "block": {
                      "type": "variables_set",
                      "id": "=EC~`6.+nF.4H*IXbN!t",
                      "fields": {
                       "VAR": {
                        "id": "u}MoV;@YV)Ayv?8F/+@-"
                       }
                      },
                      "inputs": {
                       "VALUE": {
                        "block": {
                         "type": "variables_get",
                         "id": "B*ZcIVf?m4^zKbFb=JQ/",
                         "fields": {
                          "VAR": {
                           "id": "2L2iEWCJ:mlemztzBzTO"
                          }
                         }
                        }
                       }
                      },
                      "next": {
                       "block": {
                        "type": "variables_set",
                        "id": "Q^G-O1PV?fV]+TURj:;D",
                        "fields": {
                         "VAR": {
                          "id": "ndLkXrV$Z!l*h~f3}Suy"
                         }
                        },
                        "inputs": {
                         "VALUE": {
                          "block": {
                           "type": "Sc_LinLin",
                           "id": ":Vtf),9/nluo]lHgN6L;",
                           "inline": false,
                           "inputs": {
                            "IN": {
                             "block": {
                              "type": "Sc_SinOsc",
                              "id": "^;*vI$yMkA$73z!}MMu-",
                              "inline": true,
                              "inputs": {
                               "FREQ": {
                                "block": {
                                 "type": "Sc_Rand",
                                 "id": "q#I12{-7KF0BoN:?,qkP",
                                 "inline": true,
                                 "inputs": {
                                  "LO": {
                                   "block": {
                                    "type": "math_number",
                                    "id": "20UhNU.tFu=ZC{)_)P$@",
                                    "fields": {
                                     "NUM": 0
                                    }
                                   }
                                  },
                                  "HI": {
                                   "block": {
                                    "type": "math_number",
                                    "id": "D9zh*3/A?AZs#$K,6!=2",
                                    "fields": {
                                     "NUM": 0.2
                                    }
                                   }
                                  },
                                  "MUL": {
                                   "shadow": {
                                    "type": "math_number",
                                    "id": "P@LD^2E2~d608p^vMe_y",
                                    "fields": {
                                     "NUM": 1
                                    }
                                   }
                                  },
                                  "ADD": {
                                   "shadow": {
                                    "type": "math_number",
                                    "id": "H!o`:W{^fToywiT0u4@$",
                                    "fields": {
                                     "NUM": 0
                                    }
                                   }
                                  }
                                 }
                                }
                               },
                               "PHASE": {
                                "block": {
                                 "type": "math_number",
                                 "id": "Sc+Ric{df*eD!4e5dzMk",
                                 "fields": {
                                  "NUM": 0
                                 }
                                }
                               },
                               "MUL": {
                                "shadow": {
                                 "type": "math_number",
                                 "id": "ma}LZ|PF?fIT1k5oRtP+",
                                 "fields": {
                                  "NUM": 1
                                 }
                                }
                               },
                               "ADD": {
                                "shadow": {
                                 "type": "math_number",
                                 "id": "4b5A#{Lx8I1Wt(3|(n.r",
                                 "fields": {
                                  "NUM": 0
                                 }
                                }
                               }
                              }
                             }
                            },
                            "SRCLO": {
                             "block": {
                              "type": "math_number",
                              "id": "?i@RXOec0m6GM[o$/:J/",
                              "fields": {
                               "NUM": -1
                              }
                             }
                            },
                            "SRCHI": {
                             "block": {
                              "type": "math_number",
                              "id": "epO$c`kc+xp2Mw@082n5",
                              "fields": {
                               "NUM": 1
                              }
                             }
                            },
                            "DSTLO": {
                             "block": {
                              "type": "Sc_BinaryOp",
                              "id": "B^|5Fq#mgJYuEuf9av.k",
                              "inline": true,
                              "fields": {
                               "OP": "/"
                              },
                              "inputs": {
                               "LHS": {
                                "block": {
                                 "type": "variables_get",
                                 "id": "u8-WR(5L0]7{iuEWi{Io",
                                 "fields": {
                                  "VAR": {
                                   "id": "u}MoV;@YV)Ayv?8F/+@-"
                                  }
                                 }
                                }
                               },
                               "RHS": {
                                "block": {
                                 "type": "math_number",
                                 "id": "B~noSEc%ob.lr12cF=7{",
                                 "fields": {
                                  "NUM": 2
                                 }
                                }
                               }
                              }
                             }
                            },
                            "DSTHI": {
                             "block": {
                              "type": "Sc_BinaryOp",
                              "id": "W{xVLRTvd}wxthM-ifZD",
                              "inline": true,
                              "fields": {
                               "OP": "*"
                              },
                              "inputs": {
                               "LHS": {
                                "block": {
                                 "type": "variables_get",
                                 "id": "yOc,=PlSXM`A%c}vDmJ.",
                                 "fields": {
                                  "VAR": {
                                   "id": "u}MoV;@YV)Ayv?8F/+@-"
                                  }
                                 }
                                }
                               },
                               "RHS": {
                                "block": {
                                 "type": "math_number",
                                 "id": "}:y}(DttTEU6*GP_iRM$",
                                 "fields": {
                                  "NUM": 2
                                 }
                                }
                               }
                              }
                             }
                            },
                            "MUL": {
                             "shadow": {
                              "type": "math_number",
                              "id": ":O%yhU[[0GaS38iz3vdA",
                              "fields": {
                               "NUM": 1
                              }
                             }
                            },
                            "ADD": {
                             "shadow": {
                              "type": "math_number",
                              "id": "^6%e3CcPUqO*~0=F+7r_",
                              "fields": {
                               "NUM": 0
                              }
                             }
                            }
                           }
                          }
                         }
                        },
                        "next": {
                         "block": {
                          "type": "variables_set",
                          "id": "Ytx~nCy(w!/p{d,+x}uh",
                          "fields": {
                           "VAR": {
                            "id": "vL1}c@QuWA5%QlTe;+kP"
                           }
                          },
                          "inputs": {
                           "VALUE": {
                            "block": {
                             "type": "Sc_Impulse",
                             "id": "!@D6Pl^Vy#O+`2B]sh_x",
                             "inline": true,
                             "inputs": {
                              "FREQ": {
                               "block": {
                                "type": "variables_get",
                                "id": "2g]wk=doaUY([?CD#+Kb",
                                "fields": {
                                 "VAR": {
                                  "id": "u}MoV;@YV)Ayv?8F/+@-"
                                 }
                                }
                               }
                              },
                              "PHASE": {
                               "block": {
                                "type": "math_number",
                                "id": "lRY?w{rST~Dh%{#5{i9=",
                                "fields": {
                                 "NUM": 0
                                }
                               }
                              },
                              "MUL": {
                               "shadow": {
                                "type": "math_number",
                                "id": "4;{z6qU%u;hu#L4jW_8e",
                                "fields": {
                                 "NUM": 1
                                }
                               }
                              },
                              "ADD": {
                               "shadow": {
                                "type": "math_number",
                                "id": "f-0!H9h5klLc({7B|o,p",
                                "fields": {
                                 "NUM": 0
                                }
                               }
                              }
                             }
                            }
                           }
                          },
                          "next": {
                           "block": {
                            "type": "variables_set",
                            "id": "/7:61)*_3hHyefWe+(Lm",
                            "fields": {
                             "VAR": {
                              "id": "va8GMHkOo2eNUQK3P4[-"
                             }
                            },
                            "inputs": {
                             "VALUE": {
                              "block": {
                               "type": "Sc_Constant",
                               "id": "UcWlHV|bkZAh39Aj86N2",
                               "fields": {
                                "CONST": "twoPi"
                               }
                              }
                             }
                            },
                            "next": {
                             "block": {
                              "type": "variables_set",
                              "id": "EQcUX*F^tVt:`K`4n:3y",
                              "fields": {
                               "VAR": {
                                "id": "1E}m!@HS@p]?U6D[i~-~"
                               }
                              },
                              "inputs": {
                               "VALUE": {
                                "block": {
                                 "type": "Sc_Phasor",
                                 "id": "Eznr/?Km)@kmpGdSxjes",
                                 "inline": true,
                                 "inputs": {
                                  "TRIG": {
                                   "block": {
                                    "type": "variables_get",
                                    "id": "Dveb$-D8MEvAkK$a/yrP",
                                    "fields": {
                                     "VAR": {
                                      "id": "vL1}c@QuWA5%QlTe;+kP"
                                     }
                                    }
                                   }
                                  },
                                  "RATE": {
                                   "block": {
                                    "type": "Sc_BinaryOp",
                                    "id": "-w/*bah%u;{%s~YeJK/,",
                                    "inline": true,
                                    "fields": {
                                     "OP": "/"
                                    },
                                    "inputs": {
                                     "LHS": {
                                      "block": {
                                       "type": "Sc_BinaryOp",
                                       "id": "SSj;Lk,*3ZHvnjHbElJj",
                                       "inline": true,
                                       "fields": {
                                        "OP": "*"
                                       },
                                       "inputs": {
                                        "LHS": {
                                         "block": {
                                          "type": "variables_get",
                                          "id": "AgO@MU)GoLH#)X0O|I#M",
                                          "fields": {
                                           "VAR": {
                                            "id": "va8GMHkOo2eNUQK3P4[-"
                                           }
                                          }
                                         }
                                        },
                                        "RHS": {
                                         "block": {
                                          "type": "variables_get",
                                          "id": "Pzre#)b-bn;/GQM/ja]Y",
                                          "fields": {
                                           "VAR": {
                                            "id": "u}MoV;@YV)Ayv?8F/+@-"
                                           }
                                          }
                                         }
                                        }
                                       }
                                      }
                                     },
                                     "RHS": {
                                      "block": {
                                       "type": "Sc_SampleRate",
                                       "id": "ZPlQep^:i1i@Hs@9c1Eo",
                                       "inline": true,
                                       "inputs": {
                                        "MUL": {
                                         "shadow": {
                                          "type": "math_number",
                                          "id": "X#6F],nB*XiKMDf.OdzK",
                                          "fields": {
                                           "NUM": 1
                                          }
                                         }
                                        },
                                        "ADD": {
                                         "shadow": {
                                          "type": "math_number",
                                          "id": "VGmvffJ`2$_6oC+L*yw~",
                                          "fields": {
                                           "NUM": 0
                                          }
                                         }
                                        }
                                       }
                                      }
                                     }
                                    }
                                   }
                                  },
                                  "START": {
                                   "block": {
                                    "type": "math_number",
                                    "id": "L?oi`x^b7kiJ.ayEXq#j",
                                    "fields": {
                                     "NUM": 0
                                    }
                                   }
                                  },
                                  "END": {
                                   "block": {
                                    "type": "variables_get",
                                    "id": "9MfEVS6`ZP/LIS,gS^F{",
                                    "fields": {
                                     "VAR": {
                                      "id": "va8GMHkOo2eNUQK3P4[-"
                                     }
                                    }
                                   }
                                  },
                                  "RESETPOS": {
                                   "block": {
                                    "type": "math_number",
                                    "id": "O3#1scjar*PL1?.h!4(P",
                                    "fields": {
                                     "NUM": 0
                                    }
                                   }
                                  },
                                  "MUL": {
                                   "shadow": {
                                    "type": "math_number",
                                    "id": "fNvB;By?`,_$atYhLj2?",
                                    "fields": {
                                     "NUM": 1
                                    }
                                   }
                                  },
                                  "ADD": {
                                   "shadow": {
                                    "type": "math_number",
                                    "id": "}/.!I9x(2)gL}z,6l~Fa",
                                    "fields": {
                                     "NUM": 0
                                    }
                                   }
                                  }
                                 }
                                }
                               }
                              },
                              "next": {
                               "block": {
                                "type": "variables_set",
                                "id": "V4c.A$YXop]]p)WF2gN:",
                                "fields": {
                                 "VAR": {
                                  "id": "wW[xH+i61D~N5^}}TWGW"
                                 }
                                },
                                "inputs": {
                                 "VALUE": {
                                  "block": {
                                   "type": "Sc_Phasor",
                                   "id": "h+2q.x6OlB{:fwI9(W}%",
                                   "inline": true,
                                   "inputs": {
                                    "TRIG": {
                                     "block": {
                                      "type": "variables_get",
                                      "id": "]m3]S#Z{)8X![(w|#k9.",
                                      "fields": {
                                       "VAR": {
                                        "id": "vL1}c@QuWA5%QlTe;+kP"
                                       }
                                      }
                                     }
                                    },
                                    "RATE": {
                                     "block": {
                                      "type": "Sc_BinaryOp",
                                      "id": "5`e,2f1@6#Opr25MpW:R",
                                      "inline": true,
                                      "fields": {
                                       "OP": "/"
                                      },
                                      "inputs": {
                                       "LHS": {
                                        "block": {
                                         "type": "Sc_BinaryOp",
                                         "id": "12{f.OA62,7LMP=~N0w(",
                                         "inline": true,
                                         "fields": {
                                          "OP": "*"
                                         },
                                         "inputs": {
                                          "LHS": {
                                           "block": {
                                            "type": "variables_get",
                                            "id": "on=d6(-}LCZVs;pG}vo1",
                                            "fields": {
                                             "VAR": {
                                              "id": "va8GMHkOo2eNUQK3P4[-"
                                             }
                                            }
                                           }
                                          },
                                          "RHS": {
                                           "block": {
                                            "type": "variables_get",
                                            "id": "0tdd(,/d^^Nf#BfG]m4e",
                                            "fields": {
                                             "VAR": {
                                              "id": "ndLkXrV$Z!l*h~f3}Suy"
                                             }
                                            }
                                           }
                                          }
                                         }
                                        }
                                       },
                                       "RHS": {
                                        "block": {
                                         "type": "Sc_SampleRate",
                                         "id": "x,qSH3v+FyGlP7d3zOs4",
                                         "inline": true,
                                         "inputs": {
                                          "MUL": {
                                           "shadow": {
                                            "type": "math_number",
                                            "id": "{+pToqihu(OgB,?o:@/E",
                                            "fields": {
                                             "NUM": 1
                                            }
                                           }
                                          },
                                          "ADD": {
                                           "shadow": {
                                            "type": "math_number",
                                            "id": "qpj0rsv4l3SN##xq7hE`",
                                            "fields": {
                                             "NUM": 0
                                            }
                                           }
                                          }
                                         }
                                        }
                                       }
                                      }
                                     }
                                    },
                                    "START": {
                                     "block": {
                                      "type": "math_number",
                                      "id": "kh?lw@Kl:^xov16rFg4|",
                                      "fields": {
                                       "NUM": 0
                                      }
                                     }
                                    },
                                    "END": {
                                     "block": {
                                      "type": "variables_get",
                                      "id": "Gr}J{*-j=JcdcZy5t^nd",
                                      "fields": {
                                       "VAR": {
                                        "id": "va8GMHkOo2eNUQK3P4[-"
                                       }
                                      }
                                     }
                                    },
                                    "RESETPOS": {
                                     "block": {
                                      "type": "math_number",
                                      "id": "^-|CJVXV@kWf+rWrX(Lw",
                                      "fields": {
                                       "NUM": 0
                                      }
                                     }
                                    },
                                    "MUL": {
                                     "shadow": {
                                      "type": "math_number",
                                      "id": "t[f[#t*sD_44Emfjb32W",
                                      "fields": {
                                       "NUM": 1
                                      }
                                     }
                                    },
                                    "ADD": {
                                     "shadow": {
                                      "type": "math_number",
                                      "id": "06/|zp0XG]s^|mD-K?C3",
                                      "fields": {
                                       "NUM": 0
                                      }
                                     }
                                    }
                                   }
                                  }
                                 }
                                },
                                "next": {
                                 "block": {
                                  "type": "variables_set",
                                  "id": "C_MTve`U;@?B6+G55}{J",
                                  "fields": {
                                   "VAR": {
                                    "id": "N5ot,3H/#bR*z;!UwPm$"
                                   }
                                  },
                                  "inputs": {
                                   "VALUE": {
                                    "block": {
                                     "type": "Sc_LinLin",
                                     "id": "ZX~:]gaAz_VVx:h3U!zL",
                                     "inline": true,
                                     "inputs": {
                                      "IN": {
                                       "block": {
                                        "type": "Sc_BinaryOp",
                                        "id": "]:|%`R^t(Av@KQ^FxX?p",
                                        "inline": true,
                                        "fields": {
                                         "OP": "Max"
                                        },
                                        "inputs": {
                                         "LHS": {
                                          "block": {
                                           "type": "Sc_BinaryOp",
                                           "id": "l/Fo]*^},48hLewRnTJ.",
                                           "inline": true,
                                           "fields": {
                                            "OP": "-"
                                           },
                                           "inputs": {
                                            "LHS": {
                                             "block": {
                                              "type": "variables_get",
                                              "id": "LKUj5y-Jf~z`#jZLoX`(",
                                              "fields": {
                                               "VAR": {
                                                "id": "va8GMHkOo2eNUQK3P4[-"
                                               }
                                              }
                                             }
                                            },
                                            "RHS": {
                                             "block": {
                                              "type": "variables_get",
                                              "id": "vGG#Az[Rfdw;nbxvLFev",
                                              "fields": {
                                               "VAR": {
                                                "id": "1E}m!@HS@p]?U6D[i~-~"
                                               }
                                              }
                                             }
                                            }
                                           }
                                          }
                                         },
                                         "RHS": {
                                          "block": {
                                           "type": "math_number",
                                           "id": "8eVu+s*(pDzYfGYVFZ;-",
                                           "fields": {
                                            "NUM": 0
                                           }
                                          }
                                         }
                                        }
                                       }
                                      },
                                      "SRCLO": {
                                       "block": {
                                        "type": "math_number",
                                        "id": "zmlZ_P0?PmP9xz-S.W1V",
                                        "fields": {
                                         "NUM": 0
                                        }
                                       }
                                      },
                                      "SRCHI": {
                                       "block": {
                                        "type": "variables_get",
                                        "id": "y=w/fT:vV83Kv!xKG6Ct",
                                        "fields": {
                                         "VAR": {
                                          "id": "va8GMHkOo2eNUQK3P4[-"
                                         }
                                        }
                                       }
                                      },
                                      "DSTLO": {
                                       "block": {
                                        "type": "math_number",
                                        "id": "WZ=IpjN#l_(R$=dibj+v",
                                        "fields": {
                                         "NUM": 0
                                        }
                                       }
                                      },
                                      "DSTHI": {
                                       "block": {
                                        "type": "math_number",
                                        "id": "lrSGR,J]yTV$KvQ5o9r;",
                                        "fields": {
                                         "NUM": 1
                                        }
                                       }
                                      },
                                      "MUL": {
                                       "shadow": {
                                        "type": "math_number",
                                        "id": "E~b/xYLDR?)a6mRP7m-)",
                                        "fields": {
                                         "NUM": 1
                                        }
                                       }
                                      },
                                      "ADD": {
                                       "shadow": {
                                        "type": "math_number",
                                        "id": "H[0C:xpwAZUd2OS3Fm-(",
                                        "fields": {
                                         "NUM": 0
                                        }
                                       }
                                      }
                                     }
                                    }
                                   }
                                  },
                                  "next": {
                                   "block": {
                                    "type": "variables_set",
                                    "id": "lk./6Fk6M-=SA{HVLcR,",
                                    "fields": {
                                     "VAR": {
                                      "id": "s+@SBPadx8l;e]Ab[H~J"
                                     }
                                    },
                                    "inputs": {
                                     "VALUE": {
                                      "block": {
                                       "type": "Sc_Lag",
                                       "id": "6RPpRVHBV;U-1cPf!*)c",
                                       "inline": true,
                                       "inputs": {
                                        "IN": {
                                         "block": {
                                          "type": "Sc_BinaryOp",
                                          "id": "e#;46!;y[9(is*%s7$Ly",
                                          "inline": true,
                                          "fields": {
                                           "OP": "*"
                                          },
                                          "inputs": {
                                           "LHS": {
                                            "block": {
                                             "type": "Sc_SinOsc",
                                             "id": "mk{~*Wk#P]5ZCWloj`(7",
                                             "inline": true,
                                             "inputs": {
                                              "FREQ": {
                                               "block": {
                                                "type": "math_number",
                                                "id": "QL(wXXZQh_rcJbR_Oli/",
                                                "fields": {
                                                 "NUM": 0
                                                }
                                               }
                                              },
                                              "PHASE": {
                                               "block": {
                                                "type": "variables_get",
                                                "id": "Je2Bh~s;rb4E!^:sG^48",
                                                "fields": {
                                                 "VAR": {
                                                  "id": "wW[xH+i61D~N5^}}TWGW"
                                                 }
                                                }
                                               }
                                              },
                                              "MUL": {
                                               "shadow": {
                                                "type": "math_number",
                                                "id": "~llC~].B5V(8JL=Dg%yh",
                                                "fields": {
                                                 "NUM": 1
                                                }
                                               }
                                              },
                                              "ADD": {
                                               "shadow": {
                                                "type": "math_number",
                                                "id": "ybl~.$1lYA:EEr6nAO~S",
                                                "fields": {
                                                 "NUM": 0
                                                }
                                               }
                                              }
                                             }
                                            }
                                           },
                                           "RHS": {
                                            "block": {
                                             "type": "variables_get",
                                             "id": "R]%.zm*7J)P_@gt3z3l`",
                                             "fields": {
                                              "VAR": {
                                               "id": "N5ot,3H/#bR*z;!UwPm$"
                                              }
                                             }
                                            }
                                           }
                                          }
                                         }
                                        },
                                        "LAGTIME": {
                                         "block": {
                                          "type": "Sc_BinaryOp",
                                          "id": "IhSX2xbA8XHrF*FDYn}5",
                                          "inline": true,
                                          "fields": {
                                           "OP": "/"
                                          },
                                          "inputs": {
                                           "LHS": {
                                            "block": {
                                             "type": "math_number",
                                             "id": "CU:%{EKI@I-`B7t2px7-",
                                             "fields": {
                                              "NUM": 1
                                             }
                                            }
                                           },
                                           "RHS": {
                                            "block": {
                                             "type": "variables_get",
                                             "id": "U94q2A/cADE9_Ybg`q3f",
                                             "fields": {
                                              "VAR": {
                                               "id": "u}MoV;@YV)Ayv?8F/+@-"
                                              }
                                             }
                                            }
                                           }
                                          }
                                         }
                                        },
                                        "MUL": {
                                         "shadow": {
                                          "type": "math_number",
                                          "id": "^By]zj!9?pAXF[O#{_1$",
                                          "fields": {
                                           "NUM": 1
                                          }
                                         }
                                        },
                                        "ADD": {
                                         "shadow": {
                                          "type": "math_number",
                                          "id": "/6rXD]gzj=N|Vf?8?8Vj",
                                          "fields": {
                                           "NUM": 0
                                          }
                                         }
                                        }
                                       }
                                      }
                                     }
                                    },
                                    "next": {
                                     "block": {
                                      "type": "variables_set",
                                      "id": "dEpgdu6uV^L-}Nkln,vm",
                                      "fields": {
                                       "VAR": {
                                        "id": "*7H{|}?+}S;K1a%Is1Rj"
                                       }
                                      },
                                      "inputs": {
                                       "VALUE": {
                                        "block": {
                                         "type": "Sc_Decay2",
                                         "id": "ciqYVyb{+9_]w2ndEgN`",
                                         "inline": true,
                                         "inputs": {
                                          "IN": {
                                           "block": {
                                            "type": "Sc_Trig",
                                            "id": "|]Xq@qf0oYOCOtrg]~u5",
                                            "inline": true,
                                            "inputs": {
                                             "IN": {
                                              "block": {
                                               "type": "Sc_EventParam",
                                               "id": "N_C44~*4(UC]z`UXtZ3M",
                                               "fields": {
                                                "PARAM": "w"
                                               },
                                               "inputs": {
                                                "EVENT": {
                                                 "block": {
                                                  "type": "variables_get",
                                                  "id": "mwrTX*r/0SX+18%bl_ie",
                                                  "fields": {
                                                   "VAR": {
                                                    "id": "X-|=|*NnjzyUXZ,({/c%"
                                                   }
                                                  }
                                                 }
                                                }
                                               }
                                              }
                                             },
                                             "DUR": {
                                              "block": {
                                               "type": "math_number",
                                               "id": "0j0B/B:/1zgCtCf^`ZLn",
                                               "fields": {
                                                "NUM": 0.001
                                               }
                                              }
                                             },
                                             "MUL": {
                                              "shadow": {
                                               "type": "math_number",
                                               "id": "9AlnPAUZ96)#C-hGKUbC",
                                               "fields": {
                                                "NUM": 1
                                               }
                                              }
                                             },
                                             "ADD": {
                                              "shadow": {
                                               "type": "math_number",
                                               "id": "x=^5Mn9F1atfr-{3=O)h",
                                               "fields": {
                                                "NUM": 0
                                               }
                                              }
                                             }
                                            }
                                           }
                                          },
                                          "ATTACKTIME": {
                                           "block": {
                                            "type": "math_number",
                                            "id": "Z4j$T0A(.@X3`qESbi_q",
                                            "fields": {
                                             "NUM": 0.005
                                            }
                                           }
                                          },
                                          "DECAYTIME": {
                                           "block": {
                                            "type": "math_number",
                                            "id": "/:QZX[@%m:v`y!Jt`S:|",
                                            "fields": {
                                             "NUM": 10
                                            }
                                           }
                                          },
                                          "MUL": {
                                           "shadow": {
                                            "type": "math_number",
                                            "id": "d*RBr5t(-f[p-*@RRo+E",
                                            "fields": {
                                             "NUM": 1
                                            }
                                           }
                                          },
                                          "ADD": {
                                           "shadow": {
                                            "type": "math_number",
                                            "id": "8d7spAvETuzW%a6|=US_",
                                            "fields": {
                                             "NUM": 0
                                            }
                                           }
                                          }
                                         }
                                        }
                                       }
                                      }
                                     }
                                    }
                                   }
                                  }
                                 }
                                }
                               }
                              }
                             }
                            }
                           }
                          }
                         }
                        }
                       }
                      }
                     }
                    }
                   }
                  }
                 }
                },
                "RETURN": {
                 "block": {
                  "type": "Sc_EqPan2",
                  "id": "ashE`VL6-9A/z9}3P|CJ",
                  "inline": true,
                  "inputs": {
                   "IN": {
                    "block": {
                     "type": "variables_get",
                     "id": "u/@mB,;aDS6%OH6c?oL*",
                     "fields": {
                      "VAR": {
                       "id": "s+@SBPadx8l;e]Ab[H~J"
                      }
                     }
                    }
                   },
                   "POS": {
                    "block": {
                     "type": "Sc_BinaryOp",
                     "id": "lXPwd?0BB[[^*/:WExU3",
                     "inline": true,
                     "fields": {
                      "OP": "-"
                     },
                     "inputs": {
                      "LHS": {
                       "block": {
                        "type": "Sc_BinaryOp",
                        "id": "jzfT_l97Af1]Qgy1xeOq",
                        "inline": true,
                        "fields": {
                         "OP": "*"
                        },
                        "inputs": {
                         "LHS": {
                          "block": {
                           "type": "Sc_EventParam",
                           "id": "fkx1ihtdLNutYJa4ln?2",
                           "fields": {
                            "PARAM": "v"
                           },
                           "inputs": {
                            "EVENT": {
                             "block": {
                              "type": "variables_get",
                              "id": "*:LzN7`-}xX`8xZXq]l(",
                              "fields": {
                               "VAR": {
                                "id": "X-|=|*NnjzyUXZ,({/c%"
                               }
                              }
                             }
                            }
                           }
                          }
                         },
                         "RHS": {
                          "block": {
                           "type": "math_number",
                           "id": "HALB|}WBROUchU0C@)2q",
                           "fields": {
                            "NUM": 2
                           }
                          }
                         }
                        }
                       }
                      },
                      "RHS": {
                       "block": {
                        "type": "math_number",
                        "id": "2d,vQ}A[^Y6p!Cix!%EF",
                        "fields": {
                         "NUM": 1
                        }
                       }
                      }
                     }
                    }
                   },
                   "MUL": {
                    "block": {
                     "type": "Sc_BinaryOp",
                     "id": "QUH7[FHdz0m%$s2:o]//",
                     "inline": true,
                     "fields": {
                      "OP": "*"
                     },
                     "inputs": {
                      "LHS": {
                       "block": {
                        "type": "variables_get",
                        "id": "US!.`KP(;1,*r]Hl~!2+",
                        "fields": {
                         "VAR": {
                          "id": "*7H{|}?+}S;K1a%Is1Rj"
                         }
                        }
                       }
                      },
                      "RHS": {
                       "block": {
                        "type": "variables_get",
                        "id": "rxx!Cx(Z#;*Z:N9Hyj3*",
                        "fields": {
                         "VAR": {
                          "id": "R:r8h`7D@]Efe@[4C,T("
                         }
                        }
                       }
                      }
                     }
                    }
                   },
                   "ADD": {
                    "shadow": {
                     "type": "math_number",
                     "id": "|{CqY}eFjDumRqs#r1~p",
                     "fields": {
                      "NUM": 0
                     }
                    }
                   }
                  }
                 }
                }
               }
              }
             }
            }
           }
          }
         }
        }
       }
      }
     }
    }
   }
  ]
 },
 "variables": [
  {
   "name": "e",
   "id": "X-|=|*NnjzyUXZ,({/c%"
  },
  {
   "name": "freq",
   "id": "2L2iEWCJ:mlemztzBzTO"
  },
  {
   "name": "amp",
   "id": "R:r8h`7D@]Efe@[4C,T("
  },
  {
   "name": "snd",
   "id": "s+@SBPadx8l;e]Ab[H~J"
  },
  {
   "name": "freqBase",
   "id": "u}MoV;@YV)Ayv?8F/+@-"
  },
  {
   "name": "env",
   "id": "*7H{|}?+}S;K1a%Is1Rj"
  },
  {
   "name": "freqRes",
   "id": "ndLkXrV$Z!l*h~f3}Suy"
  },
  {
   "name": "pdbase",
   "id": "vL1}c@QuWA5%QlTe;+kP"
  },
  {
   "name": "twoPi",
   "id": "va8GMHkOo2eNUQK3P4[-"
  },
  {
   "name": "pd",
   "id": "1E}m!@HS@p]?U6D[i~-~"
  },
  {
   "name": "pdres",
   "id": "wW[xH+i61D~N5^}}TWGW"
  },
  {
   "name": "pdi",
   "id": "N5ot,3H/#bR*z;!UwPm$"
  }
 ]
}
