{
 "blocks": {
  "languageVersion": 0,
  "blocks": [
   {
    "type": "Sc_Comment",
    "id": "SnOBNSgw)iG+[;q8:u(d",
    "x": 0,
    "y": 0,
    "fields": {
     "COMMENT": "Small Programs"
    },
    "next": {
     "block": {
      "type": "Sc_Play",
      "id": "Y?$jX1B*=.y(V.u[y{-6",
      "inputs": {
       "CODE": {
        "block": {
         "type": "Sc_PinkNoise",
         "id": "mc_k1U5G]0KTlb}TWb(w",
         "inline": true,
         "inputs": {
          "MUL": {
           "shadow": {
            "type": "math_number",
            "id": "%x0pt1E3jpZriS=v_G:[",
            "fields": {
             "NUM": 0.1
            }
           }
          },
          "ADD": {
           "shadow": {
            "type": "math_number",
            "id": ":I:IVB=-2O^Hjt-?uA1p",
            "fields": {
             "NUM": 0
            }
           }
          }
         }
        }
       }
      }
     }
    }
   }
  ]
 }
}
