{
 "blocks": {
  "languageVersion": 0,
  "blocks": [
   {
    "type": "Sc_Comment",
    "id": "c;2n+TrAIG;c/oEv=VEC",
    "x": 0,
    "y": 0,
    "fields": {
     "COMMENT": "SinOsc (External Inputs)"
    },
    "next": {
     "block": {
      "type": "Sc_Play",
      "id": "3e.egupxI;]gLC0`[E/W",
      "inputs": {
       "CODE": {
        "block": {
         "type": "Sc_SinOsc",
         "id": ",{co%aj,ZY,}JN|OcX@(",
         "inline": false,
         "inputs": {
          "FREQ": {
           "shadow": {
            "type": "math_number",
            "id": "ZL+~_2owvhj3I,j1#HBy",
            "fields": {
             "NUM": 440
            }
           }
          },
          "PHASE": {
           "shadow": {
            "type": "math_number",
            "id": "Ti14[Y$9fM44O[j,fo^?",
            "fields": {
             "NUM": 0
            }
           }
          },
          "MUL": {
           "shadow": {
            "type": "math_number",
            "id": "n;rBckpfGoyEo?|svS`R",
            "fields": {
             "NUM": 1
            }
           },
           "block": {
            "type": "math_number",
            "id": "Pz3#kP0Xv,@Yiqj$cuGo",
            "fields": {
             "NUM": 0.1
            }
           }
          },
          "ADD": {
           "shadow": {
            "type": "math_number",
            "id": "w-gjB1|8u%A_=bxtKVzJ",
            "fields": {
             "NUM": 0
            }
           }
          }
         }
        }
       }
      }
     }
    }
   }
  ]
 },
 "variables": [
  {
   "name": "x",
   "id": "Mh!H?e^13m+VLffi85JJ"
  }
 ]
}
