{
 "blocks": {
  "languageVersion": 0,
  "blocks": [
   {
    "type": "Sc_UnaryOp",
    "id": "ti@pzeQ?9(`~59[%,tpI",
    "x": 0,
    "y": 0,
    "fields": {
     "OP": "Sqrt"
    },
    "inputs": {
     "IN": {
      "shadow": {
       "type": "math_number",
       "id": "aD]P~84cVFfl,nWylm(O",
       "fields": {
        "NUM": 0
       }
      },
      "block": {
       "type": "Sc_BinaryOp",
       "id": "lj1cE?.~PAQ();LMcj]I",
       "inline": true,
       "fields": {
        "OP": "/"
       },
       "inputs": {
        "LHS": {
         "shadow": {
          "type": "math_number",
          "id": "^?1kZ51AOwiBKuQImjPH",
          "fields": {
           "NUM": 0
          }
         },
         "block": {
          "type": "Sc_Constant",
          "id": "}exKKn2v$RZWnD%^.[u7",
          "fields": {
           "CONST": "pi"
          }
         }
        },
        "RHS": {
         "shadow": {
          "type": "math_number",
          "id": "@Rtk[Z=5S]+ZwV0$nTh_",
          "fields": {
           "NUM": 0
          }
         },
         "block": {
          "type": "Sc_Constant",
          "id": "EzCVf.]_u1#jxfk$@$Nk",
          "fields": {
           "CONST": "e"
          }
         }
        }
       }
      }
     }
    }
   }
  ]
 }
}
